%!PS-Adobe-3.0 EPSF-3.0
%%Title: ID1_Anisospec_vs_param_Full_vs_Lin_Diamond.eps
%%Creator: matplotlib version 1.5.1, http://matplotlib.org/
%%CreationDate: Fri Sep 30 18:09:17 2016
%%Orientation: portrait
%%BoundingBox: 18 180 594 612
%%EndComments
%%BeginProlog
/mpldict 12 dict def
mpldict begin
/m { moveto } bind def
/l { lineto } bind def
/r { rlineto } bind def
/c { curveto } bind def
/cl { closepath } bind def
/box {
m
1 index 0 r
0 exch r
neg 0 r
cl
} bind def
/clipbox {
box
clip
newpath
} bind def
%!PS-Adobe-3.0 Resource-Font
%%Title: cmsy10
%%Copyright: Copyright (C) 1994, Basil K. Malyshev. All Rights Reserved.012BaKoMa Fonts Collection, Level-B.
%%Creator: Converted from TrueType to type 3 by PPR
25 dict begin
/_d{bind def}bind def
/_m{moveto}_d
/_l{lineto}_d
/_cl{closepath eofill}_d
/_c{curveto}_d
/_sc{7 -1 roll{setcachedevice}{pop pop pop pop pop pop}ifelse}_d
/_e{exec}_d
/FontName /Cmsy10 def
/PaintType 0 def
/FontMatrix[.001 0 0 .001 0 0]def
/FontBBox[-29 -960 1123 779]def
/FontType 3 def
/Encoding [ /minus /bar ] def
/FontInfo 10 dict dup begin
/FamilyName (cmsy10) def
/FullName (cmsy10) def
/Notice (Copyright (C) 1994, Basil K. Malyshev. All Rights Reserved.012BaKoMa Fonts Collection, Level-B. ) def
/Weight (Regular) def
/Version (1.1/12-Nov-94) def
/ItalicAngle 0.0 def
/isFixedPitch false def
/UnderlinePosition -133 def
/UnderlineThickness 20 def
end readonly def
/CharStrings 2 dict dup begin
/minus{777 0 83 230 694 270 _sc
102 230 _m
96 230 92 232 88 236 _c
84 240 83 245 83 250 _c
83 254 84 259 88 263 _c
92 267 96 270 102 270 _c
676 270 _l
681 270 685 267 689 263 _c
692 259 694 254 694 250 _c
694 245 692 240 689 236 _c
685 232 681 230 676 230 _c
102 230 _l
_cl}_d
/bar{277 0 119 -249 159 750 _sc
119 -231 _m
119 732 _l
119 737 121 741 125 745 _c
129 748 133 750 139 750 _c
143 750 148 748 152 745 _c
156 741 159 737 159 732 _c
159 -231 _l
159 -236 156 -240 152 -244 _c
148 -247 143 -249 139 -249 _c
133 -249 129 -247 125 -244 _c
121 -240 119 -236 119 -231 _c
_cl}_d
end readonly def

/BuildGlyph
 {exch begin
 CharStrings exch
 2 copy known not{pop /.notdef}if
 true 3 1 roll get exec
 end}_d

/BuildChar {
 1 index /Encoding get exch get
 1 index /BuildGlyph get exec
}_d

FontName currentdict end definefont pop
%!PS-Adobe-3.0 Resource-Font
%%Title: cmmi10
%%Copyright: Copyright (C) 1994, Basil K. Malyshev. All Rights Reserved.012BaKoMa Fonts Collection, Level-B.
%%Creator: Converted from TrueType to type 3 by PPR
25 dict begin
/_d{bind def}bind def
/_m{moveto}_d
/_l{lineto}_d
/_cl{closepath eofill}_d
/_c{curveto}_d
/_sc{7 -1 roll{setcachedevice}{pop pop pop pop pop pop}ifelse}_d
/_e{exec}_d
/FontName /Cmmi10 def
/PaintType 0 def
/FontMatrix[.001 0 0 .001 0 0]def
/FontBBox[-34 -250 1048 750]def
/FontType 3 def
/Encoding [ /lambda /omega /m /R /c ] def
/FontInfo 10 dict dup begin
/FamilyName (cmmi10) def
/FullName (cmmi10) def
/Notice (Copyright (C) 1994, Basil K. Malyshev. All Rights Reserved.012BaKoMa Fonts Collection, Level-B. ) def
/Weight (Regular) def
/Version (1.1/12-Nov-94) def
/ItalicAngle 0.0 def
/isFixedPitch false def
/UnderlinePosition -133 def
/UnderlineThickness 20 def
end readonly def
/CharStrings 5 dict dup begin
/lambda{{583 0 51 -12 550 694 _sc
51 17 _m
51 27 55 36 64 45 _c
345 321 _l
246 599 _l
238 620 229 637 221 649 _c
212 661 200 668 184 668 _c
176 668 173 672 173 681 _c
173 685 175 688 178 690 _c
180 692 184 694 188 694 _c
258 694 300 673 315 632 _c
518 65 _l
526 36 535 17 545 8 _c
548 2 550 0 550 -1 _c
550 -7 547 -10 542 -10 _c
488 -10 _l
471 -5 458 8 448 32 _c
}_e{357 288 _l
115 4 _l
103 -6 92 -12 83 -12 _c
74 -12 66 -9 60 -4 _c
54 1 51 8 51 17 _c
_cl}_e}_d
/omega{{622 0 14 -10 605 443 _sc
121 -10 _m
83 -10 55 3 39 31 _c
22 58 14 92 14 132 _c
14 158 16 183 21 209 _c
25 234 32 260 42 286 _c
52 312 63 336 75 359 _c
87 381 101 403 117 425 _c
120 429 124 431 129 431 _c
133 431 136 429 139 427 _c
141 424 143 421 143 418 _c
143 414 142 411 140 408 _c
79 324 49 247 49 177 _c
49 146 56 120 70 98 _c
}_e{84 76 105 65 135 65 _c
159 65 182 72 204 87 _c
225 101 244 120 260 143 _c
260 155 262 173 266 198 _c
270 222 276 244 285 264 _c
293 283 304 293 316 293 _c
331 293 339 284 339 266 _c
339 255 336 242 332 226 _c
328 210 323 196 318 182 _c
312 168 306 153 298 136 _c
306 88 329 65 369 65 _c
392 65 415 71 439 85 _c
462 98 482 115 500 137 _c
}_e{518 159 532 182 542 207 _c
552 232 558 256 558 279 _c
558 299 554 314 548 326 _c
542 337 533 349 523 361 _c
513 373 508 383 508 391 _c
508 404 513 416 524 427 _c
535 437 547 443 560 443 _c
576 443 587 435 594 420 _c
601 405 605 388 605 370 _c
605 339 598 300 586 254 _c
574 208 560 169 545 138 _c
523 96 496 60 464 32 _c
432 4 395 -10 355 -10 _c
}_e{329 -10 308 -2 292 12 _c
276 27 266 48 262 75 _c
243 49 222 28 198 13 _c
174 -2 149 -10 121 -10 _c
_cl}_e}_d
/m{{878 0 27 -10 851 442 _sc
77 17 _m
77 21 77 24 78 26 _c
153 324 _l
157 342 160 359 160 373 _c
160 401 150 416 131 416 _c
110 416 94 403 84 378 _c
74 353 64 322 55 284 _c
55 282 54 280 52 279 _c
50 278 48 278 47 278 _c
35 278 _l
33 278 31 279 29 281 _c
27 283 27 286 27 288 _c
34 317 41 342 48 362 _c
54 382 65 400 79 417 _c
}_e{93 433 110 442 132 442 _c
156 442 178 434 198 418 _c
217 402 227 382 227 358 _c
247 384 270 404 297 419 _c
323 434 352 442 382 442 _c
413 442 440 434 463 418 _c
486 402 498 379 498 349 _c
518 378 542 401 570 417 _c
597 433 627 442 660 442 _c
694 442 722 432 743 414 _c
764 395 775 368 775 334 _c
775 306 768 273 756 235 _c
744 196 729 153 711 105 _c
}_e{701 81 697 61 697 45 _c
697 25 704 15 720 15 _c
746 15 767 29 785 57 _c
802 85 814 115 822 147 _c
824 151 826 153 830 153 _c
842 153 _l
844 153 846 152 848 150 _c
850 148 851 146 851 144 _c
851 143 850 142 850 141 _c
840 103 824 68 802 37 _c
780 5 752 -10 718 -10 _c
694 -10 674 -2 658 13 _c
641 29 633 48 633 72 _c
633 83 635 96 641 111 _c
}_e{659 161 675 205 688 245 _c
700 284 707 319 707 349 _c
707 367 703 383 696 396 _c
688 409 676 416 658 416 _c
622 416 590 404 563 382 _c
536 360 513 330 494 294 _c
492 287 491 282 491 279 _c
427 22 _l
424 12 419 5 411 -1 _c
403 -7 394 -10 385 -10 _c
377 -10 370 -7 364 -3 _c
358 1 355 8 355 17 _c
355 21 355 24 356 26 _c
420 281 _l
426 308 430 331 430 349 _c
}_e{430 367 426 383 418 396 _c
410 409 398 416 380 416 _c
355 416 332 410 312 400 _c
292 389 274 375 259 357 _c
243 339 229 318 217 294 _c
149 22 _l
147 12 142 5 134 -1 _c
126 -7 117 -10 107 -10 _c
99 -10 92 -7 86 -3 _c
80 1 77 8 77 17 _c
_cl}_e}_d
/R{{759 0 39 -21 755 683 _sc
49 0 _m
42 0 39 4 39 13 _c
39 15 40 18 41 22 _c
41 26 43 29 45 31 _c
47 33 49 35 52 35 _c
92 35 121 37 137 42 _c
145 44 152 53 156 69 _c
293 618 _l
294 624 295 629 295 632 _c
295 639 291 643 283 644 _c
270 646 246 648 211 648 _c
204 648 201 652 201 661 _c
201 663 202 666 203 670 _c
204 674 205 677 207 679 _c
}_e{209 681 211 683 214 683 _c
517 683 _l
541 683 566 680 592 675 _c
618 669 642 661 664 649 _c
686 637 704 621 718 601 _c
732 581 739 558 739 532 _c
739 498 727 468 705 442 _c
683 416 655 394 621 376 _c
587 358 555 346 523 339 _c
549 329 570 314 587 294 _c
603 273 612 249 612 222 _c
612 218 611 216 611 214 _c
611 212 611 210 611 208 _c
603 119 _l
602 106 601 95 601 86 _c
}_e{600 76 600 69 600 64 _c
600 46 602 31 608 20 _c
613 9 624 4 640 4 _c
660 4 679 13 695 33 _c
711 52 721 73 726 96 _c
728 102 732 105 736 105 _c
745 105 _l
751 105 755 100 755 92 _c
750 72 742 54 732 37 _c
721 19 707 5 691 -5 _c
675 -15 657 -21 639 -21 _c
600 -21 567 -12 539 4 _c
511 21 498 48 498 86 _c
498 100 499 112 502 123 _c
524 212 _l
}_e{526 220 528 229 528 240 _c
528 268 518 289 500 305 _c
481 321 457 329 429 329 _c
306 329 _l
240 65 _l
238 59 238 55 238 51 _c
238 44 242 40 250 39 _c
262 36 286 35 322 35 _c
328 35 332 30 332 22 _c
330 12 328 6 327 4 _c
325 1 321 0 315 0 _c
49 0 _l
312 355 _m
423 355 _l
495 355 550 373 587 410 _c
603 427 617 449 627 475 _c
}_e{637 501 642 527 642 553 _c
642 577 634 597 620 611 _c
606 625 588 634 567 640 _c
545 645 522 648 496 648 _c
429 648 _l
411 648 399 646 393 643 _c
387 640 381 630 377 614 _c
312 355 _l
_cl}_e}_d
/c{{432 0 40 -10 430 442 _sc
117 119 _m
117 90 124 65 139 45 _c
154 25 175 15 203 15 _c
243 15 281 24 318 42 _c
354 60 384 86 407 118 _c
409 120 411 121 415 121 _c
418 121 421 119 425 115 _c
428 111 430 108 430 105 _c
430 102 429 100 428 99 _c
404 65 371 38 330 19 _c
288 0 245 -10 201 -10 _c
169 -10 140 -2 116 12 _c
92 26 73 46 60 72 _c
}_e{46 97 40 126 40 158 _c
40 203 52 248 77 292 _c
102 336 135 372 177 400 _c
219 428 263 442 309 442 _c
339 442 366 434 390 420 _c
414 405 426 384 426 356 _c
426 338 420 322 410 309 _c
399 296 385 290 367 290 _c
356 290 347 293 340 300 _c
332 306 329 315 329 326 _c
329 342 334 355 346 366 _c
357 377 370 383 386 383 _c
388 383 _l
380 394 368 402 354 408 _c
}_e{339 413 324 416 308 416 _c
269 416 235 399 206 366 _c
176 332 154 292 139 246 _c
124 200 117 157 117 119 _c
_cl}_e}_d
end readonly def

/BuildGlyph
 {exch begin
 CharStrings exch
 2 copy known not{pop /.notdef}if
 true 3 1 roll get exec
 end}_d

/BuildChar {
 1 index /Encoding get exch get
 1 index /BuildGlyph get exec
}_d

FontName currentdict end definefont pop
%!PS-Adobe-3.0 Resource-Font
%%Title: cmex10
%%Copyright: Copyright (C) 1994, Basil K. Malyshev. All Rights Reserved.012BaKoMa Fonts Collection, Level-B.
%%Creator: Converted from TrueType to type 3 by PPR
25 dict begin
/_d{bind def}bind def
/_m{moveto}_d
/_l{lineto}_d
/_cl{closepath eofill}_d
/_c{curveto}_d
/_sc{7 -1 roll{setcachedevice}{pop pop pop pop pop pop}ifelse}_d
/_e{exec}_d
/FontName /Cmex10 def
/PaintType 0 def
/FontMatrix[.001 0 0 .001 0 0]def
/FontBBox[-24 -2960 1454 772]def
/FontType 3 def
/Encoding [ /bracketleftbig /bracketrightbig ] def
/FontInfo 10 dict dup begin
/FamilyName (cmex10) def
/FullName (cmex10) def
/Notice (Copyright (C) 1994, Basil K. Malyshev. All Rights Reserved.012BaKoMa Fonts Collection, Level-B. ) def
/Weight (Regular) def
/Version (1.1/12-Nov-94) def
/ItalicAngle 0.0 def
/isFixedPitch false def
/UnderlinePosition -133 def
/UnderlineThickness 20 def
end readonly def
/CharStrings 2 dict dup begin
/bracketleftbig{416 0 202 -1158 394 40 _sc
202 -1158 _m
202 40 _l
394 40 _l
394 0 _l
242 0 _l
242 -1118 _l
394 -1118 _l
394 -1158 _l
202 -1158 _l
_cl}_d
/bracketrightbig{416 0 22 -1158 214 40 _sc
22 -1158 _m
22 -1118 _l
174 -1118 _l
174 0 _l
22 0 _l
22 40 _l
214 40 _l
214 -1158 _l
22 -1158 _l
_cl}_d
end readonly def

/BuildGlyph
 {exch begin
 CharStrings exch
 2 copy known not{pop /.notdef}if
 true 3 1 roll get exec
 end}_d

/BuildChar {
 1 index /Encoding get exch get
 1 index /BuildGlyph get exec
}_d

FontName currentdict end definefont pop
%!PS-Adobe-3.0 Resource-Font
%%Title: cmr10
%%Copyright: Copyright (C) 1994, Basil K. Malyshev. All Rights Reserved.012BaKoMa Fonts Collection, Level-B.
%%Creator: Converted from TrueType to type 3 by PPR
25 dict begin
/_d{bind def}bind def
/_m{moveto}_d
/_l{lineto}_d
/_cl{closepath eofill}_d
/_c{curveto}_d
/_sc{7 -1 roll{setcachedevice}{pop pop pop pop pop pop}ifelse}_d
/_e{exec}_d
/FontName /Cmr10 def
/PaintType 0 def
/FontMatrix[.001 0 0 .001 0 0]def
/FontBBox[-44 -250 1009 750]def
/FontType 3 def
/Encoding [ /nine /zero /two /parenright /one /parenleft ] def
/FontInfo 10 dict dup begin
/FamilyName (cmr10) def
/FullName (cmr10) def
/Notice (Copyright (C) 1994, Basil K. Malyshev. All Rights Reserved.012BaKoMa Fonts Collection, Level-B. ) def
/Weight (Regular) def
/Version (1.1/12-Nov-94) def
/ItalicAngle 0.0 def
/isFixedPitch false def
/UnderlinePosition -133 def
/UnderlineThickness 20 def
end readonly def
/CharStrings 6 dict dup begin
/nine{{500 0 42 -21 457 666 _sc
113 42 _m
131 20 162 10 208 10 _c
233 10 257 18 279 36 _c
301 53 318 74 330 99 _c
344 127 353 158 357 190 _c
361 222 363 261 363 309 _c
351 282 335 260 314 243 _c
292 225 268 217 240 217 _c
201 217 166 227 136 248 _c
106 269 82 297 66 331 _c
50 365 42 402 42 441 _c
42 481 51 518 69 553 _c
87 587 113 615 145 635 _c
}_e{177 655 213 666 255 666 _c
295 666 328 655 356 633 _c
383 611 404 582 418 548 _c
432 513 442 476 448 438 _c
454 399 457 361 457 323 _c
457 271 447 219 428 165 _c
409 111 381 67 344 32 _c
306 -3 261 -21 208 -21 _c
168 -21 135 -12 108 6 _c
80 24 67 52 67 90 _c
67 103 71 114 81 124 _c
90 133 101 138 115 138 _c
128 138 139 133 149 124 _c
}_e{158 114 163 103 163 90 _c
163 76 158 65 149 56 _c
139 46 128 42 115 42 _c
113 42 _l
244 243 _m
271 243 293 252 311 270 _c
328 288 341 311 349 339 _c
357 366 361 393 361 421 _c
361 440 _l
361 444 _l
361 494 353 538 339 578 _c
324 617 296 637 255 637 _c
228 637 206 631 190 620 _c
174 608 162 593 154 574 _c
146 554 141 534 139 512 _c
137 490 136 466 136 441 _c
}_e{136 403 137 370 141 344 _c
145 317 155 293 171 273 _c
187 253 211 243 244 243 _c
_cl}_e}_d
/zero{{500 0 39 -21 460 666 _sc
250 -21 _m
168 -21 112 12 83 79 _c
53 146 39 226 39 319 _c
39 377 44 431 55 482 _c
65 533 86 576 118 612 _c
149 648 193 666 250 666 _c
294 666 330 655 358 634 _c
386 612 407 585 422 551 _c
436 517 446 480 452 441 _c
457 402 460 361 460 319 _c
460 261 454 208 444 158 _c
433 108 412 65 381 31 _c
350 -3 306 -21 250 -21 _c
250 4 _m
}_e{287 4 315 23 333 61 _c
351 99 362 141 366 187 _c
370 233 373 283 373 335 _c
373 385 370 431 366 473 _c
362 515 351 554 333 588 _c
315 622 287 640 250 640 _c
212 640 184 622 166 588 _c
148 554 136 515 132 473 _c
128 431 126 385 126 335 _c
126 297 126 262 128 230 _c
130 197 135 163 143 128 _c
151 93 163 64 181 40 _c
198 16 221 4 250 4 _c
_cl}_e}_d
/two{{500 0 50 0 449 666 _sc
50 0 _m
50 27 _l
50 28 50 30 52 32 _c
207 204 _l
230 229 249 250 264 268 _c
278 285 293 305 307 327 _c
321 349 333 372 341 396 _c
349 419 354 444 354 470 _c
354 497 349 523 339 548 _c
329 573 314 593 294 608 _c
274 623 249 631 221 631 _c
192 631 166 622 143 605 _c
119 587 103 565 94 537 _c
96 537 100 538 105 538 _c
}_e{119 538 132 533 143 523 _c
153 513 159 500 159 484 _c
159 468 153 455 143 445 _c
132 434 119 429 105 429 _c
89 429 76 434 66 445 _c
55 456 50 469 50 484 _c
50 508 54 532 64 554 _c
73 576 86 595 104 613 _c
122 630 142 643 164 652 _c
186 661 210 666 236 666 _c
274 666 309 658 342 642 _c
375 626 401 603 420 573 _c
439 543 449 509 449 470 _c
}_e{449 441 442 414 430 388 _c
417 362 401 338 381 317 _c
361 295 336 271 305 244 _c
274 217 254 199 244 190 _c
131 81 _l
227 81 _l
274 81 313 81 345 82 _c
377 82 394 84 396 86 _c
404 94 412 125 420 178 _c
449 178 _l
421 0 _l
50 0 _l
_cl}_e}_d
/parenright{{388 0 56 -249 291 750 _sc
65 -249 _m
59 -249 56 -246 56 -240 _c
56 -237 56 -235 58 -234 _c
172 -122 229 38 229 250 _c
229 462 172 623 60 733 _c
57 734 56 737 56 741 _c
56 743 57 745 59 747 _c
61 749 63 750 65 750 _c
74 750 _l
76 750 77 749 79 748 _c
127 710 167 664 199 610 _c
231 556 254 498 269 437 _c
283 376 291 314 291 250 _c
291 202 287 156 279 110 _c
}_e{271 64 258 20 241 -24 _c
223 -68 201 -108 175 -146 _c
148 -184 116 -217 79 -247 _c
77 -248 76 -249 74 -249 _c
65 -249 _l
_cl}_e}_d
/one{500 0 87 0 421 666 _sc
93 0 _m
93 35 _l
176 35 218 45 218 67 _c
218 592 _l
183 575 139 567 87 567 _c
87 602 _l
168 602 230 623 272 666 _c
286 666 _l
288 666 291 665 293 663 _c
295 661 296 659 296 657 _c
296 67 _l
296 45 337 35 421 35 _c
421 0 _l
93 0 _l
_cl}_d
/parenleft{{388 0 97 -249 332 750 _sc
310 -247 _m
272 -217 240 -184 214 -146 _c
187 -108 165 -67 148 -25 _c
131 17 118 62 110 109 _c
101 155 97 202 97 250 _c
97 298 101 345 110 392 _c
118 438 131 483 149 527 _c
166 570 188 611 215 649 _c
242 687 274 720 310 748 _c
310 749 311 750 315 750 _c
324 750 _l
326 750 327 749 329 747 _c
331 745 332 743 332 741 _c
332 738 331 736 330 735 _c
}_e{297 703 270 668 248 632 _c
226 596 209 557 196 516 _c
183 474 174 432 168 388 _c
162 344 159 298 159 250 _c
159 38 215 -122 329 -232 _c
331 -234 332 -236 332 -240 _c
332 -242 331 -244 329 -246 _c
327 -248 326 -249 324 -249 _c
315 -249 _l
311 -249 310 -248 310 -247 _c
_cl}_e}_d
end readonly def

/BuildGlyph
 {exch begin
 CharStrings exch
 2 copy known not{pop /.notdef}if
 true 3 1 roll get exec
 end}_d

/BuildChar {
 1 index /Encoding get exch get
 1 index /BuildGlyph get exec
}_d

FontName currentdict end definefont pop
%!PS-Adobe-3.0 Resource-Font
%%Title: Bitstream Vera Sans
%%Copyright: Copyright (c) 2003 by Bitstream, Inc. All Rights Reserved.
%%Creator: Converted from TrueType to type 3 by PPR
25 dict begin
/_d{bind def}bind def
/_m{moveto}_d
/_l{lineto}_d
/_cl{closepath eofill}_d
/_c{curveto}_d
/_sc{7 -1 roll{setcachedevice}{pop pop pop pop pop pop}ifelse}_d
/_e{exec}_d
/FontName /BitstreamVeraSans-Roman def
/PaintType 0 def
/FontMatrix[.001 0 0 .001 0 0]def
/FontBBox[-183 -236 1287 928]def
/FontType 3 def
/Encoding [ /space /hyphen /zero /one /two /three /four /five /six /seven /eight /nine /a /e /f /i /l /n /r /u ] def
/FontInfo 10 dict dup begin
/FamilyName (Bitstream Vera Sans) def
/FullName (Bitstream Vera Sans) def
/Notice (Copyright (c) 2003 by Bitstream, Inc. All Rights Reserved. Bitstream Vera is a trademark of Bitstream, Inc.) def
/Weight (Roman) def
/Version (Release 1.10) def
/ItalicAngle 0.0 def
/isFixedPitch false def
/UnderlinePosition -213 def
/UnderlineThickness 143 def
end readonly def
/CharStrings 20 dict dup begin
/space{318 0 0 0 0 0 _sc
}_d
/hyphen{361 0 49 234 312 314 _sc
49 314 _m
312 314 _l
312 234 _l
49 234 _l
49 314 _l
_cl}_d
/zero{636 0 66 -13 570 742 _sc
318 664 _m
267 664 229 639 203 589 _c
177 539 165 464 165 364 _c
165 264 177 189 203 139 _c
229 89 267 64 318 64 _c
369 64 407 89 433 139 _c
458 189 471 264 471 364 _c
471 464 458 539 433 589 _c
407 639 369 664 318 664 _c
318 742 _m
399 742 461 709 505 645 _c
548 580 570 486 570 364 _c
570 241 548 147 505 83 _c
461 19 399 -13 318 -13 _c
236 -13 173 19 130 83 _c
87 147 66 241 66 364 _c
66 486 87 580 130 645 _c
173 709 236 742 318 742 _c
_cl}_d
/one{636 0 110 0 544 729 _sc
124 83 _m
285 83 _l
285 639 _l
110 604 _l
110 694 _l
284 729 _l
383 729 _l
383 83 _l
544 83 _l
544 0 _l
124 0 _l
124 83 _l
_cl}_d
/two{{636 0 73 0 536 742 _sc
192 83 _m
536 83 _l
536 0 _l
73 0 _l
73 83 _l
110 121 161 173 226 239 _c
290 304 331 346 348 365 _c
380 400 402 430 414 455 _c
426 479 433 504 433 528 _c
433 566 419 598 392 622 _c
365 646 330 659 286 659 _c
255 659 222 653 188 643 _c
154 632 117 616 78 594 _c
78 694 _l
118 710 155 722 189 730 _c
223 738 255 742 284 742 _c
}_e{359 742 419 723 464 685 _c
509 647 532 597 532 534 _c
532 504 526 475 515 449 _c
504 422 484 390 454 354 _c
446 344 420 317 376 272 _c
332 227 271 164 192 83 _c
_cl}_e}_d
/three{{636 0 76 -13 556 742 _sc
406 393 _m
453 383 490 362 516 330 _c
542 298 556 258 556 212 _c
556 140 531 84 482 45 _c
432 6 362 -13 271 -13 _c
240 -13 208 -10 176 -4 _c
144 1 110 10 76 22 _c
76 117 _l
103 101 133 89 166 81 _c
198 73 232 69 268 69 _c
330 69 377 81 409 105 _c
441 129 458 165 458 212 _c
458 254 443 288 413 312 _c
383 336 341 349 287 349 _c
}_e{202 349 _l
202 430 _l
291 430 _l
339 430 376 439 402 459 _c
428 478 441 506 441 543 _c
441 580 427 609 401 629 _c
374 649 336 659 287 659 _c
260 659 231 656 200 650 _c
169 644 135 635 98 623 _c
98 711 _l
135 721 170 729 203 734 _c
235 739 266 742 296 742 _c
370 742 429 725 473 691 _c
517 657 539 611 539 553 _c
539 513 527 479 504 451 _c
481 423 448 403 406 393 _c
_cl}_e}_d
/four{636 0 49 0 580 729 _sc
378 643 _m
129 254 _l
378 254 _l
378 643 _l
352 729 _m
476 729 _l
476 254 _l
580 254 _l
580 172 _l
476 172 _l
476 0 _l
378 0 _l
378 172 _l
49 172 _l
49 267 _l
352 729 _l
_cl}_d
/five{{636 0 77 -13 549 729 _sc
108 729 _m
495 729 _l
495 646 _l
198 646 _l
198 467 _l
212 472 227 476 241 478 _c
255 480 270 482 284 482 _c
365 482 429 459 477 415 _c
525 370 549 310 549 234 _c
549 155 524 94 475 51 _c
426 8 357 -13 269 -13 _c
238 -13 207 -10 175 -6 _c
143 -1 111 6 77 17 _c
77 116 _l
106 100 136 88 168 80 _c
199 72 232 69 267 69 _c
}_e{323 69 368 83 401 113 _c
433 143 450 183 450 234 _c
450 284 433 324 401 354 _c
368 384 323 399 267 399 _c
241 399 214 396 188 390 _c
162 384 135 375 108 363 _c
108 729 _l
_cl}_e}_d
/six{{636 0 70 -13 573 742 _sc
330 404 _m
286 404 251 388 225 358 _c
199 328 186 286 186 234 _c
186 181 199 139 225 109 _c
251 79 286 64 330 64 _c
374 64 409 79 435 109 _c
461 139 474 181 474 234 _c
474 286 461 328 435 358 _c
409 388 374 404 330 404 _c
526 713 _m
526 623 _l
501 635 476 644 451 650 _c
425 656 400 659 376 659 _c
310 659 260 637 226 593 _c
}_e{192 549 172 482 168 394 _c
187 422 211 444 240 459 _c
269 474 301 482 336 482 _c
409 482 467 459 509 415 _c
551 371 573 310 573 234 _c
573 159 550 99 506 54 _c
462 9 403 -13 330 -13 _c
246 -13 181 19 137 83 _c
92 147 70 241 70 364 _c
70 479 97 571 152 639 _c
206 707 280 742 372 742 _c
396 742 421 739 447 735 _c
472 730 498 723 526 713 _c
_cl}_e}_d
/seven{636 0 82 0 551 729 _sc
82 729 _m
551 729 _l
551 687 _l
286 0 _l
183 0 _l
432 646 _l
82 646 _l
82 729 _l
_cl}_d
/eight{{636 0 68 -13 568 742 _sc
318 346 _m
271 346 234 333 207 308 _c
180 283 167 249 167 205 _c
167 161 180 126 207 101 _c
234 76 271 64 318 64 _c
364 64 401 76 428 102 _c
455 127 469 161 469 205 _c
469 249 455 283 429 308 _c
402 333 365 346 318 346 _c
219 388 _m
177 398 144 418 120 447 _c
96 476 85 511 85 553 _c
85 611 105 657 147 691 _c
188 725 245 742 318 742 _c
}_e{390 742 447 725 489 691 _c
530 657 551 611 551 553 _c
551 511 539 476 515 447 _c
491 418 459 398 417 388 _c
464 377 501 355 528 323 _c
554 291 568 251 568 205 _c
568 134 546 80 503 43 _c
459 5 398 -13 318 -13 _c
237 -13 175 5 132 43 _c
89 80 68 134 68 205 _c
68 251 81 291 108 323 _c
134 355 171 377 219 388 _c
183 544 _m
183 506 194 476 218 455 _c
}_e{242 434 275 424 318 424 _c
360 424 393 434 417 455 _c
441 476 453 506 453 544 _c
453 582 441 611 417 632 _c
393 653 360 664 318 664 _c
275 664 242 653 218 632 _c
194 611 183 582 183 544 _c
_cl}_e}_d
/nine{{636 0 63 -13 566 742 _sc
110 15 _m
110 105 _l
134 93 159 84 185 78 _c
210 72 235 69 260 69 _c
324 69 374 90 408 134 _c
442 178 462 244 468 334 _c
448 306 424 284 396 269 _c
367 254 335 247 300 247 _c
226 247 168 269 126 313 _c
84 357 63 417 63 494 _c
63 568 85 628 129 674 _c
173 719 232 742 306 742 _c
390 742 455 709 499 645 _c
543 580 566 486 566 364 _c
}_e{566 248 538 157 484 89 _c
429 21 356 -13 264 -13 _c
239 -13 214 -10 189 -6 _c
163 -2 137 5 110 15 _c
306 324 _m
350 324 385 339 411 369 _c
437 399 450 441 450 494 _c
450 546 437 588 411 618 _c
385 648 350 664 306 664 _c
262 664 227 648 201 618 _c
175 588 162 546 162 494 _c
162 441 175 399 201 369 _c
227 339 262 324 306 324 _c
_cl}_e}_d
/a{{613 0 60 -13 522 560 _sc
343 275 _m
270 275 220 266 192 250 _c
164 233 150 205 150 165 _c
150 133 160 107 181 89 _c
202 70 231 61 267 61 _c
317 61 357 78 387 114 _c
417 149 432 196 432 255 _c
432 275 _l
343 275 _l
522 312 _m
522 0 _l
432 0 _l
432 83 _l
411 49 385 25 355 10 _c
325 -5 287 -13 243 -13 _c
187 -13 142 2 109 33 _c
76 64 60 106 60 159 _c
}_e{60 220 80 266 122 298 _c
163 329 224 345 306 345 _c
432 345 _l
432 354 _l
432 395 418 427 391 450 _c
364 472 326 484 277 484 _c
245 484 215 480 185 472 _c
155 464 127 453 100 439 _c
100 522 _l
132 534 164 544 195 550 _c
226 556 256 560 286 560 _c
365 560 424 539 463 498 _c
502 457 522 395 522 312 _c
_cl}_e}_d
/e{{615 0 55 -13 562 560 _sc
562 296 _m
562 252 _l
149 252 _l
153 190 171 142 205 110 _c
238 78 284 62 344 62 _c
378 62 412 66 444 74 _c
476 82 509 95 541 113 _c
541 28 _l
509 14 476 3 442 -3 _c
408 -9 373 -13 339 -13 _c
251 -13 182 12 131 62 _c
80 112 55 181 55 268 _c
55 357 79 428 127 481 _c
175 533 241 560 323 560 _c
397 560 455 536 498 489 _c
}_e{540 441 562 377 562 296 _c
472 322 _m
471 371 457 410 431 440 _c
404 469 368 484 324 484 _c
274 484 234 469 204 441 _c
174 413 156 373 152 322 _c
472 322 _l
_cl}_e}_d
/f{352 0 23 0 371 760 _sc
371 760 _m
371 685 _l
285 685 _l
253 685 230 678 218 665 _c
205 652 199 629 199 595 _c
199 547 _l
347 547 _l
347 477 _l
199 477 _l
199 0 _l
109 0 _l
109 477 _l
23 477 _l
23 547 _l
109 547 _l
109 585 _l
109 645 123 690 151 718 _c
179 746 224 760 286 760 _c
371 760 _l
_cl}_d
/i{278 0 94 0 184 760 _sc
94 547 _m
184 547 _l
184 0 _l
94 0 _l
94 547 _l
94 760 _m
184 760 _l
184 646 _l
94 646 _l
94 760 _l
_cl}_d
/l{278 0 94 0 184 760 _sc
94 760 _m
184 760 _l
184 0 _l
94 0 _l
94 760 _l
_cl}_d
/n{634 0 91 0 549 560 _sc
549 330 _m
549 0 _l
459 0 _l
459 327 _l
459 379 448 417 428 443 _c
408 469 378 482 338 482 _c
289 482 251 466 223 435 _c
195 404 181 362 181 309 _c
181 0 _l
91 0 _l
91 547 _l
181 547 _l
181 462 _l
202 494 227 519 257 535 _c
286 551 320 560 358 560 _c
420 560 468 540 500 501 _c
532 462 549 405 549 330 _c
_cl}_d
/r{411 0 91 0 411 560 _sc
411 463 _m
401 469 390 473 378 476 _c
366 478 353 480 339 480 _c
288 480 249 463 222 430 _c
194 397 181 350 181 288 _c
181 0 _l
91 0 _l
91 547 _l
181 547 _l
181 462 _l
199 495 224 520 254 536 _c
284 552 321 560 365 560 _c
371 560 378 559 386 559 _c
393 558 401 557 411 555 _c
411 463 _l
_cl}_d
/u{634 0 85 -13 543 547 _sc
85 216 _m
85 547 _l
175 547 _l
175 219 _l
175 167 185 129 205 103 _c
225 77 255 64 296 64 _c
344 64 383 79 411 110 _c
439 141 453 183 453 237 _c
453 547 _l
543 547 _l
543 0 _l
453 0 _l
453 84 _l
431 50 405 26 377 10 _c
348 -5 315 -13 277 -13 _c
214 -13 166 6 134 45 _c
101 83 85 140 85 216 _c
_cl}_d
end readonly def

/BuildGlyph
 {exch begin
 CharStrings exch
 2 copy known not{pop /.notdef}if
 true 3 1 roll get exec
 end}_d

/BuildChar {
 1 index /Encoding get exch get
 1 index /BuildGlyph get exec
}_d

FontName currentdict end definefont pop
end
%%EndProlog
mpldict begin
18 180 translate
576 432 0 0 clipbox
100000 setmiterlimit
gsave
0 0 m
576 0 l
576 432 l
0 432 l
cl
1.000 setgray
fill
grestore
gsave
82.464127 68.933491 m
563.04 68.933491 l
563.04 410.1525 l
82.464127 410.1525 l
cl
1.000 setgray
fill
grestore
1.500 setlinewidth
0 setlinejoin
0 setlinecap
[] 0 setdash
0.000 setgray
gsave
480.6 341.2 82.46 68.93 clipbox
386.985397 319.160764 m
318.3317 319.160764 l
318.3317 273.664896 l
386.985397 319.160764 l
cl
stroke
grestore
1.000 setlinewidth
gsave
480.6 341.2 82.46 68.93 clipbox
503.625967 68.933491 m
503.625967 410.1525 l
563.04 410.1525 l
563.04 68.933491 l
cl
  << /PatternType 1
     /PaintType 2
     /TilingType 2
     /BBox[0 0 72 72]
     /XStep 72
     /YStep 72

     /PaintProc {
        pop
        0 setlinewidth
-36 36 m
36 108 l
-24 24 m
48 96 l
-12 12 m
60 84 l
0 0 m
72 72 l
12 -12 m
84 60 l
24 -24 m
96 48 l
36 -36 m
108 36 l
-36 36 m
36 -36 l
-24 48 m
48 -24 l
-12 60 m
60 -12 l
0 72 m
72 0 l
12 84 m
84 12 l
24 96 m
96 24 l
36 108 m
108 36 l
          stroke
     } bind
   >>
   matrix
   makepattern
   /H0 exch def
gsave
[/Pattern [/DeviceRGB]] setcolorspace 0.000000 0.000000 0.000000 H0 setcolor fill grestore
stroke
grestore
2.500 setlinewidth
1 setlinejoin
2 setlinecap
0.545 0.000 0.000 setrgbcolor
gsave
480.6 341.2 82.46 68.93 clipbox
82.464127 183.695796 m
87.318463 183.695707 l
92.172737 183.695618 l
97.027017 183.695618 l
101.88133 183.695529 l
106.735639 183.695529 l
111.589925 183.695618 l
116.444247 183.695529 l
121.298434 183.69544 l
126.15288 183.69544 l
131.007117 183.694995 l
135.8614 183.694639 l
140.715738 183.694461 l
145.570017 183.693921 l
150.424352 183.693387 l
155.278644 183.692413 l
160.13293 183.69125 l
164.987267 183.68938 l
169.841546 183.687059 l
174.69585 183.683673 l
179.550152 183.679033 l
184.404475 183.672607 l
189.258652 183.663676 l
194.113 183.651515 l
198.967427 183.634229 l
203.821734 183.610541 l
208.67592 183.577687 l
213.530243 183.531963 l
218.384624 183.467997 l
223.238859 183.378815 l
228.093153 183.254314 l
232.947491 183.078855 l
237.801756 182.830853 l
242.656066 182.476895 l
247.510373 181.964494 l
252.364682 181.208151 l
257.21906 180.054292 l
262.073202 178.195068 l
266.927584 174.856638 l
271.78189 166.817387 l
276.636268 163.840958 l
281.490515 178.150822 l
286.3448 185.288363 l
291.199135 190.602931 l
296.053411 195.097959 l
300.907684 199.144746 l
305.762015 202.920323 l
310.616297 206.521835 l
315.470614 210.007433 l
320.324915 213.413893 l
325.179191 216.765424 l
330.033635 220.07851 l
334.887754 223.364097 l
339.742065 226.630381 l
344.596426 229.882819 l
349.45071 233.125256 l
354.305044 236.360579 l
359.159311 239.590717 l
364.013623 242.817184 l
368.867898 246.040958 l
373.722259 249.262868 l
378.576548 252.483344 l
383.430816 255.702805 l
388.285145 258.921589 l
393.139415 262.139815 l
397.993695 265.357676 l
402.848114 268.575365 l
407.702286 271.792705 l
412.556616 275.01002 l
417.410948 278.227254 l
422.265302 281.444455 l
427.119577 284.661586 l
431.973851 287.878729 l
436.82818 291.09595 l
441.682468 294.313222 l
446.536763 297.530617 l
451.391067 300.748194 l
456.245368 303.966017 l
461.099671 307.184192 l
465.954002 310.402873 l
470.808189 313.622137 l
475.662573 316.842468 l
480.516911 320.064066 l
485.371218 323.287432 l
490.225508 326.513253 l
495.079746 329.742429 l
499.934072 332.976308 l
504.788362 336.216501 l
509.642671 339.465302 l
514.496973 342.72565 l
519.351288 346.001328 l
524.205569 349.296895 l
529.059883 352.617533 l
533.91417 355.967941 l
538.768571 359.350152 l
543.622746 362.757491 l
548.477059 366.162859 l
553.331359 369.486573 l
558.185695 372.471999 l
563.04 373.253818 l
stroke
grestore
0.500 setlinewidth
0 setlinecap
0.000 setgray
gsave
480.6 341.2 82.46 68.93 clipbox
/o {
gsave
newpath
translate
0.5 setlinewidth
1 setlinejoin
0 setlinecap
0 -3 m
0.795609 -3 1.55874 -2.683901 2.12132 -2.12132 c
2.683901 -1.55874 3 -0.795609 3 0 c
3 0.795609 2.683901 1.55874 2.12132 2.12132 c
1.55874 2.683901 0.795609 3 0 3 c
-0.795609 3 -1.55874 2.683901 -2.12132 2.12132 c
-2.683901 1.55874 -3 0.795609 -3 0 c
-3 -0.795609 -2.683901 -1.55874 -2.12132 -2.12132 c
-1.55874 -2.683901 -0.795609 -3 0 -3 c
cl

gsave
0.545 0.000 0.000 setrgbcolor
fill
grestore
stroke
grestore
} bind def
82.4641 183.696 o
87.3185 183.696 o
92.1727 183.696 o
97.027 183.696 o
101.881 183.696 o
106.736 183.696 o
111.59 183.696 o
116.444 183.696 o
121.298 183.695 o
126.153 183.695 o
131.007 183.695 o
135.861 183.695 o
140.716 183.694 o
145.57 183.694 o
150.424 183.693 o
155.279 183.692 o
160.133 183.691 o
164.987 183.689 o
169.842 183.687 o
174.696 183.684 o
179.55 183.679 o
184.404 183.673 o
189.259 183.664 o
194.113 183.652 o
198.967 183.634 o
203.822 183.611 o
208.676 183.578 o
213.53 183.532 o
218.385 183.468 o
223.239 183.379 o
228.093 183.254 o
232.947 183.079 o
237.802 182.831 o
242.656 182.477 o
247.51 181.964 o
252.365 181.208 o
257.219 180.054 o
262.073 178.195 o
266.928 174.857 o
271.782 166.817 o
276.636 163.841 o
281.491 178.151 o
286.345 185.288 o
291.199 190.603 o
296.053 195.098 o
300.908 199.145 o
305.762 202.92 o
310.616 206.522 o
315.471 210.007 o
320.325 213.414 o
325.179 216.765 o
330.034 220.079 o
334.888 223.364 o
339.742 226.63 o
344.596 229.883 o
349.451 233.125 o
354.305 236.361 o
359.159 239.591 o
364.014 242.817 o
368.868 246.041 o
373.722 249.263 o
378.577 252.483 o
383.431 255.703 o
388.285 258.922 o
393.139 262.14 o
397.994 265.358 o
402.848 268.575 o
407.702 271.793 o
412.557 275.01 o
417.411 278.227 o
422.265 281.444 o
427.12 284.662 o
431.974 287.879 o
436.828 291.096 o
441.682 294.313 o
446.537 297.531 o
451.391 300.748 o
456.245 303.966 o
461.1 307.184 o
465.954 310.403 o
470.808 313.622 o
475.663 316.842 o
480.517 320.064 o
485.371 323.287 o
490.226 326.513 o
495.08 329.742 o
499.934 332.976 o
504.788 336.217 o
509.643 339.465 o
514.497 342.726 o
519.351 346.001 o
524.206 349.297 o
529.06 352.618 o
533.914 355.968 o
538.769 359.35 o
543.623 362.757 o
548.477 366.163 o
553.331 369.487 o
558.186 372.472 o
563.04 373.254 o
grestore
2.500 setlinewidth
2 setlinecap
0.545 0.000 0.000 setrgbcolor
gsave
480.6 341.2 82.46 68.93 clipbox
82.464127 109.374859 m
87.318463 110.866347 l
92.172737 110.929073 l
97.027017 110.866347 l
101.88133 110.929073 l
106.735639 110.929073 l
111.589925 112.216957 l
116.444247 109.374859 l
121.298434 110.929073 l
126.15288 109.374859 l
131.007117 109.374859 l
135.8614 105.478311 l
140.715738 109.374859 l
145.570017 105.369147 l
150.424352 105.369147 l
155.278644 105.369147 l
160.13293 102.599959 l
164.987267 91.45151 l
169.841546 98.521336 l
174.69585 105.369147 l
179.550152 113.404934 l
184.404475 117.74557 l
189.258652 122.659561 l
194.113 126.223231 l
198.967427 129.927433 l
203.821734 133.372223 l
208.67592 137.178171 l
213.530243 140.430579 l
218.384624 143.826572 l
223.238859 147.135324 l
228.093153 150.392876 l
232.947491 153.671648 l
237.801756 156.937278 l
242.656066 160.159345 l
247.510373 163.396404 l
252.364682 166.628744 l
257.21906 169.857766 l
262.073202 173.077625 l
266.927584 176.299882 l
271.78189 179.520648 l
276.636268 182.740147 l
281.490515 185.957676 l
286.3448 189.177194 l
291.199135 192.394641 l
296.053411 195.611919 l
300.907684 198.829751 l
305.762015 202.047128 l
310.616297 205.263852 l
315.470614 208.481106 l
320.324915 211.698052 l
325.179191 214.915031 l
330.033635 218.13206 l
334.887754 221.348921 l
339.742065 224.565835 l
344.596426 227.782793 l
349.45071 230.999715 l
354.305044 234.216694 l
359.159311 237.433642 l
364.013623 240.650614 l
368.867898 243.86762 l
373.722259 247.084729 l
378.576548 250.301862 l
383.430816 253.519079 l
388.285145 256.736477 l
393.139415 259.954023 l
397.993695 263.171843 l
402.848114 266.39012 l
407.702286 269.608743 l
412.556616 272.828174 l
417.410948 276.048581 l
422.265302 279.270353 l
427.119577 282.493945 l
431.973851 285.720129 l
436.82818 288.949944 l
441.682468 292.184714 l
446.536763 295.426399 l
451.391067 298.677677 l
456.245368 301.942263 l
461.099671 305.225342 l
465.954002 308.534148 l
470.808189 311.878615 l
475.662573 315.272978 l
480.516911 318.736484 l
485.371218 322.295844 l
490.225508 325.98716 l
495.079746 329.857693 l
499.934072 333.966319 l
504.788362 338.379979 l
509.642671 343.165556 l
514.496973 348.376291 l
519.351288 354.038092 l
524.205569 360.139503 l
529.059883 366.615282 l
533.91417 373.267727 l
538.768571 379.516066 l
543.622746 383.954373 l
548.477059 384.426676 l
553.331359 380.007205 l
558.185695 370.035863 l
563.04 368.134353 l
stroke
grestore
0.500 setlinewidth
0 setlinejoin
0 setlinecap
0.000 setgray
gsave
480.6 341.2 82.46 68.93 clipbox
/o {
gsave
newpath
translate
0.5 setlinewidth
0 setlinejoin
0 setlinecap
-0 -4.242641 m
2.545584 0 l
0 4.242641 l
-2.545584 0 l
cl

gsave
0.545 0.000 0.000 setrgbcolor
fill
grestore
stroke
grestore
} bind def
82.4641 109.375 o
87.3185 110.866 o
92.1727 110.929 o
97.027 110.866 o
101.881 110.929 o
106.736 110.929 o
111.59 112.217 o
116.444 109.375 o
121.298 110.929 o
126.153 109.375 o
131.007 109.375 o
135.861 105.478 o
140.716 109.375 o
145.57 105.369 o
150.424 105.369 o
155.279 105.369 o
160.133 102.6 o
164.987 91.4515 o
169.842 98.5213 o
174.696 105.369 o
179.55 113.405 o
184.404 117.746 o
189.259 122.66 o
194.113 126.223 o
198.967 129.927 o
203.822 133.372 o
208.676 137.178 o
213.53 140.431 o
218.385 143.827 o
223.239 147.135 o
228.093 150.393 o
232.947 153.672 o
237.802 156.937 o
242.656 160.159 o
247.51 163.396 o
252.365 166.629 o
257.219 169.858 o
262.073 173.078 o
266.928 176.3 o
271.782 179.521 o
276.636 182.74 o
281.491 185.958 o
286.345 189.177 o
291.199 192.395 o
296.053 195.612 o
300.908 198.83 o
305.762 202.047 o
310.616 205.264 o
315.471 208.481 o
320.325 211.698 o
325.179 214.915 o
330.034 218.132 o
334.888 221.349 o
339.742 224.566 o
344.596 227.783 o
349.451 231 o
354.305 234.217 o
359.159 237.434 o
364.014 240.651 o
368.868 243.868 o
373.722 247.085 o
378.577 250.302 o
383.431 253.519 o
388.285 256.736 o
393.139 259.954 o
397.994 263.172 o
402.848 266.39 o
407.702 269.609 o
412.557 272.828 o
417.411 276.049 o
422.265 279.27 o
427.12 282.494 o
431.974 285.72 o
436.828 288.95 o
441.682 292.185 o
446.537 295.426 o
451.391 298.678 o
456.245 301.942 o
461.1 305.225 o
465.954 308.534 o
470.808 311.879 o
475.663 315.273 o
480.517 318.736 o
485.371 322.296 o
490.226 325.987 o
495.08 329.858 o
499.934 333.966 o
504.788 338.38 o
509.643 343.166 o
514.497 348.376 o
519.351 354.038 o
524.206 360.14 o
529.06 366.615 o
533.914 373.268 o
538.769 379.516 o
543.623 383.954 o
548.477 384.427 o
553.331 380.007 o
558.186 370.036 o
563.04 368.134 o
grestore
2.500 setlinewidth
1 setlinejoin
[1 3] 0 setdash
0.000 0.392 0.000 setrgbcolor
gsave
480.6 341.2 82.46 68.93 clipbox
82.464127 183.645875 m
87.318463 183.648827 l
92.172737 183.645786 l
97.027017 183.649637 l
101.88133 183.653392 l
106.735639 183.651515 l
111.589925 183.649369 l
116.444247 183.649364 l
121.298434 183.647217 l
126.15288 183.643102 l
131.007117 183.641665 l
135.8614 183.637095 l
140.715738 183.633602 l
145.570017 183.636557 l
150.424352 183.617182 l
155.278644 183.615298 l
160.13293 183.60883 l
164.987267 183.598758 l
169.841546 183.575796 l
174.69585 183.544097 l
179.550152 183.514471 l
184.404475 183.464439 l
189.258652 183.390577 l
194.113 183.290479 l
198.967427 183.144535 l
203.821734 182.946848 l
208.67592 182.671182 l
213.530243 182.270895 l
218.384624 181.686133 l
223.238859 180.819137 l
228.093153 179.467475 l
232.947491 177.233047 l
237.801756 172.940223 l
242.656066 159.224193 l
247.510373 170.653822 l
252.364682 180.899849 l
257.21906 187.206881 l
262.073202 192.171215 l
266.927584 196.484652 l
271.78189 200.423898 l
276.636268 204.131052 l
281.490515 207.68776 l
286.3448 211.142626 l
291.199135 214.527249 l
296.053411 217.864176 l
300.907684 221.166513 l
305.762015 224.444865 l
310.616297 227.706046 l
315.470614 230.954423 l
320.324915 234.194124 l
325.179191 237.427439 l
330.033635 240.656282 l
334.887754 243.881617 l
339.742065 247.104677 l
344.596426 250.32605 l
349.45071 253.546144 l
354.305044 256.765374 l
359.159311 259.98393 l
364.013623 263.202044 l
368.867898 266.419805 l
373.722259 269.63739 l
378.576548 272.854766 l
383.430816 276.072019 l
388.285145 279.28925 l
393.139415 282.50641 l
397.993695 285.723579 l
402.848114 288.940876 l
407.702286 292.158081 l
412.556616 295.375505 l
417.410948 298.593102 l
422.265302 301.81096 l
427.119577 305.029113 l
431.973851 308.247749 l
436.82818 311.467094 l
441.682468 314.687347 l
446.536763 317.908897 l
451.391067 321.13224 l
456.245368 324.358048 l
461.099671 327.587258 l
465.954002 330.821166 l
470.808189 334.061396 l
475.662573 337.310525 l
480.516911 340.571524 l
485.371218 343.848502 l
490.225508 347.146639 l
495.079746 350.471984 l
499.934072 353.830564 l
504.788362 357.224351 l
509.642671 360.638543 l
514.496973 363.984773 l
519.351288 366.591801 l
524.205569 401.701951 l
529.059883 352.049859 l
533.91417 360.395676 l
538.768571 356.350146 l
543.622746 331.592014 l
548.477059 347.935502 l
553.331359 355.755044 l
558.185695 355.751356 l
563.04 352.088023 l
stroke
grestore
0.500 setlinewidth
[] 0 setdash
0.000 setgray
gsave
480.6 341.2 82.46 68.93 clipbox
/o {
gsave
newpath
translate
0.5 setlinewidth
1 setlinejoin
0 setlinecap
0 -3 m
0.795609 -3 1.55874 -2.683901 2.12132 -2.12132 c
2.683901 -1.55874 3 -0.795609 3 0 c
3 0.795609 2.683901 1.55874 2.12132 2.12132 c
1.55874 2.683901 0.795609 3 0 3 c
-0.795609 3 -1.55874 2.683901 -2.12132 2.12132 c
-2.683901 1.55874 -3 0.795609 -3 0 c
-3 -0.795609 -2.683901 -1.55874 -2.12132 -2.12132 c
-1.55874 -2.683901 -0.795609 -3 0 -3 c
cl

gsave
0.000 0.392 0.000 setrgbcolor
fill
grestore
stroke
grestore
} bind def
82.4641 183.646 o
87.3185 183.649 o
92.1727 183.646 o
97.027 183.65 o
101.881 183.653 o
106.736 183.652 o
111.59 183.649 o
116.444 183.649 o
121.298 183.647 o
126.153 183.643 o
131.007 183.642 o
135.861 183.637 o
140.716 183.634 o
145.57 183.637 o
150.424 183.617 o
155.279 183.615 o
160.133 183.609 o
164.987 183.599 o
169.842 183.576 o
174.696 183.544 o
179.55 183.514 o
184.404 183.464 o
189.259 183.391 o
194.113 183.29 o
198.967 183.145 o
203.822 182.947 o
208.676 182.671 o
213.53 182.271 o
218.385 181.686 o
223.239 180.819 o
228.093 179.467 o
232.947 177.233 o
237.802 172.94 o
242.656 159.224 o
247.51 170.654 o
252.365 180.9 o
257.219 187.207 o
262.073 192.171 o
266.928 196.485 o
271.782 200.424 o
276.636 204.131 o
281.491 207.688 o
286.345 211.143 o
291.199 214.527 o
296.053 217.864 o
300.908 221.167 o
305.762 224.445 o
310.616 227.706 o
315.471 230.954 o
320.325 234.194 o
325.179 237.427 o
330.034 240.656 o
334.888 243.882 o
339.742 247.105 o
344.596 250.326 o
349.451 253.546 o
354.305 256.765 o
359.159 259.984 o
364.014 263.202 o
368.868 266.42 o
373.722 269.637 o
378.577 272.855 o
383.431 276.072 o
388.285 279.289 o
393.139 282.506 o
397.994 285.724 o
402.848 288.941 o
407.702 292.158 o
412.557 295.376 o
417.411 298.593 o
422.265 301.811 o
427.12 305.029 o
431.974 308.248 o
436.828 311.467 o
441.682 314.687 o
446.537 317.909 o
451.391 321.132 o
456.245 324.358 o
461.1 327.587 o
465.954 330.821 o
470.808 334.061 o
475.663 337.311 o
480.517 340.572 o
485.371 343.849 o
490.226 347.147 o
495.08 350.472 o
499.934 353.831 o
504.788 357.224 o
509.643 360.639 o
514.497 363.985 o
519.351 366.592 o
524.206 401.702 o
529.06 352.05 o
533.914 360.396 o
538.769 356.35 o
543.623 331.592 o
548.477 347.936 o
553.331 355.755 o
558.186 355.751 o
563.04 352.088 o
grestore
2.500 setlinewidth
[1 3] 0 setdash
0.000 0.392 0.000 setrgbcolor
gsave
480.6 341.2 82.46 68.93 clipbox
82.464127 130.717497 m
87.318463 130.330361 l
92.172737 130.717497 l
97.027017 129.285572 l
101.88133 128.366379 l
106.735639 129.507372 l
111.589925 130.909658 l
116.444247 129.714967 l
121.298434 129.285572 l
126.15288 130.126474 l
131.007117 128.128051 l
135.8614 128.609542 l
140.715738 127.076192 l
145.570017 120.750967 l
150.424352 110.929073 l
155.278644 123.464987 l
160.13293 131.267172 l
164.987267 137.565307 l
169.841546 142.761781 l
174.69585 146.387164 l
179.550152 150.62277 l
184.404475 154.406262 l
189.258652 157.916529 l
194.113 161.323245 l
198.967427 164.691218 l
203.821734 167.989257 l
208.67592 171.289038 l
213.530243 174.56472 l
218.384624 177.818959 l
223.238859 181.062942 l
228.093153 184.304967 l
232.947491 187.531449 l
237.801756 190.758077 l
242.656066 193.984838 l
247.510373 197.206103 l
252.364682 200.426392 l
257.21906 203.646364 l
262.073202 206.865212 l
266.927584 210.083338 l
271.78189 213.301467 l
276.636268 216.519109 l
281.490515 219.736729 l
286.3448 222.954175 l
291.199135 226.171209 l
296.053411 229.388328 l
300.907684 232.605468 l
305.762015 235.822501 l
310.616297 239.039378 l
315.470614 242.256349 l
320.324915 245.473264 l
325.179191 248.690147 l
330.033635 251.907099 l
334.887754 255.123831 l
339.742065 258.340915 l
344.596426 261.557563 l
349.45071 264.774358 l
354.305044 267.99116 l
359.159311 271.207866 l
364.013623 274.424549 l
368.867898 277.641123 l
373.722259 280.857646 l
378.576548 284.073967 l
383.430816 287.29006 l
388.285145 290.505902 l
393.139415 293.721297 l
397.993695 296.936135 l
402.848114 300.150286 l
407.702286 303.363194 l
412.556616 306.574712 l
417.410948 309.784166 l
422.265302 312.990776 l
427.119577 316.193381 l
431.973851 319.390526 l
436.82818 322.580171 l
441.682468 325.759399 l
446.536763 328.924332 l
451.391067 332.06964 l
456.245368 335.188079 l
461.099671 338.269908 l
465.954002 341.302143 l
470.808189 344.267504 l
475.662573 347.14362 l
480.516911 349.900193 l
485.371218 352.493718 l
490.225508 354.848246 l
495.079746 356.791269 l
499.934072 357.858382 l
504.788362 357.112715 l
509.642671 362.150134 l
514.496973 380.752036 l
519.351288 390.762901 l
524.205569 404.560922 l
529.059883 383.550907 l
533.91417 356.675299 l
538.768571 365.184011 l
543.622746 378.464189 l
548.477059 378.426011 l
553.331359 369.420832 l
558.185695 357.476874 l
563.04 382.166216 l
stroke
grestore
0.500 setlinewidth
0 setlinejoin
[] 0 setdash
0.000 setgray
gsave
480.6 341.2 82.46 68.93 clipbox
/o {
gsave
newpath
translate
0.5 setlinewidth
0 setlinejoin
0 setlinecap
-0 -4.242641 m
2.545584 0 l
0 4.242641 l
-2.545584 0 l
cl

gsave
0.000 0.392 0.000 setrgbcolor
fill
grestore
stroke
grestore
} bind def
82.4641 130.717 o
87.3185 130.33 o
92.1727 130.717 o
97.027 129.286 o
101.881 128.366 o
106.736 129.507 o
111.59 130.91 o
116.444 129.715 o
121.298 129.286 o
126.153 130.126 o
131.007 128.128 o
135.861 128.61 o
140.716 127.076 o
145.57 120.751 o
150.424 110.929 o
155.279 123.465 o
160.133 131.267 o
164.987 137.565 o
169.842 142.762 o
174.696 146.387 o
179.55 150.623 o
184.404 154.406 o
189.259 157.917 o
194.113 161.323 o
198.967 164.691 o
203.822 167.989 o
208.676 171.289 o
213.53 174.565 o
218.385 177.819 o
223.239 181.063 o
228.093 184.305 o
232.947 187.531 o
237.802 190.758 o
242.656 193.985 o
247.51 197.206 o
252.365 200.426 o
257.219 203.646 o
262.073 206.865 o
266.928 210.083 o
271.782 213.301 o
276.636 216.519 o
281.491 219.737 o
286.345 222.954 o
291.199 226.171 o
296.053 229.388 o
300.908 232.605 o
305.762 235.823 o
310.616 239.039 o
315.471 242.256 o
320.325 245.473 o
325.179 248.69 o
330.034 251.907 o
334.888 255.124 o
339.742 258.341 o
344.596 261.558 o
349.451 264.774 o
354.305 267.991 o
359.159 271.208 o
364.014 274.425 o
368.868 277.641 o
373.722 280.858 o
378.577 284.074 o
383.431 287.29 o
388.285 290.506 o
393.139 293.721 o
397.994 296.936 o
402.848 300.15 o
407.702 303.363 o
412.557 306.575 o
417.411 309.784 o
422.265 312.991 o
427.12 316.193 o
431.974 319.391 o
436.828 322.58 o
441.682 325.759 o
446.537 328.924 o
451.391 332.07 o
456.245 335.188 o
461.1 338.27 o
465.954 341.302 o
470.808 344.268 o
475.663 347.144 o
480.517 349.9 o
485.371 352.494 o
490.226 354.848 o
495.08 356.791 o
499.934 357.858 o
504.788 357.113 o
509.643 362.15 o
514.497 380.752 o
519.351 390.763 o
524.206 404.561 o
529.06 383.551 o
533.914 356.675 o
538.769 365.184 o
543.623 378.464 o
548.477 378.426 o
553.331 369.421 o
558.186 357.477 o
563.04 382.166 o
grestore
1.000 setlinewidth
2 setlinecap
gsave
82.464127 410.1525 m
563.04 410.1525 l
stroke
grestore
gsave
563.04 68.933491 m
563.04 410.1525 l
stroke
grestore
gsave
82.464127 68.933491 m
563.04 68.933491 l
stroke
grestore
gsave
82.464127 68.933491 m
82.464127 410.1525 l
stroke
grestore
0.500 setlinewidth
1 setlinejoin
0 setlinecap
[1 3] 0 setdash
gsave
480.6 341.2 82.46 68.93 clipbox
112.370612 68.933491 m
112.370612 410.1525 l
stroke
grestore
[] 0 setdash
gsave
/o {
gsave
newpath
translate
0.5 setlinewidth
1 setlinejoin
0 setlinecap
0 0 m
0 4 l

gsave
0.000 setgray
fill
grestore
stroke
grestore
} bind def
112.371 68.9335 o
grestore
gsave
/o {
gsave
newpath
translate
0.5 setlinewidth
1 setlinejoin
0 setlinecap
0 0 m
0 -4 l

gsave
0.000 setgray
fill
grestore
stroke
grestore
} bind def
112.371 410.153 o
grestore
gsave
97.370612 52.839741 translate
0.000000 rotate
/BitstreamVeraSans-Roman findfont
14.0 scalefont
setfont
0.000000 0.111563 moveto
/one glyphshow

8.907227 0.111563 moveto
/zero glyphshow

/BitstreamVeraSans-Roman findfont
9.8 scalefont
setfont
18.586203 6.726563 moveto
/hyphen glyphshow

22.122434 6.726563 moveto
/six glyphshow


grestore
[1 3] 0 setdash
gsave
480.6 341.2 82.46 68.93 clipbox
181.024308 68.933491 m
181.024308 410.1525 l
stroke
grestore
[] 0 setdash
gsave
/o {
gsave
newpath
translate
0.5 setlinewidth
1 setlinejoin
0 setlinecap
0 0 m
0 4 l

gsave
0.000 setgray
fill
grestore
stroke
grestore
} bind def
181.024 68.9335 o
grestore
gsave
/o {
gsave
newpath
translate
0.5 setlinewidth
1 setlinejoin
0 setlinecap
0 0 m
0 -4 l

gsave
0.000 setgray
fill
grestore
stroke
grestore
} bind def
181.024 410.153 o
grestore
gsave
166.024308 52.839741 translate
0.000000 rotate
/BitstreamVeraSans-Roman findfont
14.0 scalefont
setfont
0.000000 0.242812 moveto
/one glyphshow

8.907227 0.242812 moveto
/zero glyphshow

/BitstreamVeraSans-Roman findfont
9.8 scalefont
setfont
18.586203 6.857812 moveto
/hyphen glyphshow

22.122434 6.857812 moveto
/five glyphshow


grestore
[1 3] 0 setdash
gsave
480.6 341.2 82.46 68.93 clipbox
249.678004 68.933491 m
249.678004 410.1525 l
stroke
grestore
[] 0 setdash
gsave
/o {
gsave
newpath
translate
0.5 setlinewidth
1 setlinejoin
0 setlinecap
0 0 m
0 4 l

gsave
0.000 setgray
fill
grestore
stroke
grestore
} bind def
249.678 68.9335 o
grestore
gsave
/o {
gsave
newpath
translate
0.5 setlinewidth
1 setlinejoin
0 setlinecap
0 0 m
0 -4 l

gsave
0.000 setgray
fill
grestore
stroke
grestore
} bind def
249.678 410.153 o
grestore
gsave
234.678004 52.839741 translate
0.000000 rotate
/BitstreamVeraSans-Roman findfont
14.0 scalefont
setfont
0.000000 0.242812 moveto
/one glyphshow

8.907227 0.242812 moveto
/zero glyphshow

/BitstreamVeraSans-Roman findfont
9.8 scalefont
setfont
18.586203 6.857812 moveto
/hyphen glyphshow

22.122434 6.857812 moveto
/four glyphshow


grestore
[1 3] 0 setdash
gsave
480.6 341.2 82.46 68.93 clipbox
318.3317 68.933491 m
318.3317 410.1525 l
stroke
grestore
[] 0 setdash
gsave
/o {
gsave
newpath
translate
0.5 setlinewidth
1 setlinejoin
0 setlinecap
0 0 m
0 4 l

gsave
0.000 setgray
fill
grestore
stroke
grestore
} bind def
318.332 68.9335 o
grestore
gsave
/o {
gsave
newpath
translate
0.5 setlinewidth
1 setlinejoin
0 setlinecap
0 0 m
0 -4 l

gsave
0.000 setgray
fill
grestore
stroke
grestore
} bind def
318.332 410.153 o
grestore
gsave
303.331700 52.839741 translate
0.000000 rotate
/BitstreamVeraSans-Roman findfont
14.0 scalefont
setfont
0.000000 0.111563 moveto
/one glyphshow

8.907227 0.111563 moveto
/zero glyphshow

/BitstreamVeraSans-Roman findfont
9.8 scalefont
setfont
18.586203 6.726563 moveto
/hyphen glyphshow

22.122434 6.726563 moveto
/three glyphshow


grestore
[1 3] 0 setdash
gsave
480.6 341.2 82.46 68.93 clipbox
386.985397 68.933491 m
386.985397 410.1525 l
stroke
grestore
[] 0 setdash
gsave
/o {
gsave
newpath
translate
0.5 setlinewidth
1 setlinejoin
0 setlinecap
0 0 m
0 4 l

gsave
0.000 setgray
fill
grestore
stroke
grestore
} bind def
386.985 68.9335 o
grestore
gsave
/o {
gsave
newpath
translate
0.5 setlinewidth
1 setlinejoin
0 setlinecap
0 0 m
0 -4 l

gsave
0.000 setgray
fill
grestore
stroke
grestore
} bind def
386.985 410.153 o
grestore
gsave
371.985397 52.839741 translate
0.000000 rotate
/BitstreamVeraSans-Roman findfont
14.0 scalefont
setfont
0.000000 0.111563 moveto
/one glyphshow

8.907227 0.111563 moveto
/zero glyphshow

/BitstreamVeraSans-Roman findfont
9.8 scalefont
setfont
18.586203 6.726563 moveto
/hyphen glyphshow

22.122434 6.726563 moveto
/two glyphshow


grestore
[1 3] 0 setdash
gsave
480.6 341.2 82.46 68.93 clipbox
455.639093 68.933491 m
455.639093 410.1525 l
stroke
grestore
[] 0 setdash
gsave
/o {
gsave
newpath
translate
0.5 setlinewidth
1 setlinejoin
0 setlinecap
0 0 m
0 4 l

gsave
0.000 setgray
fill
grestore
stroke
grestore
} bind def
455.639 68.9335 o
grestore
gsave
/o {
gsave
newpath
translate
0.5 setlinewidth
1 setlinejoin
0 setlinecap
0 0 m
0 -4 l

gsave
0.000 setgray
fill
grestore
stroke
grestore
} bind def
455.639 410.153 o
grestore
gsave
440.639093 52.839741 translate
0.000000 rotate
/BitstreamVeraSans-Roman findfont
14.0 scalefont
setfont
0.000000 0.242812 moveto
/one glyphshow

8.907227 0.242812 moveto
/zero glyphshow

/BitstreamVeraSans-Roman findfont
9.8 scalefont
setfont
18.586203 6.857812 moveto
/hyphen glyphshow

22.122434 6.857812 moveto
/one glyphshow


grestore
[1 3] 0 setdash
gsave
480.6 341.2 82.46 68.93 clipbox
524.292789 68.933491 m
524.292789 410.1525 l
stroke
grestore
[] 0 setdash
gsave
/o {
gsave
newpath
translate
0.5 setlinewidth
1 setlinejoin
0 setlinecap
0 0 m
0 4 l

gsave
0.000 setgray
fill
grestore
stroke
grestore
} bind def
524.293 68.9335 o
grestore
gsave
/o {
gsave
newpath
translate
0.5 setlinewidth
1 setlinejoin
0 setlinecap
0 0 m
0 -4 l

gsave
0.000 setgray
fill
grestore
stroke
grestore
} bind def
524.293 410.153 o
grestore
gsave
511.292789 52.839741 translate
0.000000 rotate
/BitstreamVeraSans-Roman findfont
14.0 scalefont
setfont
0.000000 0.111563 moveto
/one glyphshow

8.907227 0.111563 moveto
/zero glyphshow

/BitstreamVeraSans-Roman findfont
9.8 scalefont
setfont
18.586203 6.726563 moveto
/zero glyphshow


grestore
gsave
/o {
gsave
newpath
translate
0.5 setlinewidth
1 setlinejoin
0 setlinecap
0 0 m
0 2 l

gsave
0.000 setgray
fill
grestore
stroke
grestore
} bind def
85.0506 68.9335 o
grestore
gsave
/o {
gsave
newpath
translate
0.5 setlinewidth
1 setlinejoin
0 setlinecap
0 0 m
0 -2 l

gsave
0.000 setgray
fill
grestore
stroke
grestore
} bind def
85.0506 410.153 o
grestore
gsave
/o {
gsave
newpath
translate
0.5 setlinewidth
1 setlinejoin
0 setlinecap
0 0 m
0 2 l

gsave
0.000 setgray
fill
grestore
stroke
grestore
} bind def
91.7038 68.9335 o
grestore
gsave
/o {
gsave
newpath
translate
0.5 setlinewidth
1 setlinejoin
0 setlinecap
0 0 m
0 -2 l

gsave
0.000 setgray
fill
grestore
stroke
grestore
} bind def
91.7038 410.153 o
grestore
gsave
/o {
gsave
newpath
translate
0.5 setlinewidth
1 setlinejoin
0 setlinecap
0 0 m
0 2 l

gsave
0.000 setgray
fill
grestore
stroke
grestore
} bind def
97.1399 68.9335 o
grestore
gsave
/o {
gsave
newpath
translate
0.5 setlinewidth
1 setlinejoin
0 setlinecap
0 0 m
0 -2 l

gsave
0.000 setgray
fill
grestore
stroke
grestore
} bind def
97.1399 410.153 o
grestore
gsave
/o {
gsave
newpath
translate
0.5 setlinewidth
1 setlinejoin
0 setlinecap
0 0 m
0 2 l

gsave
0.000 setgray
fill
grestore
stroke
grestore
} bind def
101.736 68.9335 o
grestore
gsave
/o {
gsave
newpath
translate
0.5 setlinewidth
1 setlinejoin
0 setlinecap
0 0 m
0 -2 l

gsave
0.000 setgray
fill
grestore
stroke
grestore
} bind def
101.736 410.153 o
grestore
gsave
/o {
gsave
newpath
translate
0.5 setlinewidth
1 setlinejoin
0 setlinecap
0 0 m
0 2 l

gsave
0.000 setgray
fill
grestore
stroke
grestore
} bind def
105.717 68.9335 o
grestore
gsave
/o {
gsave
newpath
translate
0.5 setlinewidth
1 setlinejoin
0 setlinecap
0 0 m
0 -2 l

gsave
0.000 setgray
fill
grestore
stroke
grestore
} bind def
105.717 410.153 o
grestore
gsave
/o {
gsave
newpath
translate
0.5 setlinewidth
1 setlinejoin
0 setlinecap
0 0 m
0 2 l

gsave
0.000 setgray
fill
grestore
stroke
grestore
} bind def
109.229 68.9335 o
grestore
gsave
/o {
gsave
newpath
translate
0.5 setlinewidth
1 setlinejoin
0 setlinecap
0 0 m
0 -2 l

gsave
0.000 setgray
fill
grestore
stroke
grestore
} bind def
109.229 410.153 o
grestore
gsave
/o {
gsave
newpath
translate
0.5 setlinewidth
1 setlinejoin
0 setlinecap
0 0 m
0 2 l

gsave
0.000 setgray
fill
grestore
stroke
grestore
} bind def
133.037 68.9335 o
grestore
gsave
/o {
gsave
newpath
translate
0.5 setlinewidth
1 setlinejoin
0 setlinecap
0 0 m
0 -2 l

gsave
0.000 setgray
fill
grestore
stroke
grestore
} bind def
133.037 410.153 o
grestore
gsave
/o {
gsave
newpath
translate
0.5 setlinewidth
1 setlinejoin
0 setlinecap
0 0 m
0 2 l

gsave
0.000 setgray
fill
grestore
stroke
grestore
} bind def
145.127 68.9335 o
grestore
gsave
/o {
gsave
newpath
translate
0.5 setlinewidth
1 setlinejoin
0 setlinecap
0 0 m
0 -2 l

gsave
0.000 setgray
fill
grestore
stroke
grestore
} bind def
145.127 410.153 o
grestore
gsave
/o {
gsave
newpath
translate
0.5 setlinewidth
1 setlinejoin
0 setlinecap
0 0 m
0 2 l

gsave
0.000 setgray
fill
grestore
stroke
grestore
} bind def
153.704 68.9335 o
grestore
gsave
/o {
gsave
newpath
translate
0.5 setlinewidth
1 setlinejoin
0 setlinecap
0 0 m
0 -2 l

gsave
0.000 setgray
fill
grestore
stroke
grestore
} bind def
153.704 410.153 o
grestore
gsave
/o {
gsave
newpath
translate
0.5 setlinewidth
1 setlinejoin
0 setlinecap
0 0 m
0 2 l

gsave
0.000 setgray
fill
grestore
stroke
grestore
} bind def
160.357 68.9335 o
grestore
gsave
/o {
gsave
newpath
translate
0.5 setlinewidth
1 setlinejoin
0 setlinecap
0 0 m
0 -2 l

gsave
0.000 setgray
fill
grestore
stroke
grestore
} bind def
160.357 410.153 o
grestore
gsave
/o {
gsave
newpath
translate
0.5 setlinewidth
1 setlinejoin
0 setlinecap
0 0 m
0 2 l

gsave
0.000 setgray
fill
grestore
stroke
grestore
} bind def
165.794 68.9335 o
grestore
gsave
/o {
gsave
newpath
translate
0.5 setlinewidth
1 setlinejoin
0 setlinecap
0 0 m
0 -2 l

gsave
0.000 setgray
fill
grestore
stroke
grestore
} bind def
165.794 410.153 o
grestore
gsave
/o {
gsave
newpath
translate
0.5 setlinewidth
1 setlinejoin
0 setlinecap
0 0 m
0 2 l

gsave
0.000 setgray
fill
grestore
stroke
grestore
} bind def
170.39 68.9335 o
grestore
gsave
/o {
gsave
newpath
translate
0.5 setlinewidth
1 setlinejoin
0 setlinecap
0 0 m
0 -2 l

gsave
0.000 setgray
fill
grestore
stroke
grestore
} bind def
170.39 410.153 o
grestore
gsave
/o {
gsave
newpath
translate
0.5 setlinewidth
1 setlinejoin
0 setlinecap
0 0 m
0 2 l

gsave
0.000 setgray
fill
grestore
stroke
grestore
} bind def
174.371 68.9335 o
grestore
gsave
/o {
gsave
newpath
translate
0.5 setlinewidth
1 setlinejoin
0 setlinecap
0 0 m
0 -2 l

gsave
0.000 setgray
fill
grestore
stroke
grestore
} bind def
174.371 410.153 o
grestore
gsave
/o {
gsave
newpath
translate
0.5 setlinewidth
1 setlinejoin
0 setlinecap
0 0 m
0 2 l

gsave
0.000 setgray
fill
grestore
stroke
grestore
} bind def
177.883 68.9335 o
grestore
gsave
/o {
gsave
newpath
translate
0.5 setlinewidth
1 setlinejoin
0 setlinecap
0 0 m
0 -2 l

gsave
0.000 setgray
fill
grestore
stroke
grestore
} bind def
177.883 410.153 o
grestore
gsave
/o {
gsave
newpath
translate
0.5 setlinewidth
1 setlinejoin
0 setlinecap
0 0 m
0 2 l

gsave
0.000 setgray
fill
grestore
stroke
grestore
} bind def
201.691 68.9335 o
grestore
gsave
/o {
gsave
newpath
translate
0.5 setlinewidth
1 setlinejoin
0 setlinecap
0 0 m
0 -2 l

gsave
0.000 setgray
fill
grestore
stroke
grestore
} bind def
201.691 410.153 o
grestore
gsave
/o {
gsave
newpath
translate
0.5 setlinewidth
1 setlinejoin
0 setlinecap
0 0 m
0 2 l

gsave
0.000 setgray
fill
grestore
stroke
grestore
} bind def
213.78 68.9335 o
grestore
gsave
/o {
gsave
newpath
translate
0.5 setlinewidth
1 setlinejoin
0 setlinecap
0 0 m
0 -2 l

gsave
0.000 setgray
fill
grestore
stroke
grestore
} bind def
213.78 410.153 o
grestore
gsave
/o {
gsave
newpath
translate
0.5 setlinewidth
1 setlinejoin
0 setlinecap
0 0 m
0 2 l

gsave
0.000 setgray
fill
grestore
stroke
grestore
} bind def
222.358 68.9335 o
grestore
gsave
/o {
gsave
newpath
translate
0.5 setlinewidth
1 setlinejoin
0 setlinecap
0 0 m
0 -2 l

gsave
0.000 setgray
fill
grestore
stroke
grestore
} bind def
222.358 410.153 o
grestore
gsave
/o {
gsave
newpath
translate
0.5 setlinewidth
1 setlinejoin
0 setlinecap
0 0 m
0 2 l

gsave
0.000 setgray
fill
grestore
stroke
grestore
} bind def
229.011 68.9335 o
grestore
gsave
/o {
gsave
newpath
translate
0.5 setlinewidth
1 setlinejoin
0 setlinecap
0 0 m
0 -2 l

gsave
0.000 setgray
fill
grestore
stroke
grestore
} bind def
229.011 410.153 o
grestore
gsave
/o {
gsave
newpath
translate
0.5 setlinewidth
1 setlinejoin
0 setlinecap
0 0 m
0 2 l

gsave
0.000 setgray
fill
grestore
stroke
grestore
} bind def
234.447 68.9335 o
grestore
gsave
/o {
gsave
newpath
translate
0.5 setlinewidth
1 setlinejoin
0 setlinecap
0 0 m
0 -2 l

gsave
0.000 setgray
fill
grestore
stroke
grestore
} bind def
234.447 410.153 o
grestore
gsave
/o {
gsave
newpath
translate
0.5 setlinewidth
1 setlinejoin
0 setlinecap
0 0 m
0 2 l

gsave
0.000 setgray
fill
grestore
stroke
grestore
} bind def
239.043 68.9335 o
grestore
gsave
/o {
gsave
newpath
translate
0.5 setlinewidth
1 setlinejoin
0 setlinecap
0 0 m
0 -2 l

gsave
0.000 setgray
fill
grestore
stroke
grestore
} bind def
239.043 410.153 o
grestore
gsave
/o {
gsave
newpath
translate
0.5 setlinewidth
1 setlinejoin
0 setlinecap
0 0 m
0 2 l

gsave
0.000 setgray
fill
grestore
stroke
grestore
} bind def
243.025 68.9335 o
grestore
gsave
/o {
gsave
newpath
translate
0.5 setlinewidth
1 setlinejoin
0 setlinecap
0 0 m
0 -2 l

gsave
0.000 setgray
fill
grestore
stroke
grestore
} bind def
243.025 410.153 o
grestore
gsave
/o {
gsave
newpath
translate
0.5 setlinewidth
1 setlinejoin
0 setlinecap
0 0 m
0 2 l

gsave
0.000 setgray
fill
grestore
stroke
grestore
} bind def
246.537 68.9335 o
grestore
gsave
/o {
gsave
newpath
translate
0.5 setlinewidth
1 setlinejoin
0 setlinecap
0 0 m
0 -2 l

gsave
0.000 setgray
fill
grestore
stroke
grestore
} bind def
246.537 410.153 o
grestore
gsave
/o {
gsave
newpath
translate
0.5 setlinewidth
1 setlinejoin
0 setlinecap
0 0 m
0 2 l

gsave
0.000 setgray
fill
grestore
stroke
grestore
} bind def
270.345 68.9335 o
grestore
gsave
/o {
gsave
newpath
translate
0.5 setlinewidth
1 setlinejoin
0 setlinecap
0 0 m
0 -2 l

gsave
0.000 setgray
fill
grestore
stroke
grestore
} bind def
270.345 410.153 o
grestore
gsave
/o {
gsave
newpath
translate
0.5 setlinewidth
1 setlinejoin
0 setlinecap
0 0 m
0 2 l

gsave
0.000 setgray
fill
grestore
stroke
grestore
} bind def
282.434 68.9335 o
grestore
gsave
/o {
gsave
newpath
translate
0.5 setlinewidth
1 setlinejoin
0 setlinecap
0 0 m
0 -2 l

gsave
0.000 setgray
fill
grestore
stroke
grestore
} bind def
282.434 410.153 o
grestore
gsave
/o {
gsave
newpath
translate
0.5 setlinewidth
1 setlinejoin
0 setlinecap
0 0 m
0 2 l

gsave
0.000 setgray
fill
grestore
stroke
grestore
} bind def
291.012 68.9335 o
grestore
gsave
/o {
gsave
newpath
translate
0.5 setlinewidth
1 setlinejoin
0 setlinecap
0 0 m
0 -2 l

gsave
0.000 setgray
fill
grestore
stroke
grestore
} bind def
291.012 410.153 o
grestore
gsave
/o {
gsave
newpath
translate
0.5 setlinewidth
1 setlinejoin
0 setlinecap
0 0 m
0 2 l

gsave
0.000 setgray
fill
grestore
stroke
grestore
} bind def
297.665 68.9335 o
grestore
gsave
/o {
gsave
newpath
translate
0.5 setlinewidth
1 setlinejoin
0 setlinecap
0 0 m
0 -2 l

gsave
0.000 setgray
fill
grestore
stroke
grestore
} bind def
297.665 410.153 o
grestore
gsave
/o {
gsave
newpath
translate
0.5 setlinewidth
1 setlinejoin
0 setlinecap
0 0 m
0 2 l

gsave
0.000 setgray
fill
grestore
stroke
grestore
} bind def
303.101 68.9335 o
grestore
gsave
/o {
gsave
newpath
translate
0.5 setlinewidth
1 setlinejoin
0 setlinecap
0 0 m
0 -2 l

gsave
0.000 setgray
fill
grestore
stroke
grestore
} bind def
303.101 410.153 o
grestore
gsave
/o {
gsave
newpath
translate
0.5 setlinewidth
1 setlinejoin
0 setlinecap
0 0 m
0 2 l

gsave
0.000 setgray
fill
grestore
stroke
grestore
} bind def
307.697 68.9335 o
grestore
gsave
/o {
gsave
newpath
translate
0.5 setlinewidth
1 setlinejoin
0 setlinecap
0 0 m
0 -2 l

gsave
0.000 setgray
fill
grestore
stroke
grestore
} bind def
307.697 410.153 o
grestore
gsave
/o {
gsave
newpath
translate
0.5 setlinewidth
1 setlinejoin
0 setlinecap
0 0 m
0 2 l

gsave
0.000 setgray
fill
grestore
stroke
grestore
} bind def
311.678 68.9335 o
grestore
gsave
/o {
gsave
newpath
translate
0.5 setlinewidth
1 setlinejoin
0 setlinecap
0 0 m
0 -2 l

gsave
0.000 setgray
fill
grestore
stroke
grestore
} bind def
311.678 410.153 o
grestore
gsave
/o {
gsave
newpath
translate
0.5 setlinewidth
1 setlinejoin
0 setlinecap
0 0 m
0 2 l

gsave
0.000 setgray
fill
grestore
stroke
grestore
} bind def
315.19 68.9335 o
grestore
gsave
/o {
gsave
newpath
translate
0.5 setlinewidth
1 setlinejoin
0 setlinecap
0 0 m
0 -2 l

gsave
0.000 setgray
fill
grestore
stroke
grestore
} bind def
315.19 410.153 o
grestore
gsave
/o {
gsave
newpath
translate
0.5 setlinewidth
1 setlinejoin
0 setlinecap
0 0 m
0 2 l

gsave
0.000 setgray
fill
grestore
stroke
grestore
} bind def
338.999 68.9335 o
grestore
gsave
/o {
gsave
newpath
translate
0.5 setlinewidth
1 setlinejoin
0 setlinecap
0 0 m
0 -2 l

gsave
0.000 setgray
fill
grestore
stroke
grestore
} bind def
338.999 410.153 o
grestore
gsave
/o {
gsave
newpath
translate
0.5 setlinewidth
1 setlinejoin
0 setlinecap
0 0 m
0 2 l

gsave
0.000 setgray
fill
grestore
stroke
grestore
} bind def
351.088 68.9335 o
grestore
gsave
/o {
gsave
newpath
translate
0.5 setlinewidth
1 setlinejoin
0 setlinecap
0 0 m
0 -2 l

gsave
0.000 setgray
fill
grestore
stroke
grestore
} bind def
351.088 410.153 o
grestore
gsave
/o {
gsave
newpath
translate
0.5 setlinewidth
1 setlinejoin
0 setlinecap
0 0 m
0 2 l

gsave
0.000 setgray
fill
grestore
stroke
grestore
} bind def
359.665 68.9335 o
grestore
gsave
/o {
gsave
newpath
translate
0.5 setlinewidth
1 setlinejoin
0 setlinecap
0 0 m
0 -2 l

gsave
0.000 setgray
fill
grestore
stroke
grestore
} bind def
359.665 410.153 o
grestore
gsave
/o {
gsave
newpath
translate
0.5 setlinewidth
1 setlinejoin
0 setlinecap
0 0 m
0 2 l

gsave
0.000 setgray
fill
grestore
stroke
grestore
} bind def
366.319 68.9335 o
grestore
gsave
/o {
gsave
newpath
translate
0.5 setlinewidth
1 setlinejoin
0 setlinecap
0 0 m
0 -2 l

gsave
0.000 setgray
fill
grestore
stroke
grestore
} bind def
366.319 410.153 o
grestore
gsave
/o {
gsave
newpath
translate
0.5 setlinewidth
1 setlinejoin
0 setlinecap
0 0 m
0 2 l

gsave
0.000 setgray
fill
grestore
stroke
grestore
} bind def
371.755 68.9335 o
grestore
gsave
/o {
gsave
newpath
translate
0.5 setlinewidth
1 setlinejoin
0 setlinecap
0 0 m
0 -2 l

gsave
0.000 setgray
fill
grestore
stroke
grestore
} bind def
371.755 410.153 o
grestore
gsave
/o {
gsave
newpath
translate
0.5 setlinewidth
1 setlinejoin
0 setlinecap
0 0 m
0 2 l

gsave
0.000 setgray
fill
grestore
stroke
grestore
} bind def
376.351 68.9335 o
grestore
gsave
/o {
gsave
newpath
translate
0.5 setlinewidth
1 setlinejoin
0 setlinecap
0 0 m
0 -2 l

gsave
0.000 setgray
fill
grestore
stroke
grestore
} bind def
376.351 410.153 o
grestore
gsave
/o {
gsave
newpath
translate
0.5 setlinewidth
1 setlinejoin
0 setlinecap
0 0 m
0 2 l

gsave
0.000 setgray
fill
grestore
stroke
grestore
} bind def
380.332 68.9335 o
grestore
gsave
/o {
gsave
newpath
translate
0.5 setlinewidth
1 setlinejoin
0 setlinecap
0 0 m
0 -2 l

gsave
0.000 setgray
fill
grestore
stroke
grestore
} bind def
380.332 410.153 o
grestore
gsave
/o {
gsave
newpath
translate
0.5 setlinewidth
1 setlinejoin
0 setlinecap
0 0 m
0 2 l

gsave
0.000 setgray
fill
grestore
stroke
grestore
} bind def
383.844 68.9335 o
grestore
gsave
/o {
gsave
newpath
translate
0.5 setlinewidth
1 setlinejoin
0 setlinecap
0 0 m
0 -2 l

gsave
0.000 setgray
fill
grestore
stroke
grestore
} bind def
383.844 410.153 o
grestore
gsave
/o {
gsave
newpath
translate
0.5 setlinewidth
1 setlinejoin
0 setlinecap
0 0 m
0 2 l

gsave
0.000 setgray
fill
grestore
stroke
grestore
} bind def
407.652 68.9335 o
grestore
gsave
/o {
gsave
newpath
translate
0.5 setlinewidth
1 setlinejoin
0 setlinecap
0 0 m
0 -2 l

gsave
0.000 setgray
fill
grestore
stroke
grestore
} bind def
407.652 410.153 o
grestore
gsave
/o {
gsave
newpath
translate
0.5 setlinewidth
1 setlinejoin
0 setlinecap
0 0 m
0 2 l

gsave
0.000 setgray
fill
grestore
stroke
grestore
} bind def
419.742 68.9335 o
grestore
gsave
/o {
gsave
newpath
translate
0.5 setlinewidth
1 setlinejoin
0 setlinecap
0 0 m
0 -2 l

gsave
0.000 setgray
fill
grestore
stroke
grestore
} bind def
419.742 410.153 o
grestore
gsave
/o {
gsave
newpath
translate
0.5 setlinewidth
1 setlinejoin
0 setlinecap
0 0 m
0 2 l

gsave
0.000 setgray
fill
grestore
stroke
grestore
} bind def
428.319 68.9335 o
grestore
gsave
/o {
gsave
newpath
translate
0.5 setlinewidth
1 setlinejoin
0 setlinecap
0 0 m
0 -2 l

gsave
0.000 setgray
fill
grestore
stroke
grestore
} bind def
428.319 410.153 o
grestore
gsave
/o {
gsave
newpath
translate
0.5 setlinewidth
1 setlinejoin
0 setlinecap
0 0 m
0 2 l

gsave
0.000 setgray
fill
grestore
stroke
grestore
} bind def
434.972 68.9335 o
grestore
gsave
/o {
gsave
newpath
translate
0.5 setlinewidth
1 setlinejoin
0 setlinecap
0 0 m
0 -2 l

gsave
0.000 setgray
fill
grestore
stroke
grestore
} bind def
434.972 410.153 o
grestore
gsave
/o {
gsave
newpath
translate
0.5 setlinewidth
1 setlinejoin
0 setlinecap
0 0 m
0 2 l

gsave
0.000 setgray
fill
grestore
stroke
grestore
} bind def
440.408 68.9335 o
grestore
gsave
/o {
gsave
newpath
translate
0.5 setlinewidth
1 setlinejoin
0 setlinecap
0 0 m
0 -2 l

gsave
0.000 setgray
fill
grestore
stroke
grestore
} bind def
440.408 410.153 o
grestore
gsave
/o {
gsave
newpath
translate
0.5 setlinewidth
1 setlinejoin
0 setlinecap
0 0 m
0 2 l

gsave
0.000 setgray
fill
grestore
stroke
grestore
} bind def
445.005 68.9335 o
grestore
gsave
/o {
gsave
newpath
translate
0.5 setlinewidth
1 setlinejoin
0 setlinecap
0 0 m
0 -2 l

gsave
0.000 setgray
fill
grestore
stroke
grestore
} bind def
445.005 410.153 o
grestore
gsave
/o {
gsave
newpath
translate
0.5 setlinewidth
1 setlinejoin
0 setlinecap
0 0 m
0 2 l

gsave
0.000 setgray
fill
grestore
stroke
grestore
} bind def
448.986 68.9335 o
grestore
gsave
/o {
gsave
newpath
translate
0.5 setlinewidth
1 setlinejoin
0 setlinecap
0 0 m
0 -2 l

gsave
0.000 setgray
fill
grestore
stroke
grestore
} bind def
448.986 410.153 o
grestore
gsave
/o {
gsave
newpath
translate
0.5 setlinewidth
1 setlinejoin
0 setlinecap
0 0 m
0 2 l

gsave
0.000 setgray
fill
grestore
stroke
grestore
} bind def
452.498 68.9335 o
grestore
gsave
/o {
gsave
newpath
translate
0.5 setlinewidth
1 setlinejoin
0 setlinecap
0 0 m
0 -2 l

gsave
0.000 setgray
fill
grestore
stroke
grestore
} bind def
452.498 410.153 o
grestore
gsave
/o {
gsave
newpath
translate
0.5 setlinewidth
1 setlinejoin
0 setlinecap
0 0 m
0 2 l

gsave
0.000 setgray
fill
grestore
stroke
grestore
} bind def
476.306 68.9335 o
grestore
gsave
/o {
gsave
newpath
translate
0.5 setlinewidth
1 setlinejoin
0 setlinecap
0 0 m
0 -2 l

gsave
0.000 setgray
fill
grestore
stroke
grestore
} bind def
476.306 410.153 o
grestore
gsave
/o {
gsave
newpath
translate
0.5 setlinewidth
1 setlinejoin
0 setlinecap
0 0 m
0 2 l

gsave
0.000 setgray
fill
grestore
stroke
grestore
} bind def
488.395 68.9335 o
grestore
gsave
/o {
gsave
newpath
translate
0.5 setlinewidth
1 setlinejoin
0 setlinecap
0 0 m
0 -2 l

gsave
0.000 setgray
fill
grestore
stroke
grestore
} bind def
488.395 410.153 o
grestore
gsave
/o {
gsave
newpath
translate
0.5 setlinewidth
1 setlinejoin
0 setlinecap
0 0 m
0 2 l

gsave
0.000 setgray
fill
grestore
stroke
grestore
} bind def
496.973 68.9335 o
grestore
gsave
/o {
gsave
newpath
translate
0.5 setlinewidth
1 setlinejoin
0 setlinecap
0 0 m
0 -2 l

gsave
0.000 setgray
fill
grestore
stroke
grestore
} bind def
496.973 410.153 o
grestore
gsave
/o {
gsave
newpath
translate
0.5 setlinewidth
1 setlinejoin
0 setlinecap
0 0 m
0 2 l

gsave
0.000 setgray
fill
grestore
stroke
grestore
} bind def
503.626 68.9335 o
grestore
gsave
/o {
gsave
newpath
translate
0.5 setlinewidth
1 setlinejoin
0 setlinecap
0 0 m
0 -2 l

gsave
0.000 setgray
fill
grestore
stroke
grestore
} bind def
503.626 410.153 o
grestore
gsave
/o {
gsave
newpath
translate
0.5 setlinewidth
1 setlinejoin
0 setlinecap
0 0 m
0 2 l

gsave
0.000 setgray
fill
grestore
stroke
grestore
} bind def
509.062 68.9335 o
grestore
gsave
/o {
gsave
newpath
translate
0.5 setlinewidth
1 setlinejoin
0 setlinecap
0 0 m
0 -2 l

gsave
0.000 setgray
fill
grestore
stroke
grestore
} bind def
509.062 410.153 o
grestore
gsave
/o {
gsave
newpath
translate
0.5 setlinewidth
1 setlinejoin
0 setlinecap
0 0 m
0 2 l

gsave
0.000 setgray
fill
grestore
stroke
grestore
} bind def
513.658 68.9335 o
grestore
gsave
/o {
gsave
newpath
translate
0.5 setlinewidth
1 setlinejoin
0 setlinecap
0 0 m
0 -2 l

gsave
0.000 setgray
fill
grestore
stroke
grestore
} bind def
513.658 410.153 o
grestore
gsave
/o {
gsave
newpath
translate
0.5 setlinewidth
1 setlinejoin
0 setlinecap
0 0 m
0 2 l

gsave
0.000 setgray
fill
grestore
stroke
grestore
} bind def
517.64 68.9335 o
grestore
gsave
/o {
gsave
newpath
translate
0.5 setlinewidth
1 setlinejoin
0 setlinecap
0 0 m
0 -2 l

gsave
0.000 setgray
fill
grestore
stroke
grestore
} bind def
517.64 410.153 o
grestore
gsave
/o {
gsave
newpath
translate
0.5 setlinewidth
1 setlinejoin
0 setlinecap
0 0 m
0 2 l

gsave
0.000 setgray
fill
grestore
stroke
grestore
} bind def
521.151 68.9335 o
grestore
gsave
/o {
gsave
newpath
translate
0.5 setlinewidth
1 setlinejoin
0 setlinecap
0 0 m
0 -2 l

gsave
0.000 setgray
fill
grestore
stroke
grestore
} bind def
521.151 410.153 o
grestore
gsave
/o {
gsave
newpath
translate
0.5 setlinewidth
1 setlinejoin
0 setlinecap
0 0 m
0 2 l

gsave
0.000 setgray
fill
grestore
stroke
grestore
} bind def
544.96 68.9335 o
grestore
gsave
/o {
gsave
newpath
translate
0.5 setlinewidth
1 setlinejoin
0 setlinecap
0 0 m
0 -2 l

gsave
0.000 setgray
fill
grestore
stroke
grestore
} bind def
544.96 410.153 o
grestore
gsave
/o {
gsave
newpath
translate
0.5 setlinewidth
1 setlinejoin
0 setlinecap
0 0 m
0 2 l

gsave
0.000 setgray
fill
grestore
stroke
grestore
} bind def
557.049 68.9335 o
grestore
gsave
/o {
gsave
newpath
translate
0.5 setlinewidth
1 setlinejoin
0 setlinecap
0 0 m
0 -2 l

gsave
0.000 setgray
fill
grestore
stroke
grestore
} bind def
557.049 410.153 o
grestore
gsave
308.252063 23.933491 translate
0.000000 rotate
/Cmmi10 findfont
14.5152 scalefont
setfont
0.000000 11.090625 moveto
/R glyphshow

/Cmr10 findfont
10.16064 scalefont
setfont
11.013112 8.622134 moveto
/zero glyphshow

/Cmmi10 findfont
14.5152 scalefont
setfont
17.018718 11.090625 moveto
/omega glyphshow

0.000000 3.216103 26.047485 1.296000 rectfill
10.000000 -4.489272 moveto
/c glyphshow


grestore
[1 3] 0 setdash
gsave
480.6 341.2 82.46 68.93 clipbox
82.464127 68.933491 m
563.04 68.933491 l
stroke
grestore
[] 0 setdash
gsave
/o {
gsave
newpath
translate
0.5 setlinewidth
1 setlinejoin
0 setlinecap
0 0 m
4 0 l

gsave
0.000 setgray
fill
grestore
stroke
grestore
} bind def
82.4641 68.9335 o
grestore
gsave
/o {
gsave
newpath
translate
0.5 setlinewidth
1 setlinejoin
0 setlinecap
0 0 m
-4 0 l

gsave
0.000 setgray
fill
grestore
stroke
grestore
} bind def
563.04 68.9335 o
grestore
gsave
42.464127 64.339741 translate
0.000000 rotate
/BitstreamVeraSans-Roman findfont
14.0 scalefont
setfont
0.000000 0.242812 moveto
/one glyphshow

8.907227 0.242812 moveto
/zero glyphshow

/BitstreamVeraSans-Roman findfont
9.8 scalefont
setfont
18.586203 6.857812 moveto
/hyphen glyphshow

22.122434 6.857812 moveto
/one glyphshow

28.357492 6.857812 moveto
/five glyphshow


grestore
[1 3] 0 setdash
gsave
480.6 341.2 82.46 68.93 clipbox
82.464127 91.681425 m
563.04 91.681425 l
stroke
grestore
[] 0 setdash
gsave
/o {
gsave
newpath
translate
0.5 setlinewidth
1 setlinejoin
0 setlinecap
0 0 m
4 0 l

gsave
0.000 setgray
fill
grestore
stroke
grestore
} bind def
82.4641 91.6814 o
grestore
gsave
/o {
gsave
newpath
translate
0.5 setlinewidth
1 setlinejoin
0 setlinecap
0 0 m
-4 0 l

gsave
0.000 setgray
fill
grestore
stroke
grestore
} bind def
563.04 91.6814 o
grestore
gsave
42.464127 87.087675 translate
0.000000 rotate
/BitstreamVeraSans-Roman findfont
14.0 scalefont
setfont
0.000000 0.242812 moveto
/one glyphshow

8.907227 0.242812 moveto
/zero glyphshow

/BitstreamVeraSans-Roman findfont
9.8 scalefont
setfont
18.586203 6.857812 moveto
/hyphen glyphshow

22.122434 6.857812 moveto
/one glyphshow

28.357492 6.857812 moveto
/four glyphshow


grestore
[1 3] 0 setdash
gsave
480.6 341.2 82.46 68.93 clipbox
82.464127 114.429359 m
563.04 114.429359 l
stroke
grestore
[] 0 setdash
gsave
/o {
gsave
newpath
translate
0.5 setlinewidth
1 setlinejoin
0 setlinecap
0 0 m
4 0 l

gsave
0.000 setgray
fill
grestore
stroke
grestore
} bind def
82.4641 114.429 o
grestore
gsave
/o {
gsave
newpath
translate
0.5 setlinewidth
1 setlinejoin
0 setlinecap
0 0 m
-4 0 l

gsave
0.000 setgray
fill
grestore
stroke
grestore
} bind def
563.04 114.429 o
grestore
gsave
42.464127 109.835609 translate
0.000000 rotate
/BitstreamVeraSans-Roman findfont
14.0 scalefont
setfont
0.000000 0.111563 moveto
/one glyphshow

8.907227 0.111563 moveto
/zero glyphshow

/BitstreamVeraSans-Roman findfont
9.8 scalefont
setfont
18.586203 6.726563 moveto
/hyphen glyphshow

22.122434 6.726563 moveto
/one glyphshow

28.357492 6.726563 moveto
/three glyphshow


grestore
[1 3] 0 setdash
gsave
480.6 341.2 82.46 68.93 clipbox
82.464127 137.177293 m
563.04 137.177293 l
stroke
grestore
[] 0 setdash
gsave
/o {
gsave
newpath
translate
0.5 setlinewidth
1 setlinejoin
0 setlinecap
0 0 m
4 0 l

gsave
0.000 setgray
fill
grestore
stroke
grestore
} bind def
82.4641 137.177 o
grestore
gsave
/o {
gsave
newpath
translate
0.5 setlinewidth
1 setlinejoin
0 setlinecap
0 0 m
-4 0 l

gsave
0.000 setgray
fill
grestore
stroke
grestore
} bind def
563.04 137.177 o
grestore
gsave
42.464127 132.583543 translate
0.000000 rotate
/BitstreamVeraSans-Roman findfont
14.0 scalefont
setfont
0.000000 0.111563 moveto
/one glyphshow

8.907227 0.111563 moveto
/zero glyphshow

/BitstreamVeraSans-Roman findfont
9.8 scalefont
setfont
18.586203 6.726563 moveto
/hyphen glyphshow

22.122434 6.726563 moveto
/one glyphshow

28.357492 6.726563 moveto
/two glyphshow


grestore
[1 3] 0 setdash
gsave
480.6 341.2 82.46 68.93 clipbox
82.464127 159.925227 m
563.04 159.925227 l
stroke
grestore
[] 0 setdash
gsave
/o {
gsave
newpath
translate
0.5 setlinewidth
1 setlinejoin
0 setlinecap
0 0 m
4 0 l

gsave
0.000 setgray
fill
grestore
stroke
grestore
} bind def
82.4641 159.925 o
grestore
gsave
/o {
gsave
newpath
translate
0.5 setlinewidth
1 setlinejoin
0 setlinecap
0 0 m
-4 0 l

gsave
0.000 setgray
fill
grestore
stroke
grestore
} bind def
563.04 159.925 o
grestore
gsave
42.464127 155.331477 translate
0.000000 rotate
/BitstreamVeraSans-Roman findfont
14.0 scalefont
setfont
0.000000 0.242812 moveto
/one glyphshow

8.907227 0.242812 moveto
/zero glyphshow

/BitstreamVeraSans-Roman findfont
9.8 scalefont
setfont
18.586203 6.857812 moveto
/hyphen glyphshow

22.122434 6.857812 moveto
/one glyphshow

28.357492 6.857812 moveto
/one glyphshow


grestore
[1 3] 0 setdash
gsave
480.6 341.2 82.46 68.93 clipbox
82.464127 182.673161 m
563.04 182.673161 l
stroke
grestore
[] 0 setdash
gsave
/o {
gsave
newpath
translate
0.5 setlinewidth
1 setlinejoin
0 setlinecap
0 0 m
4 0 l

gsave
0.000 setgray
fill
grestore
stroke
grestore
} bind def
82.4641 182.673 o
grestore
gsave
/o {
gsave
newpath
translate
0.5 setlinewidth
1 setlinejoin
0 setlinecap
0 0 m
-4 0 l

gsave
0.000 setgray
fill
grestore
stroke
grestore
} bind def
563.04 182.673 o
grestore
gsave
42.464127 178.079411 translate
0.000000 rotate
/BitstreamVeraSans-Roman findfont
14.0 scalefont
setfont
0.000000 0.111563 moveto
/one glyphshow

8.907227 0.111563 moveto
/zero glyphshow

/BitstreamVeraSans-Roman findfont
9.8 scalefont
setfont
18.586203 6.726563 moveto
/hyphen glyphshow

22.122434 6.726563 moveto
/one glyphshow

28.357492 6.726563 moveto
/zero glyphshow


grestore
[1 3] 0 setdash
gsave
480.6 341.2 82.46 68.93 clipbox
82.464127 205.421095 m
563.04 205.421095 l
stroke
grestore
[] 0 setdash
gsave
/o {
gsave
newpath
translate
0.5 setlinewidth
1 setlinejoin
0 setlinecap
0 0 m
4 0 l

gsave
0.000 setgray
fill
grestore
stroke
grestore
} bind def
82.4641 205.421 o
grestore
gsave
/o {
gsave
newpath
translate
0.5 setlinewidth
1 setlinejoin
0 setlinecap
0 0 m
-4 0 l

gsave
0.000 setgray
fill
grestore
stroke
grestore
} bind def
563.04 205.421 o
grestore
gsave
48.464127 200.827345 translate
0.000000 rotate
/BitstreamVeraSans-Roman findfont
14.0 scalefont
setfont
0.000000 0.111563 moveto
/one glyphshow

8.907227 0.111563 moveto
/zero glyphshow

/BitstreamVeraSans-Roman findfont
9.8 scalefont
setfont
18.586203 6.726563 moveto
/hyphen glyphshow

22.122434 6.726563 moveto
/nine glyphshow


grestore
[1 3] 0 setdash
gsave
480.6 341.2 82.46 68.93 clipbox
82.464127 228.169029 m
563.04 228.169029 l
stroke
grestore
[] 0 setdash
gsave
/o {
gsave
newpath
translate
0.5 setlinewidth
1 setlinejoin
0 setlinecap
0 0 m
4 0 l

gsave
0.000 setgray
fill
grestore
stroke
grestore
} bind def
82.4641 228.169 o
grestore
gsave
/o {
gsave
newpath
translate
0.5 setlinewidth
1 setlinejoin
0 setlinecap
0 0 m
-4 0 l

gsave
0.000 setgray
fill
grestore
stroke
grestore
} bind def
563.04 228.169 o
grestore
gsave
48.464127 223.575279 translate
0.000000 rotate
/BitstreamVeraSans-Roman findfont
14.0 scalefont
setfont
0.000000 0.111563 moveto
/one glyphshow

8.907227 0.111563 moveto
/zero glyphshow

/BitstreamVeraSans-Roman findfont
9.8 scalefont
setfont
18.586203 6.726563 moveto
/hyphen glyphshow

22.122434 6.726563 moveto
/eight glyphshow


grestore
[1 3] 0 setdash
gsave
480.6 341.2 82.46 68.93 clipbox
82.464127 250.916963 m
563.04 250.916963 l
stroke
grestore
[] 0 setdash
gsave
/o {
gsave
newpath
translate
0.5 setlinewidth
1 setlinejoin
0 setlinecap
0 0 m
4 0 l

gsave
0.000 setgray
fill
grestore
stroke
grestore
} bind def
82.4641 250.917 o
grestore
gsave
/o {
gsave
newpath
translate
0.5 setlinewidth
1 setlinejoin
0 setlinecap
0 0 m
-4 0 l

gsave
0.000 setgray
fill
grestore
stroke
grestore
} bind def
563.04 250.917 o
grestore
gsave
48.464127 246.323213 translate
0.000000 rotate
/BitstreamVeraSans-Roman findfont
14.0 scalefont
setfont
0.000000 0.242812 moveto
/one glyphshow

8.907227 0.242812 moveto
/zero glyphshow

/BitstreamVeraSans-Roman findfont
9.8 scalefont
setfont
18.586203 6.857812 moveto
/hyphen glyphshow

22.122434 6.857812 moveto
/seven glyphshow


grestore
[1 3] 0 setdash
gsave
480.6 341.2 82.46 68.93 clipbox
82.464127 273.664896 m
563.04 273.664896 l
stroke
grestore
[] 0 setdash
gsave
/o {
gsave
newpath
translate
0.5 setlinewidth
1 setlinejoin
0 setlinecap
0 0 m
4 0 l

gsave
0.000 setgray
fill
grestore
stroke
grestore
} bind def
82.4641 273.665 o
grestore
gsave
/o {
gsave
newpath
translate
0.5 setlinewidth
1 setlinejoin
0 setlinecap
0 0 m
-4 0 l

gsave
0.000 setgray
fill
grestore
stroke
grestore
} bind def
563.04 273.665 o
grestore
gsave
48.464127 269.071146 translate
0.000000 rotate
/BitstreamVeraSans-Roman findfont
14.0 scalefont
setfont
0.000000 0.111563 moveto
/one glyphshow

8.907227 0.111563 moveto
/zero glyphshow

/BitstreamVeraSans-Roman findfont
9.8 scalefont
setfont
18.586203 6.726563 moveto
/hyphen glyphshow

22.122434 6.726563 moveto
/six glyphshow


grestore
[1 3] 0 setdash
gsave
480.6 341.2 82.46 68.93 clipbox
82.464127 296.41283 m
563.04 296.41283 l
stroke
grestore
[] 0 setdash
gsave
/o {
gsave
newpath
translate
0.5 setlinewidth
1 setlinejoin
0 setlinecap
0 0 m
4 0 l

gsave
0.000 setgray
fill
grestore
stroke
grestore
} bind def
82.4641 296.413 o
grestore
gsave
/o {
gsave
newpath
translate
0.5 setlinewidth
1 setlinejoin
0 setlinecap
0 0 m
-4 0 l

gsave
0.000 setgray
fill
grestore
stroke
grestore
} bind def
563.04 296.413 o
grestore
gsave
48.464127 291.819080 translate
0.000000 rotate
/BitstreamVeraSans-Roman findfont
14.0 scalefont
setfont
0.000000 0.242812 moveto
/one glyphshow

8.907227 0.242812 moveto
/zero glyphshow

/BitstreamVeraSans-Roman findfont
9.8 scalefont
setfont
18.586203 6.857812 moveto
/hyphen glyphshow

22.122434 6.857812 moveto
/five glyphshow


grestore
[1 3] 0 setdash
gsave
480.6 341.2 82.46 68.93 clipbox
82.464127 319.160764 m
563.04 319.160764 l
stroke
grestore
[] 0 setdash
gsave
/o {
gsave
newpath
translate
0.5 setlinewidth
1 setlinejoin
0 setlinecap
0 0 m
4 0 l

gsave
0.000 setgray
fill
grestore
stroke
grestore
} bind def
82.4641 319.161 o
grestore
gsave
/o {
gsave
newpath
translate
0.5 setlinewidth
1 setlinejoin
0 setlinecap
0 0 m
-4 0 l

gsave
0.000 setgray
fill
grestore
stroke
grestore
} bind def
563.04 319.161 o
grestore
gsave
48.464127 314.567014 translate
0.000000 rotate
/BitstreamVeraSans-Roman findfont
14.0 scalefont
setfont
0.000000 0.242812 moveto
/one glyphshow

8.907227 0.242812 moveto
/zero glyphshow

/BitstreamVeraSans-Roman findfont
9.8 scalefont
setfont
18.586203 6.857812 moveto
/hyphen glyphshow

22.122434 6.857812 moveto
/four glyphshow


grestore
[1 3] 0 setdash
gsave
480.6 341.2 82.46 68.93 clipbox
82.464127 341.908698 m
563.04 341.908698 l
stroke
grestore
[] 0 setdash
gsave
/o {
gsave
newpath
translate
0.5 setlinewidth
1 setlinejoin
0 setlinecap
0 0 m
4 0 l

gsave
0.000 setgray
fill
grestore
stroke
grestore
} bind def
82.4641 341.909 o
grestore
gsave
/o {
gsave
newpath
translate
0.5 setlinewidth
1 setlinejoin
0 setlinecap
0 0 m
-4 0 l

gsave
0.000 setgray
fill
grestore
stroke
grestore
} bind def
563.04 341.909 o
grestore
gsave
48.464127 337.314948 translate
0.000000 rotate
/BitstreamVeraSans-Roman findfont
14.0 scalefont
setfont
0.000000 0.111563 moveto
/one glyphshow

8.907227 0.111563 moveto
/zero glyphshow

/BitstreamVeraSans-Roman findfont
9.8 scalefont
setfont
18.586203 6.726563 moveto
/hyphen glyphshow

22.122434 6.726563 moveto
/three glyphshow


grestore
[1 3] 0 setdash
gsave
480.6 341.2 82.46 68.93 clipbox
82.464127 364.656632 m
563.04 364.656632 l
stroke
grestore
[] 0 setdash
gsave
/o {
gsave
newpath
translate
0.5 setlinewidth
1 setlinejoin
0 setlinecap
0 0 m
4 0 l

gsave
0.000 setgray
fill
grestore
stroke
grestore
} bind def
82.4641 364.657 o
grestore
gsave
/o {
gsave
newpath
translate
0.5 setlinewidth
1 setlinejoin
0 setlinecap
0 0 m
-4 0 l

gsave
0.000 setgray
fill
grestore
stroke
grestore
} bind def
563.04 364.657 o
grestore
gsave
48.464127 360.062882 translate
0.000000 rotate
/BitstreamVeraSans-Roman findfont
14.0 scalefont
setfont
0.000000 0.111563 moveto
/one glyphshow

8.907227 0.111563 moveto
/zero glyphshow

/BitstreamVeraSans-Roman findfont
9.8 scalefont
setfont
18.586203 6.726563 moveto
/hyphen glyphshow

22.122434 6.726563 moveto
/two glyphshow


grestore
[1 3] 0 setdash
gsave
480.6 341.2 82.46 68.93 clipbox
82.464127 387.404566 m
563.04 387.404566 l
stroke
grestore
[] 0 setdash
gsave
/o {
gsave
newpath
translate
0.5 setlinewidth
1 setlinejoin
0 setlinecap
0 0 m
4 0 l

gsave
0.000 setgray
fill
grestore
stroke
grestore
} bind def
82.4641 387.405 o
grestore
gsave
/o {
gsave
newpath
translate
0.5 setlinewidth
1 setlinejoin
0 setlinecap
0 0 m
-4 0 l

gsave
0.000 setgray
fill
grestore
stroke
grestore
} bind def
563.04 387.405 o
grestore
gsave
48.464127 382.810816 translate
0.000000 rotate
/BitstreamVeraSans-Roman findfont
14.0 scalefont
setfont
0.000000 0.242812 moveto
/one glyphshow

8.907227 0.242812 moveto
/zero glyphshow

/BitstreamVeraSans-Roman findfont
9.8 scalefont
setfont
18.586203 6.857812 moveto
/hyphen glyphshow

22.122434 6.857812 moveto
/one glyphshow


grestore
[1 3] 0 setdash
gsave
480.6 341.2 82.46 68.93 clipbox
82.464127 410.1525 m
563.04 410.1525 l
stroke
grestore
[] 0 setdash
gsave
/o {
gsave
newpath
translate
0.5 setlinewidth
1 setlinejoin
0 setlinecap
0 0 m
4 0 l

gsave
0.000 setgray
fill
grestore
stroke
grestore
} bind def
82.4641 410.153 o
grestore
gsave
/o {
gsave
newpath
translate
0.5 setlinewidth
1 setlinejoin
0 setlinecap
0 0 m
-4 0 l

gsave
0.000 setgray
fill
grestore
stroke
grestore
} bind def
563.04 410.153 o
grestore
gsave
52.464127 405.558750 translate
0.000000 rotate
/BitstreamVeraSans-Roman findfont
14.0 scalefont
setfont
0.000000 0.111563 moveto
/one glyphshow

8.907227 0.111563 moveto
/zero glyphshow

/BitstreamVeraSans-Roman findfont
9.8 scalefont
setfont
18.586203 6.726563 moveto
/zero glyphshow


grestore
gsave
/o {
gsave
newpath
translate
0.5 setlinewidth
1 setlinejoin
0 setlinecap
0 0 m
2 0 l

gsave
0.000 setgray
fill
grestore
stroke
grestore
} bind def
82.4641 68.9335 o
grestore
gsave
/o {
gsave
newpath
translate
0.5 setlinewidth
1 setlinejoin
0 setlinecap
0 0 m
-2 0 l

gsave
0.000 setgray
fill
grestore
stroke
grestore
} bind def
563.04 68.9335 o
grestore
gsave
/o {
gsave
newpath
translate
0.5 setlinewidth
1 setlinejoin
0 setlinecap
0 0 m
2 0 l

gsave
0.000 setgray
fill
grestore
stroke
grestore
} bind def
82.4641 91.6814 o
grestore
gsave
/o {
gsave
newpath
translate
0.5 setlinewidth
1 setlinejoin
0 setlinecap
0 0 m
-2 0 l

gsave
0.000 setgray
fill
grestore
stroke
grestore
} bind def
563.04 91.6814 o
grestore
gsave
/o {
gsave
newpath
translate
0.5 setlinewidth
1 setlinejoin
0 setlinecap
0 0 m
2 0 l

gsave
0.000 setgray
fill
grestore
stroke
grestore
} bind def
82.4641 114.429 o
grestore
gsave
/o {
gsave
newpath
translate
0.5 setlinewidth
1 setlinejoin
0 setlinecap
0 0 m
-2 0 l

gsave
0.000 setgray
fill
grestore
stroke
grestore
} bind def
563.04 114.429 o
grestore
gsave
/o {
gsave
newpath
translate
0.5 setlinewidth
1 setlinejoin
0 setlinecap
0 0 m
2 0 l

gsave
0.000 setgray
fill
grestore
stroke
grestore
} bind def
82.4641 137.177 o
grestore
gsave
/o {
gsave
newpath
translate
0.5 setlinewidth
1 setlinejoin
0 setlinecap
0 0 m
-2 0 l

gsave
0.000 setgray
fill
grestore
stroke
grestore
} bind def
563.04 137.177 o
grestore
gsave
/o {
gsave
newpath
translate
0.5 setlinewidth
1 setlinejoin
0 setlinecap
0 0 m
2 0 l

gsave
0.000 setgray
fill
grestore
stroke
grestore
} bind def
82.4641 159.925 o
grestore
gsave
/o {
gsave
newpath
translate
0.5 setlinewidth
1 setlinejoin
0 setlinecap
0 0 m
-2 0 l

gsave
0.000 setgray
fill
grestore
stroke
grestore
} bind def
563.04 159.925 o
grestore
gsave
/o {
gsave
newpath
translate
0.5 setlinewidth
1 setlinejoin
0 setlinecap
0 0 m
2 0 l

gsave
0.000 setgray
fill
grestore
stroke
grestore
} bind def
82.4641 182.673 o
grestore
gsave
/o {
gsave
newpath
translate
0.5 setlinewidth
1 setlinejoin
0 setlinecap
0 0 m
-2 0 l

gsave
0.000 setgray
fill
grestore
stroke
grestore
} bind def
563.04 182.673 o
grestore
gsave
/o {
gsave
newpath
translate
0.5 setlinewidth
1 setlinejoin
0 setlinecap
0 0 m
2 0 l

gsave
0.000 setgray
fill
grestore
stroke
grestore
} bind def
82.4641 205.421 o
grestore
gsave
/o {
gsave
newpath
translate
0.5 setlinewidth
1 setlinejoin
0 setlinecap
0 0 m
-2 0 l

gsave
0.000 setgray
fill
grestore
stroke
grestore
} bind def
563.04 205.421 o
grestore
gsave
/o {
gsave
newpath
translate
0.5 setlinewidth
1 setlinejoin
0 setlinecap
0 0 m
2 0 l

gsave
0.000 setgray
fill
grestore
stroke
grestore
} bind def
82.4641 228.169 o
grestore
gsave
/o {
gsave
newpath
translate
0.5 setlinewidth
1 setlinejoin
0 setlinecap
0 0 m
-2 0 l

gsave
0.000 setgray
fill
grestore
stroke
grestore
} bind def
563.04 228.169 o
grestore
gsave
/o {
gsave
newpath
translate
0.5 setlinewidth
1 setlinejoin
0 setlinecap
0 0 m
2 0 l

gsave
0.000 setgray
fill
grestore
stroke
grestore
} bind def
82.4641 250.917 o
grestore
gsave
/o {
gsave
newpath
translate
0.5 setlinewidth
1 setlinejoin
0 setlinecap
0 0 m
-2 0 l

gsave
0.000 setgray
fill
grestore
stroke
grestore
} bind def
563.04 250.917 o
grestore
gsave
/o {
gsave
newpath
translate
0.5 setlinewidth
1 setlinejoin
0 setlinecap
0 0 m
2 0 l

gsave
0.000 setgray
fill
grestore
stroke
grestore
} bind def
82.4641 273.665 o
grestore
gsave
/o {
gsave
newpath
translate
0.5 setlinewidth
1 setlinejoin
0 setlinecap
0 0 m
-2 0 l

gsave
0.000 setgray
fill
grestore
stroke
grestore
} bind def
563.04 273.665 o
grestore
gsave
/o {
gsave
newpath
translate
0.5 setlinewidth
1 setlinejoin
0 setlinecap
0 0 m
2 0 l

gsave
0.000 setgray
fill
grestore
stroke
grestore
} bind def
82.4641 296.413 o
grestore
gsave
/o {
gsave
newpath
translate
0.5 setlinewidth
1 setlinejoin
0 setlinecap
0 0 m
-2 0 l

gsave
0.000 setgray
fill
grestore
stroke
grestore
} bind def
563.04 296.413 o
grestore
gsave
/o {
gsave
newpath
translate
0.5 setlinewidth
1 setlinejoin
0 setlinecap
0 0 m
2 0 l

gsave
0.000 setgray
fill
grestore
stroke
grestore
} bind def
82.4641 319.161 o
grestore
gsave
/o {
gsave
newpath
translate
0.5 setlinewidth
1 setlinejoin
0 setlinecap
0 0 m
-2 0 l

gsave
0.000 setgray
fill
grestore
stroke
grestore
} bind def
563.04 319.161 o
grestore
gsave
/o {
gsave
newpath
translate
0.5 setlinewidth
1 setlinejoin
0 setlinecap
0 0 m
2 0 l

gsave
0.000 setgray
fill
grestore
stroke
grestore
} bind def
82.4641 341.909 o
grestore
gsave
/o {
gsave
newpath
translate
0.5 setlinewidth
1 setlinejoin
0 setlinecap
0 0 m
-2 0 l

gsave
0.000 setgray
fill
grestore
stroke
grestore
} bind def
563.04 341.909 o
grestore
gsave
/o {
gsave
newpath
translate
0.5 setlinewidth
1 setlinejoin
0 setlinecap
0 0 m
2 0 l

gsave
0.000 setgray
fill
grestore
stroke
grestore
} bind def
82.4641 364.657 o
grestore
gsave
/o {
gsave
newpath
translate
0.5 setlinewidth
1 setlinejoin
0 setlinecap
0 0 m
-2 0 l

gsave
0.000 setgray
fill
grestore
stroke
grestore
} bind def
563.04 364.657 o
grestore
gsave
/o {
gsave
newpath
translate
0.5 setlinewidth
1 setlinejoin
0 setlinecap
0 0 m
2 0 l

gsave
0.000 setgray
fill
grestore
stroke
grestore
} bind def
82.4641 387.405 o
grestore
gsave
/o {
gsave
newpath
translate
0.5 setlinewidth
1 setlinejoin
0 setlinecap
0 0 m
-2 0 l

gsave
0.000 setgray
fill
grestore
stroke
grestore
} bind def
563.04 387.405 o
grestore
gsave
/o {
gsave
newpath
translate
0.5 setlinewidth
1 setlinejoin
0 setlinecap
0 0 m
2 0 l

gsave
0.000 setgray
fill
grestore
stroke
grestore
} bind def
82.4641 410.153 o
grestore
gsave
/o {
gsave
newpath
translate
0.5 setlinewidth
1 setlinejoin
0 setlinecap
0 0 m
-2 0 l

gsave
0.000 setgray
fill
grestore
stroke
grestore
} bind def
563.04 410.153 o
grestore
gsave
32.464127 160.042996 translate
90.000000 rotate
/Cmsy10 findfont
17.28 scalefont
setfont
0.000000 0.320782 moveto
/bar glyphshow

/Cmr10 findfont
17.28 scalefont
setfont
4.780075 0.320782 moveto
/parenleft glyphshow

/Cmmi10 findfont
17.28 scalefont
setfont
11.482300 0.320782 moveto
/lambda glyphshow

/Cmr10 findfont
12.096 scalefont
setfont
23.550744 6.932813 moveto
/parenleft glyphshow

28.242301 6.932813 moveto
/one glyphshow

34.285270 6.932813 moveto
/parenright glyphshow

/Cmr10 findfont
17.28 scalefont
setfont
40.078832 0.320782 moveto
/parenright glyphshow

/Cmr10 findfont
12.096 scalefont
setfont
47.552460 6.932813 moveto
/two glyphshow

/Cmsy10 findfont
17.28 scalefont
setfont
57.729035 0.320782 moveto
/minus glyphshow

/Cmr10 findfont
17.28 scalefont
setfont
74.173524 0.320782 moveto
/parenleft glyphshow

/Cmmi10 findfont
17.28 scalefont
setfont
80.875748 0.320782 moveto
/lambda glyphshow

/Cmr10 findfont
12.096 scalefont
setfont
92.944192 6.932813 moveto
/parenleft glyphshow

97.635750 6.932813 moveto
/two glyphshow

103.678718 6.932813 moveto
/parenright glyphshow

/Cmr10 findfont
17.28 scalefont
setfont
109.472281 0.320782 moveto
/parenright glyphshow

/Cmr10 findfont
12.096 scalefont
setfont
116.945909 6.932813 moveto
/two glyphshow

/Cmsy10 findfont
17.28 scalefont
setfont
124.090883 0.320782 moveto
/bar glyphshow

/Cmex10 findfont
15.7906596226 scalefont
setfont
133.081548 14.229220 moveto
/bracketleftbig glyphshow

/Cmr10 findfont
12.096 scalefont
setfont
141.646795 6.801095 moveto
/one glyphshow

139.646795 2.481095 10.610603 1.080000 rectfill
/Cmmi10 findfont
12.096 scalefont
setfont
139.646795 -3.936405 moveto
/m glyphshow

/Cmex10 findfont
15.7906596226 scalefont
setfont
152.417398 14.229220 moveto
/bracketrightbig glyphshow


grestore
/BitstreamVeraSans-Roman findfont
12.000 scalefont
setfont
gsave
348.838236 328.485144 translate
0.000000 rotate
0.000000 0.000000 m /one glyphshow
grestore
gsave
300.393021 293.100330 translate
0.000000 rotate
0.000000 0.000000 m /two glyphshow
grestore
1.000 setlinewidth
0 setlinejoin
gsave
89.664127 313.8325 m
201.504127 313.8325 l
201.504127 402.9525 l
89.664127 402.9525 l
cl
gsave
1.000 setgray
fill
grestore
stroke
grestore
2.500 setlinewidth
1 setlinejoin
2 setlinecap
0.545 0.000 0.000 setrgbcolor
gsave
99.744127 391.2325 m
119.904127 391.2325 l
stroke
grestore
0.500 setlinewidth
0 setlinecap
0.000 setgray
gsave
/o {
gsave
newpath
translate
0.5 setlinewidth
1 setlinejoin
0 setlinecap
0 -3 m
0.795609 -3 1.55874 -2.683901 2.12132 -2.12132 c
2.683901 -1.55874 3 -0.795609 3 0 c
3 0.795609 2.683901 1.55874 2.12132 2.12132 c
1.55874 2.683901 0.795609 3 0 3 c
-0.795609 3 -1.55874 2.683901 -2.12132 2.12132 c
-2.683901 1.55874 -3 0.795609 -3 0 c
-3 -0.795609 -2.683901 -1.55874 -2.12132 -2.12132 c
-1.55874 -2.683901 -0.795609 -3 0 -3 c
cl

gsave
0.545 0.000 0.000 setrgbcolor
fill
grestore
stroke
grestore
} bind def
99.7441 391.233 o
119.904 391.233 o
grestore
gsave
135.744127 386.192500 translate
0.000000 rotate
/Cmmi10 findfont
14.4 scalefont
setfont
0.000000 0.359375 moveto
/lambda glyphshow

/Cmr10 findfont
10.08 scalefont
setfont
8.389847 -2.089525 moveto
/zero glyphshow

/BitstreamVeraSans-Roman findfont
14.4 scalefont
setfont
14.344903 0.359375 moveto
/space glyphshow

18.914300 0.359375 moveto
/l glyphshow

22.908135 0.359375 moveto
/i glyphshow

26.901971 0.359375 moveto
/n glyphshow

36.012689 0.359375 moveto
/e glyphshow

44.856683 0.359375 moveto
/a glyphshow

53.665582 0.359375 moveto
/r glyphshow


grestore
2.500 setlinewidth
2 setlinecap
0.545 0.000 0.000 setrgbcolor
gsave
99.744127 370.0325 m
119.904127 370.0325 l
stroke
grestore
0.500 setlinewidth
0 setlinejoin
0 setlinecap
0.000 setgray
gsave
/o {
gsave
newpath
translate
0.5 setlinewidth
0 setlinejoin
0 setlinecap
-0 -4.242641 m
2.545584 0 l
0 4.242641 l
-2.545584 0 l
cl

gsave
0.545 0.000 0.000 setrgbcolor
fill
grestore
stroke
grestore
} bind def
99.7441 370.033 o
119.904 370.033 o
grestore
gsave
135.744127 364.992500 translate
0.000000 rotate
/Cmmi10 findfont
14.4 scalefont
setfont
0.000000 0.359375 moveto
/lambda glyphshow

/Cmr10 findfont
10.08 scalefont
setfont
8.389847 -2.089525 moveto
/nine glyphshow

/BitstreamVeraSans-Roman findfont
14.4 scalefont
setfont
14.344903 0.359375 moveto
/space glyphshow

18.914300 0.359375 moveto
/l glyphshow

22.908135 0.359375 moveto
/i glyphshow

26.901971 0.359375 moveto
/n glyphshow

36.012689 0.359375 moveto
/e glyphshow

44.856683 0.359375 moveto
/a glyphshow

53.665582 0.359375 moveto
/r glyphshow


grestore
2.500 setlinewidth
1 setlinejoin
[1 3] 0 setdash
0.000 0.392 0.000 setrgbcolor
gsave
99.744127 348.8325 m
119.904127 348.8325 l
stroke
grestore
0.500 setlinewidth
[] 0 setdash
0.000 setgray
gsave
/o {
gsave
newpath
translate
0.5 setlinewidth
1 setlinejoin
0 setlinecap
0 -3 m
0.795609 -3 1.55874 -2.683901 2.12132 -2.12132 c
2.683901 -1.55874 3 -0.795609 3 0 c
3 0.795609 2.683901 1.55874 2.12132 2.12132 c
1.55874 2.683901 0.795609 3 0 3 c
-0.795609 3 -1.55874 2.683901 -2.12132 2.12132 c
-2.683901 1.55874 -3 0.795609 -3 0 c
-3 -0.795609 -2.683901 -1.55874 -2.12132 -2.12132 c
-1.55874 -2.683901 -0.795609 -3 0 -3 c
cl

gsave
0.000 0.392 0.000 setrgbcolor
fill
grestore
stroke
grestore
} bind def
99.7441 348.833 o
119.904 348.833 o
grestore
gsave
135.744127 343.792500 translate
0.000000 rotate
/Cmmi10 findfont
14.4 scalefont
setfont
0.000000 0.359375 moveto
/lambda glyphshow

/Cmr10 findfont
10.08 scalefont
setfont
8.389847 -2.089525 moveto
/zero glyphshow

/BitstreamVeraSans-Roman findfont
14.4 scalefont
setfont
14.344903 0.359375 moveto
/space glyphshow

18.914300 0.359375 moveto
/f glyphshow

23.975030 0.359375 moveto
/u glyphshow

33.085748 0.359375 moveto
/l glyphshow

37.079583 0.359375 moveto
/l glyphshow


grestore
2.500 setlinewidth
[1 3] 0 setdash
0.000 0.392 0.000 setrgbcolor
gsave
99.744127 327.6325 m
119.904127 327.6325 l
stroke
grestore
0.500 setlinewidth
0 setlinejoin
[] 0 setdash
0.000 setgray
gsave
/o {
gsave
newpath
translate
0.5 setlinewidth
0 setlinejoin
0 setlinecap
-0 -4.242641 m
2.545584 0 l
0 4.242641 l
-2.545584 0 l
cl

gsave
0.000 0.392 0.000 setrgbcolor
fill
grestore
stroke
grestore
} bind def
99.7441 327.632 o
119.904 327.632 o
grestore
gsave
135.744127 322.592500 translate
0.000000 rotate
/Cmmi10 findfont
14.4 scalefont
setfont
0.000000 0.359375 moveto
/lambda glyphshow

/Cmr10 findfont
10.08 scalefont
setfont
8.389847 -2.089525 moveto
/nine glyphshow

/BitstreamVeraSans-Roman findfont
14.4 scalefont
setfont
14.344903 0.359375 moveto
/space glyphshow

18.914300 0.359375 moveto
/f glyphshow

23.975030 0.359375 moveto
/u glyphshow

33.085748 0.359375 moveto
/l glyphshow

37.079583 0.359375 moveto
/l glyphshow


grestore

end
showpage
