%!PS-Adobe-3.0 EPSF-3.0
%%Title: ID1_Anisospec_vs_param_Full_vs_Lin_Vacuum.eps
%%Creator: matplotlib version 1.5.1, http://matplotlib.org/
%%CreationDate: Fri Sep 30 18:09:11 2016
%%Orientation: portrait
%%BoundingBox: 18 180 594 612
%%EndComments
%%BeginProlog
/mpldict 12 dict def
mpldict begin
/m { moveto } bind def
/l { lineto } bind def
/r { rlineto } bind def
/c { curveto } bind def
/cl { closepath } bind def
/box {
m
1 index 0 r
0 exch r
neg 0 r
cl
} bind def
/clipbox {
box
clip
newpath
} bind def
%!PS-Adobe-3.0 Resource-Font
%%Title: cmsy10
%%Copyright: Copyright (C) 1994, Basil K. Malyshev. All Rights Reserved.012BaKoMa Fonts Collection, Level-B.
%%Creator: Converted from TrueType to type 3 by PPR
25 dict begin
/_d{bind def}bind def
/_m{moveto}_d
/_l{lineto}_d
/_cl{closepath eofill}_d
/_c{curveto}_d
/_sc{7 -1 roll{setcachedevice}{pop pop pop pop pop pop}ifelse}_d
/_e{exec}_d
/FontName /Cmsy10 def
/PaintType 0 def
/FontMatrix[.001 0 0 .001 0 0]def
/FontBBox[-29 -960 1123 779]def
/FontType 3 def
/Encoding [ /minus /bar ] def
/FontInfo 10 dict dup begin
/FamilyName (cmsy10) def
/FullName (cmsy10) def
/Notice (Copyright (C) 1994, Basil K. Malyshev. All Rights Reserved.012BaKoMa Fonts Collection, Level-B. ) def
/Weight (Regular) def
/Version (1.1/12-Nov-94) def
/ItalicAngle 0.0 def
/isFixedPitch false def
/UnderlinePosition -133 def
/UnderlineThickness 20 def
end readonly def
/CharStrings 2 dict dup begin
/minus{777 0 83 230 694 270 _sc
102 230 _m
96 230 92 232 88 236 _c
84 240 83 245 83 250 _c
83 254 84 259 88 263 _c
92 267 96 270 102 270 _c
676 270 _l
681 270 685 267 689 263 _c
692 259 694 254 694 250 _c
694 245 692 240 689 236 _c
685 232 681 230 676 230 _c
102 230 _l
_cl}_d
/bar{277 0 119 -249 159 750 _sc
119 -231 _m
119 732 _l
119 737 121 741 125 745 _c
129 748 133 750 139 750 _c
143 750 148 748 152 745 _c
156 741 159 737 159 732 _c
159 -231 _l
159 -236 156 -240 152 -244 _c
148 -247 143 -249 139 -249 _c
133 -249 129 -247 125 -244 _c
121 -240 119 -236 119 -231 _c
_cl}_d
end readonly def

/BuildGlyph
 {exch begin
 CharStrings exch
 2 copy known not{pop /.notdef}if
 true 3 1 roll get exec
 end}_d

/BuildChar {
 1 index /Encoding get exch get
 1 index /BuildGlyph get exec
}_d

FontName currentdict end definefont pop
%!PS-Adobe-3.0 Resource-Font
%%Title: cmmi10
%%Copyright: Copyright (C) 1994, Basil K. Malyshev. All Rights Reserved.012BaKoMa Fonts Collection, Level-B.
%%Creator: Converted from TrueType to type 3 by PPR
25 dict begin
/_d{bind def}bind def
/_m{moveto}_d
/_l{lineto}_d
/_cl{closepath eofill}_d
/_c{curveto}_d
/_sc{7 -1 roll{setcachedevice}{pop pop pop pop pop pop}ifelse}_d
/_e{exec}_d
/FontName /Cmmi10 def
/PaintType 0 def
/FontMatrix[.001 0 0 .001 0 0]def
/FontBBox[-34 -250 1048 750]def
/FontType 3 def
/Encoding [ /lambda /omega /m /R /c ] def
/FontInfo 10 dict dup begin
/FamilyName (cmmi10) def
/FullName (cmmi10) def
/Notice (Copyright (C) 1994, Basil K. Malyshev. All Rights Reserved.012BaKoMa Fonts Collection, Level-B. ) def
/Weight (Regular) def
/Version (1.1/12-Nov-94) def
/ItalicAngle 0.0 def
/isFixedPitch false def
/UnderlinePosition -133 def
/UnderlineThickness 20 def
end readonly def
/CharStrings 5 dict dup begin
/lambda{{583 0 51 -12 550 694 _sc
51 17 _m
51 27 55 36 64 45 _c
345 321 _l
246 599 _l
238 620 229 637 221 649 _c
212 661 200 668 184 668 _c
176 668 173 672 173 681 _c
173 685 175 688 178 690 _c
180 692 184 694 188 694 _c
258 694 300 673 315 632 _c
518 65 _l
526 36 535 17 545 8 _c
548 2 550 0 550 -1 _c
550 -7 547 -10 542 -10 _c
488 -10 _l
471 -5 458 8 448 32 _c
}_e{357 288 _l
115 4 _l
103 -6 92 -12 83 -12 _c
74 -12 66 -9 60 -4 _c
54 1 51 8 51 17 _c
_cl}_e}_d
/omega{{622 0 14 -10 605 443 _sc
121 -10 _m
83 -10 55 3 39 31 _c
22 58 14 92 14 132 _c
14 158 16 183 21 209 _c
25 234 32 260 42 286 _c
52 312 63 336 75 359 _c
87 381 101 403 117 425 _c
120 429 124 431 129 431 _c
133 431 136 429 139 427 _c
141 424 143 421 143 418 _c
143 414 142 411 140 408 _c
79 324 49 247 49 177 _c
49 146 56 120 70 98 _c
}_e{84 76 105 65 135 65 _c
159 65 182 72 204 87 _c
225 101 244 120 260 143 _c
260 155 262 173 266 198 _c
270 222 276 244 285 264 _c
293 283 304 293 316 293 _c
331 293 339 284 339 266 _c
339 255 336 242 332 226 _c
328 210 323 196 318 182 _c
312 168 306 153 298 136 _c
306 88 329 65 369 65 _c
392 65 415 71 439 85 _c
462 98 482 115 500 137 _c
}_e{518 159 532 182 542 207 _c
552 232 558 256 558 279 _c
558 299 554 314 548 326 _c
542 337 533 349 523 361 _c
513 373 508 383 508 391 _c
508 404 513 416 524 427 _c
535 437 547 443 560 443 _c
576 443 587 435 594 420 _c
601 405 605 388 605 370 _c
605 339 598 300 586 254 _c
574 208 560 169 545 138 _c
523 96 496 60 464 32 _c
432 4 395 -10 355 -10 _c
}_e{329 -10 308 -2 292 12 _c
276 27 266 48 262 75 _c
243 49 222 28 198 13 _c
174 -2 149 -10 121 -10 _c
_cl}_e}_d
/m{{878 0 27 -10 851 442 _sc
77 17 _m
77 21 77 24 78 26 _c
153 324 _l
157 342 160 359 160 373 _c
160 401 150 416 131 416 _c
110 416 94 403 84 378 _c
74 353 64 322 55 284 _c
55 282 54 280 52 279 _c
50 278 48 278 47 278 _c
35 278 _l
33 278 31 279 29 281 _c
27 283 27 286 27 288 _c
34 317 41 342 48 362 _c
54 382 65 400 79 417 _c
}_e{93 433 110 442 132 442 _c
156 442 178 434 198 418 _c
217 402 227 382 227 358 _c
247 384 270 404 297 419 _c
323 434 352 442 382 442 _c
413 442 440 434 463 418 _c
486 402 498 379 498 349 _c
518 378 542 401 570 417 _c
597 433 627 442 660 442 _c
694 442 722 432 743 414 _c
764 395 775 368 775 334 _c
775 306 768 273 756 235 _c
744 196 729 153 711 105 _c
}_e{701 81 697 61 697 45 _c
697 25 704 15 720 15 _c
746 15 767 29 785 57 _c
802 85 814 115 822 147 _c
824 151 826 153 830 153 _c
842 153 _l
844 153 846 152 848 150 _c
850 148 851 146 851 144 _c
851 143 850 142 850 141 _c
840 103 824 68 802 37 _c
780 5 752 -10 718 -10 _c
694 -10 674 -2 658 13 _c
641 29 633 48 633 72 _c
633 83 635 96 641 111 _c
}_e{659 161 675 205 688 245 _c
700 284 707 319 707 349 _c
707 367 703 383 696 396 _c
688 409 676 416 658 416 _c
622 416 590 404 563 382 _c
536 360 513 330 494 294 _c
492 287 491 282 491 279 _c
427 22 _l
424 12 419 5 411 -1 _c
403 -7 394 -10 385 -10 _c
377 -10 370 -7 364 -3 _c
358 1 355 8 355 17 _c
355 21 355 24 356 26 _c
420 281 _l
426 308 430 331 430 349 _c
}_e{430 367 426 383 418 396 _c
410 409 398 416 380 416 _c
355 416 332 410 312 400 _c
292 389 274 375 259 357 _c
243 339 229 318 217 294 _c
149 22 _l
147 12 142 5 134 -1 _c
126 -7 117 -10 107 -10 _c
99 -10 92 -7 86 -3 _c
80 1 77 8 77 17 _c
_cl}_e}_d
/R{{759 0 39 -21 755 683 _sc
49 0 _m
42 0 39 4 39 13 _c
39 15 40 18 41 22 _c
41 26 43 29 45 31 _c
47 33 49 35 52 35 _c
92 35 121 37 137 42 _c
145 44 152 53 156 69 _c
293 618 _l
294 624 295 629 295 632 _c
295 639 291 643 283 644 _c
270 646 246 648 211 648 _c
204 648 201 652 201 661 _c
201 663 202 666 203 670 _c
204 674 205 677 207 679 _c
}_e{209 681 211 683 214 683 _c
517 683 _l
541 683 566 680 592 675 _c
618 669 642 661 664 649 _c
686 637 704 621 718 601 _c
732 581 739 558 739 532 _c
739 498 727 468 705 442 _c
683 416 655 394 621 376 _c
587 358 555 346 523 339 _c
549 329 570 314 587 294 _c
603 273 612 249 612 222 _c
612 218 611 216 611 214 _c
611 212 611 210 611 208 _c
603 119 _l
602 106 601 95 601 86 _c
}_e{600 76 600 69 600 64 _c
600 46 602 31 608 20 _c
613 9 624 4 640 4 _c
660 4 679 13 695 33 _c
711 52 721 73 726 96 _c
728 102 732 105 736 105 _c
745 105 _l
751 105 755 100 755 92 _c
750 72 742 54 732 37 _c
721 19 707 5 691 -5 _c
675 -15 657 -21 639 -21 _c
600 -21 567 -12 539 4 _c
511 21 498 48 498 86 _c
498 100 499 112 502 123 _c
524 212 _l
}_e{526 220 528 229 528 240 _c
528 268 518 289 500 305 _c
481 321 457 329 429 329 _c
306 329 _l
240 65 _l
238 59 238 55 238 51 _c
238 44 242 40 250 39 _c
262 36 286 35 322 35 _c
328 35 332 30 332 22 _c
330 12 328 6 327 4 _c
325 1 321 0 315 0 _c
49 0 _l
312 355 _m
423 355 _l
495 355 550 373 587 410 _c
603 427 617 449 627 475 _c
}_e{637 501 642 527 642 553 _c
642 577 634 597 620 611 _c
606 625 588 634 567 640 _c
545 645 522 648 496 648 _c
429 648 _l
411 648 399 646 393 643 _c
387 640 381 630 377 614 _c
312 355 _l
_cl}_e}_d
/c{{432 0 40 -10 430 442 _sc
117 119 _m
117 90 124 65 139 45 _c
154 25 175 15 203 15 _c
243 15 281 24 318 42 _c
354 60 384 86 407 118 _c
409 120 411 121 415 121 _c
418 121 421 119 425 115 _c
428 111 430 108 430 105 _c
430 102 429 100 428 99 _c
404 65 371 38 330 19 _c
288 0 245 -10 201 -10 _c
169 -10 140 -2 116 12 _c
92 26 73 46 60 72 _c
}_e{46 97 40 126 40 158 _c
40 203 52 248 77 292 _c
102 336 135 372 177 400 _c
219 428 263 442 309 442 _c
339 442 366 434 390 420 _c
414 405 426 384 426 356 _c
426 338 420 322 410 309 _c
399 296 385 290 367 290 _c
356 290 347 293 340 300 _c
332 306 329 315 329 326 _c
329 342 334 355 346 366 _c
357 377 370 383 386 383 _c
388 383 _l
380 394 368 402 354 408 _c
}_e{339 413 324 416 308 416 _c
269 416 235 399 206 366 _c
176 332 154 292 139 246 _c
124 200 117 157 117 119 _c
_cl}_e}_d
end readonly def

/BuildGlyph
 {exch begin
 CharStrings exch
 2 copy known not{pop /.notdef}if
 true 3 1 roll get exec
 end}_d

/BuildChar {
 1 index /Encoding get exch get
 1 index /BuildGlyph get exec
}_d

FontName currentdict end definefont pop
%!PS-Adobe-3.0 Resource-Font
%%Title: cmex10
%%Copyright: Copyright (C) 1994, Basil K. Malyshev. All Rights Reserved.012BaKoMa Fonts Collection, Level-B.
%%Creator: Converted from TrueType to type 3 by PPR
25 dict begin
/_d{bind def}bind def
/_m{moveto}_d
/_l{lineto}_d
/_cl{closepath eofill}_d
/_c{curveto}_d
/_sc{7 -1 roll{setcachedevice}{pop pop pop pop pop pop}ifelse}_d
/_e{exec}_d
/FontName /Cmex10 def
/PaintType 0 def
/FontMatrix[.001 0 0 .001 0 0]def
/FontBBox[-24 -2960 1454 772]def
/FontType 3 def
/Encoding [ /bracketleftbig /bracketrightbig ] def
/FontInfo 10 dict dup begin
/FamilyName (cmex10) def
/FullName (cmex10) def
/Notice (Copyright (C) 1994, Basil K. Malyshev. All Rights Reserved.012BaKoMa Fonts Collection, Level-B. ) def
/Weight (Regular) def
/Version (1.1/12-Nov-94) def
/ItalicAngle 0.0 def
/isFixedPitch false def
/UnderlinePosition -133 def
/UnderlineThickness 20 def
end readonly def
/CharStrings 2 dict dup begin
/bracketleftbig{416 0 202 -1158 394 40 _sc
202 -1158 _m
202 40 _l
394 40 _l
394 0 _l
242 0 _l
242 -1118 _l
394 -1118 _l
394 -1158 _l
202 -1158 _l
_cl}_d
/bracketrightbig{416 0 22 -1158 214 40 _sc
22 -1158 _m
22 -1118 _l
174 -1118 _l
174 0 _l
22 0 _l
22 40 _l
214 40 _l
214 -1158 _l
22 -1158 _l
_cl}_d
end readonly def

/BuildGlyph
 {exch begin
 CharStrings exch
 2 copy known not{pop /.notdef}if
 true 3 1 roll get exec
 end}_d

/BuildChar {
 1 index /Encoding get exch get
 1 index /BuildGlyph get exec
}_d

FontName currentdict end definefont pop
%!PS-Adobe-3.0 Resource-Font
%%Title: cmr10
%%Copyright: Copyright (C) 1994, Basil K. Malyshev. All Rights Reserved.012BaKoMa Fonts Collection, Level-B.
%%Creator: Converted from TrueType to type 3 by PPR
25 dict begin
/_d{bind def}bind def
/_m{moveto}_d
/_l{lineto}_d
/_cl{closepath eofill}_d
/_c{curveto}_d
/_sc{7 -1 roll{setcachedevice}{pop pop pop pop pop pop}ifelse}_d
/_e{exec}_d
/FontName /Cmr10 def
/PaintType 0 def
/FontMatrix[.001 0 0 .001 0 0]def
/FontBBox[-44 -250 1009 750]def
/FontType 3 def
/Encoding [ /nine /zero /two /parenright /one /parenleft ] def
/FontInfo 10 dict dup begin
/FamilyName (cmr10) def
/FullName (cmr10) def
/Notice (Copyright (C) 1994, Basil K. Malyshev. All Rights Reserved.012BaKoMa Fonts Collection, Level-B. ) def
/Weight (Regular) def
/Version (1.1/12-Nov-94) def
/ItalicAngle 0.0 def
/isFixedPitch false def
/UnderlinePosition -133 def
/UnderlineThickness 20 def
end readonly def
/CharStrings 6 dict dup begin
/nine{{500 0 42 -21 457 666 _sc
113 42 _m
131 20 162 10 208 10 _c
233 10 257 18 279 36 _c
301 53 318 74 330 99 _c
344 127 353 158 357 190 _c
361 222 363 261 363 309 _c
351 282 335 260 314 243 _c
292 225 268 217 240 217 _c
201 217 166 227 136 248 _c
106 269 82 297 66 331 _c
50 365 42 402 42 441 _c
42 481 51 518 69 553 _c
87 587 113 615 145 635 _c
}_e{177 655 213 666 255 666 _c
295 666 328 655 356 633 _c
383 611 404 582 418 548 _c
432 513 442 476 448 438 _c
454 399 457 361 457 323 _c
457 271 447 219 428 165 _c
409 111 381 67 344 32 _c
306 -3 261 -21 208 -21 _c
168 -21 135 -12 108 6 _c
80 24 67 52 67 90 _c
67 103 71 114 81 124 _c
90 133 101 138 115 138 _c
128 138 139 133 149 124 _c
}_e{158 114 163 103 163 90 _c
163 76 158 65 149 56 _c
139 46 128 42 115 42 _c
113 42 _l
244 243 _m
271 243 293 252 311 270 _c
328 288 341 311 349 339 _c
357 366 361 393 361 421 _c
361 440 _l
361 444 _l
361 494 353 538 339 578 _c
324 617 296 637 255 637 _c
228 637 206 631 190 620 _c
174 608 162 593 154 574 _c
146 554 141 534 139 512 _c
137 490 136 466 136 441 _c
}_e{136 403 137 370 141 344 _c
145 317 155 293 171 273 _c
187 253 211 243 244 243 _c
_cl}_e}_d
/zero{{500 0 39 -21 460 666 _sc
250 -21 _m
168 -21 112 12 83 79 _c
53 146 39 226 39 319 _c
39 377 44 431 55 482 _c
65 533 86 576 118 612 _c
149 648 193 666 250 666 _c
294 666 330 655 358 634 _c
386 612 407 585 422 551 _c
436 517 446 480 452 441 _c
457 402 460 361 460 319 _c
460 261 454 208 444 158 _c
433 108 412 65 381 31 _c
350 -3 306 -21 250 -21 _c
250 4 _m
}_e{287 4 315 23 333 61 _c
351 99 362 141 366 187 _c
370 233 373 283 373 335 _c
373 385 370 431 366 473 _c
362 515 351 554 333 588 _c
315 622 287 640 250 640 _c
212 640 184 622 166 588 _c
148 554 136 515 132 473 _c
128 431 126 385 126 335 _c
126 297 126 262 128 230 _c
130 197 135 163 143 128 _c
151 93 163 64 181 40 _c
198 16 221 4 250 4 _c
_cl}_e}_d
/two{{500 0 50 0 449 666 _sc
50 0 _m
50 27 _l
50 28 50 30 52 32 _c
207 204 _l
230 229 249 250 264 268 _c
278 285 293 305 307 327 _c
321 349 333 372 341 396 _c
349 419 354 444 354 470 _c
354 497 349 523 339 548 _c
329 573 314 593 294 608 _c
274 623 249 631 221 631 _c
192 631 166 622 143 605 _c
119 587 103 565 94 537 _c
96 537 100 538 105 538 _c
}_e{119 538 132 533 143 523 _c
153 513 159 500 159 484 _c
159 468 153 455 143 445 _c
132 434 119 429 105 429 _c
89 429 76 434 66 445 _c
55 456 50 469 50 484 _c
50 508 54 532 64 554 _c
73 576 86 595 104 613 _c
122 630 142 643 164 652 _c
186 661 210 666 236 666 _c
274 666 309 658 342 642 _c
375 626 401 603 420 573 _c
439 543 449 509 449 470 _c
}_e{449 441 442 414 430 388 _c
417 362 401 338 381 317 _c
361 295 336 271 305 244 _c
274 217 254 199 244 190 _c
131 81 _l
227 81 _l
274 81 313 81 345 82 _c
377 82 394 84 396 86 _c
404 94 412 125 420 178 _c
449 178 _l
421 0 _l
50 0 _l
_cl}_e}_d
/parenright{{388 0 56 -249 291 750 _sc
65 -249 _m
59 -249 56 -246 56 -240 _c
56 -237 56 -235 58 -234 _c
172 -122 229 38 229 250 _c
229 462 172 623 60 733 _c
57 734 56 737 56 741 _c
56 743 57 745 59 747 _c
61 749 63 750 65 750 _c
74 750 _l
76 750 77 749 79 748 _c
127 710 167 664 199 610 _c
231 556 254 498 269 437 _c
283 376 291 314 291 250 _c
291 202 287 156 279 110 _c
}_e{271 64 258 20 241 -24 _c
223 -68 201 -108 175 -146 _c
148 -184 116 -217 79 -247 _c
77 -248 76 -249 74 -249 _c
65 -249 _l
_cl}_e}_d
/one{500 0 87 0 421 666 _sc
93 0 _m
93 35 _l
176 35 218 45 218 67 _c
218 592 _l
183 575 139 567 87 567 _c
87 602 _l
168 602 230 623 272 666 _c
286 666 _l
288 666 291 665 293 663 _c
295 661 296 659 296 657 _c
296 67 _l
296 45 337 35 421 35 _c
421 0 _l
93 0 _l
_cl}_d
/parenleft{{388 0 97 -249 332 750 _sc
310 -247 _m
272 -217 240 -184 214 -146 _c
187 -108 165 -67 148 -25 _c
131 17 118 62 110 109 _c
101 155 97 202 97 250 _c
97 298 101 345 110 392 _c
118 438 131 483 149 527 _c
166 570 188 611 215 649 _c
242 687 274 720 310 748 _c
310 749 311 750 315 750 _c
324 750 _l
326 750 327 749 329 747 _c
331 745 332 743 332 741 _c
332 738 331 736 330 735 _c
}_e{297 703 270 668 248 632 _c
226 596 209 557 196 516 _c
183 474 174 432 168 388 _c
162 344 159 298 159 250 _c
159 38 215 -122 329 -232 _c
331 -234 332 -236 332 -240 _c
332 -242 331 -244 329 -246 _c
327 -248 326 -249 324 -249 _c
315 -249 _l
311 -249 310 -248 310 -247 _c
_cl}_e}_d
end readonly def

/BuildGlyph
 {exch begin
 CharStrings exch
 2 copy known not{pop /.notdef}if
 true 3 1 roll get exec
 end}_d

/BuildChar {
 1 index /Encoding get exch get
 1 index /BuildGlyph get exec
}_d

FontName currentdict end definefont pop
%!PS-Adobe-3.0 Resource-Font
%%Title: Bitstream Vera Sans
%%Copyright: Copyright (c) 2003 by Bitstream, Inc. All Rights Reserved.
%%Creator: Converted from TrueType to type 3 by PPR
25 dict begin
/_d{bind def}bind def
/_m{moveto}_d
/_l{lineto}_d
/_cl{closepath eofill}_d
/_c{curveto}_d
/_sc{7 -1 roll{setcachedevice}{pop pop pop pop pop pop}ifelse}_d
/_e{exec}_d
/FontName /BitstreamVeraSans-Roman def
/PaintType 0 def
/FontMatrix[.001 0 0 .001 0 0]def
/FontBBox[-183 -236 1287 928]def
/FontType 3 def
/Encoding [ /space /hyphen /zero /one /two /three /four /five /six /eight /a /e /f /i /l /n /r /u ] def
/FontInfo 10 dict dup begin
/FamilyName (Bitstream Vera Sans) def
/FullName (Bitstream Vera Sans) def
/Notice (Copyright (c) 2003 by Bitstream, Inc. All Rights Reserved. Bitstream Vera is a trademark of Bitstream, Inc.) def
/Weight (Roman) def
/Version (Release 1.10) def
/ItalicAngle 0.0 def
/isFixedPitch false def
/UnderlinePosition -213 def
/UnderlineThickness 143 def
end readonly def
/CharStrings 18 dict dup begin
/space{318 0 0 0 0 0 _sc
}_d
/hyphen{361 0 49 234 312 314 _sc
49 314 _m
312 314 _l
312 234 _l
49 234 _l
49 314 _l
_cl}_d
/zero{636 0 66 -13 570 742 _sc
318 664 _m
267 664 229 639 203 589 _c
177 539 165 464 165 364 _c
165 264 177 189 203 139 _c
229 89 267 64 318 64 _c
369 64 407 89 433 139 _c
458 189 471 264 471 364 _c
471 464 458 539 433 589 _c
407 639 369 664 318 664 _c
318 742 _m
399 742 461 709 505 645 _c
548 580 570 486 570 364 _c
570 241 548 147 505 83 _c
461 19 399 -13 318 -13 _c
236 -13 173 19 130 83 _c
87 147 66 241 66 364 _c
66 486 87 580 130 645 _c
173 709 236 742 318 742 _c
_cl}_d
/one{636 0 110 0 544 729 _sc
124 83 _m
285 83 _l
285 639 _l
110 604 _l
110 694 _l
284 729 _l
383 729 _l
383 83 _l
544 83 _l
544 0 _l
124 0 _l
124 83 _l
_cl}_d
/two{{636 0 73 0 536 742 _sc
192 83 _m
536 83 _l
536 0 _l
73 0 _l
73 83 _l
110 121 161 173 226 239 _c
290 304 331 346 348 365 _c
380 400 402 430 414 455 _c
426 479 433 504 433 528 _c
433 566 419 598 392 622 _c
365 646 330 659 286 659 _c
255 659 222 653 188 643 _c
154 632 117 616 78 594 _c
78 694 _l
118 710 155 722 189 730 _c
223 738 255 742 284 742 _c
}_e{359 742 419 723 464 685 _c
509 647 532 597 532 534 _c
532 504 526 475 515 449 _c
504 422 484 390 454 354 _c
446 344 420 317 376 272 _c
332 227 271 164 192 83 _c
_cl}_e}_d
/three{{636 0 76 -13 556 742 _sc
406 393 _m
453 383 490 362 516 330 _c
542 298 556 258 556 212 _c
556 140 531 84 482 45 _c
432 6 362 -13 271 -13 _c
240 -13 208 -10 176 -4 _c
144 1 110 10 76 22 _c
76 117 _l
103 101 133 89 166 81 _c
198 73 232 69 268 69 _c
330 69 377 81 409 105 _c
441 129 458 165 458 212 _c
458 254 443 288 413 312 _c
383 336 341 349 287 349 _c
}_e{202 349 _l
202 430 _l
291 430 _l
339 430 376 439 402 459 _c
428 478 441 506 441 543 _c
441 580 427 609 401 629 _c
374 649 336 659 287 659 _c
260 659 231 656 200 650 _c
169 644 135 635 98 623 _c
98 711 _l
135 721 170 729 203 734 _c
235 739 266 742 296 742 _c
370 742 429 725 473 691 _c
517 657 539 611 539 553 _c
539 513 527 479 504 451 _c
481 423 448 403 406 393 _c
_cl}_e}_d
/four{636 0 49 0 580 729 _sc
378 643 _m
129 254 _l
378 254 _l
378 643 _l
352 729 _m
476 729 _l
476 254 _l
580 254 _l
580 172 _l
476 172 _l
476 0 _l
378 0 _l
378 172 _l
49 172 _l
49 267 _l
352 729 _l
_cl}_d
/five{{636 0 77 -13 549 729 _sc
108 729 _m
495 729 _l
495 646 _l
198 646 _l
198 467 _l
212 472 227 476 241 478 _c
255 480 270 482 284 482 _c
365 482 429 459 477 415 _c
525 370 549 310 549 234 _c
549 155 524 94 475 51 _c
426 8 357 -13 269 -13 _c
238 -13 207 -10 175 -6 _c
143 -1 111 6 77 17 _c
77 116 _l
106 100 136 88 168 80 _c
199 72 232 69 267 69 _c
}_e{323 69 368 83 401 113 _c
433 143 450 183 450 234 _c
450 284 433 324 401 354 _c
368 384 323 399 267 399 _c
241 399 214 396 188 390 _c
162 384 135 375 108 363 _c
108 729 _l
_cl}_e}_d
/six{{636 0 70 -13 573 742 _sc
330 404 _m
286 404 251 388 225 358 _c
199 328 186 286 186 234 _c
186 181 199 139 225 109 _c
251 79 286 64 330 64 _c
374 64 409 79 435 109 _c
461 139 474 181 474 234 _c
474 286 461 328 435 358 _c
409 388 374 404 330 404 _c
526 713 _m
526 623 _l
501 635 476 644 451 650 _c
425 656 400 659 376 659 _c
310 659 260 637 226 593 _c
}_e{192 549 172 482 168 394 _c
187 422 211 444 240 459 _c
269 474 301 482 336 482 _c
409 482 467 459 509 415 _c
551 371 573 310 573 234 _c
573 159 550 99 506 54 _c
462 9 403 -13 330 -13 _c
246 -13 181 19 137 83 _c
92 147 70 241 70 364 _c
70 479 97 571 152 639 _c
206 707 280 742 372 742 _c
396 742 421 739 447 735 _c
472 730 498 723 526 713 _c
_cl}_e}_d
/eight{{636 0 68 -13 568 742 _sc
318 346 _m
271 346 234 333 207 308 _c
180 283 167 249 167 205 _c
167 161 180 126 207 101 _c
234 76 271 64 318 64 _c
364 64 401 76 428 102 _c
455 127 469 161 469 205 _c
469 249 455 283 429 308 _c
402 333 365 346 318 346 _c
219 388 _m
177 398 144 418 120 447 _c
96 476 85 511 85 553 _c
85 611 105 657 147 691 _c
188 725 245 742 318 742 _c
}_e{390 742 447 725 489 691 _c
530 657 551 611 551 553 _c
551 511 539 476 515 447 _c
491 418 459 398 417 388 _c
464 377 501 355 528 323 _c
554 291 568 251 568 205 _c
568 134 546 80 503 43 _c
459 5 398 -13 318 -13 _c
237 -13 175 5 132 43 _c
89 80 68 134 68 205 _c
68 251 81 291 108 323 _c
134 355 171 377 219 388 _c
183 544 _m
183 506 194 476 218 455 _c
}_e{242 434 275 424 318 424 _c
360 424 393 434 417 455 _c
441 476 453 506 453 544 _c
453 582 441 611 417 632 _c
393 653 360 664 318 664 _c
275 664 242 653 218 632 _c
194 611 183 582 183 544 _c
_cl}_e}_d
/a{{613 0 60 -13 522 560 _sc
343 275 _m
270 275 220 266 192 250 _c
164 233 150 205 150 165 _c
150 133 160 107 181 89 _c
202 70 231 61 267 61 _c
317 61 357 78 387 114 _c
417 149 432 196 432 255 _c
432 275 _l
343 275 _l
522 312 _m
522 0 _l
432 0 _l
432 83 _l
411 49 385 25 355 10 _c
325 -5 287 -13 243 -13 _c
187 -13 142 2 109 33 _c
76 64 60 106 60 159 _c
}_e{60 220 80 266 122 298 _c
163 329 224 345 306 345 _c
432 345 _l
432 354 _l
432 395 418 427 391 450 _c
364 472 326 484 277 484 _c
245 484 215 480 185 472 _c
155 464 127 453 100 439 _c
100 522 _l
132 534 164 544 195 550 _c
226 556 256 560 286 560 _c
365 560 424 539 463 498 _c
502 457 522 395 522 312 _c
_cl}_e}_d
/e{{615 0 55 -13 562 560 _sc
562 296 _m
562 252 _l
149 252 _l
153 190 171 142 205 110 _c
238 78 284 62 344 62 _c
378 62 412 66 444 74 _c
476 82 509 95 541 113 _c
541 28 _l
509 14 476 3 442 -3 _c
408 -9 373 -13 339 -13 _c
251 -13 182 12 131 62 _c
80 112 55 181 55 268 _c
55 357 79 428 127 481 _c
175 533 241 560 323 560 _c
397 560 455 536 498 489 _c
}_e{540 441 562 377 562 296 _c
472 322 _m
471 371 457 410 431 440 _c
404 469 368 484 324 484 _c
274 484 234 469 204 441 _c
174 413 156 373 152 322 _c
472 322 _l
_cl}_e}_d
/f{352 0 23 0 371 760 _sc
371 760 _m
371 685 _l
285 685 _l
253 685 230 678 218 665 _c
205 652 199 629 199 595 _c
199 547 _l
347 547 _l
347 477 _l
199 477 _l
199 0 _l
109 0 _l
109 477 _l
23 477 _l
23 547 _l
109 547 _l
109 585 _l
109 645 123 690 151 718 _c
179 746 224 760 286 760 _c
371 760 _l
_cl}_d
/i{278 0 94 0 184 760 _sc
94 547 _m
184 547 _l
184 0 _l
94 0 _l
94 547 _l
94 760 _m
184 760 _l
184 646 _l
94 646 _l
94 760 _l
_cl}_d
/l{278 0 94 0 184 760 _sc
94 760 _m
184 760 _l
184 0 _l
94 0 _l
94 760 _l
_cl}_d
/n{634 0 91 0 549 560 _sc
549 330 _m
549 0 _l
459 0 _l
459 327 _l
459 379 448 417 428 443 _c
408 469 378 482 338 482 _c
289 482 251 466 223 435 _c
195 404 181 362 181 309 _c
181 0 _l
91 0 _l
91 547 _l
181 547 _l
181 462 _l
202 494 227 519 257 535 _c
286 551 320 560 358 560 _c
420 560 468 540 500 501 _c
532 462 549 405 549 330 _c
_cl}_d
/r{411 0 91 0 411 560 _sc
411 463 _m
401 469 390 473 378 476 _c
366 478 353 480 339 480 _c
288 480 249 463 222 430 _c
194 397 181 350 181 288 _c
181 0 _l
91 0 _l
91 547 _l
181 547 _l
181 462 _l
199 495 224 520 254 536 _c
284 552 321 560 365 560 _c
371 560 378 559 386 559 _c
393 558 401 557 411 555 _c
411 463 _l
_cl}_d
/u{634 0 85 -13 543 547 _sc
85 216 _m
85 547 _l
175 547 _l
175 219 _l
175 167 185 129 205 103 _c
225 77 255 64 296 64 _c
344 64 383 79 411 110 _c
439 141 453 183 453 237 _c
453 547 _l
543 547 _l
543 0 _l
453 0 _l
453 84 _l
431 50 405 26 377 10 _c
348 -5 315 -13 277 -13 _c
214 -13 166 6 134 45 _c
101 83 85 140 85 216 _c
_cl}_d
end readonly def

/BuildGlyph
 {exch begin
 CharStrings exch
 2 copy known not{pop /.notdef}if
 true 3 1 roll get exec
 end}_d

/BuildChar {
 1 index /Encoding get exch get
 1 index /BuildGlyph get exec
}_d

FontName currentdict end definefont pop
end
%%EndProlog
mpldict begin
18 180 translate
576 432 0 0 clipbox
100000 setmiterlimit
gsave
0 0 m
576 0 l
576 432 l
0 432 l
cl
1.000 setgray
fill
grestore
gsave
82.464127 68.933491 m
563.04 68.933491 l
563.04 419.04 l
82.464127 419.04 l
cl
1.000 setgray
fill
grestore
1.500 setlinewidth
0 setlinejoin
0 setlinecap
[] 0 setdash
0.000 setgray
gsave
480.6 350.1 82.46 68.93 clipbox
318.3317 208.976095 m
386.985397 208.976095 l
386.985397 255.656963 l
318.3317 208.976095 l
cl
stroke
grestore
1.000 setlinewidth
gsave
480.6 350.1 82.46 68.93 clipbox
503.625967 68.933491 m
503.625967 419.04 l
563.04 419.04 l
563.04 68.933491 l
cl
  << /PatternType 1
     /PaintType 2
     /TilingType 2
     /BBox[0 0 72 72]
     /XStep 72
     /YStep 72

     /PaintProc {
        pop
        0 setlinewidth
-36 36 m
36 108 l
-24 24 m
48 96 l
-12 12 m
60 84 l
0 0 m
72 72 l
12 -12 m
84 60 l
24 -24 m
96 48 l
36 -36 m
108 36 l
-36 36 m
36 -36 l
-24 48 m
48 -24 l
-12 60 m
60 -12 l
0 72 m
72 0 l
12 84 m
84 12 l
24 96 m
96 24 l
36 108 m
108 36 l
          stroke
     } bind
   >>
   matrix
   makepattern
   /H0 exch def
gsave
[/Pattern [/DeviceRGB]] setcolorspace 0.000000 0.000000 0.000000 H0 setcolor fill grestore
stroke
grestore
2.500 setlinewidth
1 setlinejoin
2 setlinecap
0.545 0.000 0.000 setrgbcolor
gsave
480.6 350.1 82.46 68.93 clipbox
82.464127 181.25821 m
87.318463 181.258058 l
92.172737 181.25821 l
97.027017 181.257746 l
101.88133 181.257898 l
106.735639 181.257586 l
111.589925 181.257281 l
116.444247 181.256803 l
121.298434 181.256186 l
126.15288 181.255555 l
131.007117 181.254466 l
135.8614 181.253058 l
140.715738 181.250873 l
145.570017 181.248062 l
150.424352 181.243995 l
155.278644 181.238676 l
160.13293 181.231011 l
164.987267 181.220516 l
169.841546 181.205941 l
174.69585 181.185984 l
179.550152 181.157959 l
184.404475 181.118941 l
189.258652 181.06483 l
194.113 180.989121 l
198.967427 180.883729 l
203.821734 180.735735 l
208.67592 180.527151 l
213.530243 180.230906 l
218.384624 179.805938 l
223.238859 179.186551 l
228.093153 178.260944 l
232.947491 176.820635 l
237.801756 174.413529 l
242.656066 169.710186 l
247.510373 152.457845 l
252.364682 169.191328 l
257.21906 179.072335 l
262.073202 185.375801 l
266.927584 190.398388 l
271.78189 194.782482 l
276.636268 198.799262 l
281.490515 202.58721 l
286.3448 206.225714 l
291.199135 209.763557 l
296.053411 213.232047 l
300.907684 216.652199 l
305.762015 220.038302 l
310.616297 223.400194 l
315.470614 226.744859 l
320.324915 230.077171 l
325.179191 233.40061 l
330.033635 236.717801 l
334.887754 240.030188 l
339.742065 243.339407 l
344.596426 246.646282 l
349.45071 249.95139 l
354.305044 253.255296 l
359.159311 256.558267 l
364.013623 259.860626 l
368.867898 263.162499 l
373.722259 266.464101 l
378.576548 269.76542 l
383.430816 273.066561 l
388.285145 276.367634 l
393.139415 279.668598 l
397.993695 282.969533 l
402.848114 286.270559 l
407.702286 289.571442 l
412.556616 292.87249 l
417.410948 296.173635 l
422.265302 299.474941 l
427.119577 302.776403 l
431.973851 306.07816 l
436.82818 309.380368 l
441.682468 312.683126 l
446.536763 315.986686 l
451.391067 319.291359 l
456.245368 322.597557 l
461.099671 325.905863 l
465.954002 329.217088 l
470.808189 332.532197 l
475.662573 335.852888 l
480.516911 339.180963 l
485.371218 342.51904 l
490.225508 345.870508 l
495.079746 349.23958 l
499.934072 352.631367 l
504.788362 356.051058 l
509.642671 359.502761 l
514.496973 362.98575 l
519.351288 366.486485 l
524.205569 369.959959 l
529.059883 373.276964 l
533.91417 375.905111 l
538.768571 373.21737 l
543.622746 344.971099 l
548.477059 369.289553 l
553.331359 374.268776 l
558.185695 375.624265 l
563.04 375.370476 l
stroke
grestore
0.500 setlinewidth
0 setlinecap
0.000 setgray
gsave
480.6 350.1 82.46 68.93 clipbox
/o {
gsave
newpath
translate
0.5 setlinewidth
1 setlinejoin
0 setlinecap
0 -3 m
0.795609 -3 1.55874 -2.683901 2.12132 -2.12132 c
2.683901 -1.55874 3 -0.795609 3 0 c
3 0.795609 2.683901 1.55874 2.12132 2.12132 c
1.55874 2.683901 0.795609 3 0 3 c
-0.795609 3 -1.55874 2.683901 -2.12132 2.12132 c
-2.683901 1.55874 -3 0.795609 -3 0 c
-3 -0.795609 -2.683901 -1.55874 -2.12132 -2.12132 c
-1.55874 -2.683901 -0.795609 -3 0 -3 c
cl

gsave
0.545 0.000 0.000 setrgbcolor
fill
grestore
stroke
grestore
} bind def
82.4641 181.258 o
87.3185 181.258 o
92.1727 181.258 o
97.027 181.258 o
101.881 181.258 o
106.736 181.258 o
111.59 181.257 o
116.444 181.257 o
121.298 181.256 o
126.153 181.256 o
131.007 181.254 o
135.861 181.253 o
140.716 181.251 o
145.57 181.248 o
150.424 181.244 o
155.279 181.239 o
160.133 181.231 o
164.987 181.221 o
169.842 181.206 o
174.696 181.186 o
179.55 181.158 o
184.404 181.119 o
189.259 181.065 o
194.113 180.989 o
198.967 180.884 o
203.822 180.736 o
208.676 180.527 o
213.53 180.231 o
218.385 179.806 o
223.239 179.187 o
228.093 178.261 o
232.947 176.821 o
237.802 174.414 o
242.656 169.71 o
247.51 152.458 o
252.365 169.191 o
257.219 179.072 o
262.073 185.376 o
266.928 190.398 o
271.782 194.782 o
276.636 198.799 o
281.491 202.587 o
286.345 206.226 o
291.199 209.764 o
296.053 213.232 o
300.908 216.652 o
305.762 220.038 o
310.616 223.4 o
315.471 226.745 o
320.325 230.077 o
325.179 233.401 o
330.034 236.718 o
334.888 240.03 o
339.742 243.339 o
344.596 246.646 o
349.451 249.951 o
354.305 253.255 o
359.159 256.558 o
364.014 259.861 o
368.868 263.162 o
373.722 266.464 o
378.577 269.765 o
383.431 273.067 o
388.285 276.368 o
393.139 279.669 o
397.994 282.97 o
402.848 286.271 o
407.702 289.571 o
412.557 292.872 o
417.411 296.174 o
422.265 299.475 o
427.12 302.776 o
431.974 306.078 o
436.828 309.38 o
441.682 312.683 o
446.537 315.987 o
451.391 319.291 o
456.245 322.598 o
461.1 325.906 o
465.954 329.217 o
470.808 332.532 o
475.663 335.853 o
480.517 339.181 o
485.371 342.519 o
490.226 345.871 o
495.08 349.24 o
499.934 352.631 o
504.788 356.051 o
509.643 359.503 o
514.497 362.986 o
519.351 366.486 o
524.206 369.96 o
529.06 373.277 o
533.914 375.905 o
538.769 373.217 o
543.623 344.971 o
548.477 369.29 o
553.331 374.269 o
558.186 375.624 o
563.04 375.37 o
grestore
2.500 setlinewidth
2 setlinecap
0.545 0.000 0.000 setrgbcolor
gsave
480.6 350.1 82.46 68.93 clipbox
82.464127 110.413179 m
87.318463 108.607078 l
92.172737 110.443214 l
97.027017 110.443214 l
101.88133 108.607078 l
106.735639 108.607078 l
111.589925 108.571069 l
116.444247 108.607078 l
121.298434 108.607078 l
126.15288 108.571069 l
131.007117 106.363113 l
135.8614 106.318161 l
140.715738 99.336942 l
150.424352 92.220668 m
155.278644 103.417043 l
160.13293 113.366833 l
164.987267 118.276132 l
169.841546 123.133426 l
174.69585 127.08792 l
179.550152 130.859523 l
184.404475 134.587626 l
189.258652 138.111269 l
194.113 141.69107 l
198.967427 145.080531 l
203.821734 148.482926 l
208.67592 151.854655 l
213.530243 155.167171 l
218.384624 158.504482 l
223.238859 161.82855 l
228.093153 165.155424 l
232.947491 168.45956 l
237.801756 171.776052 l
242.656066 175.083416 l
247.510373 178.388135 l
252.364682 181.691998 l
257.21906 184.994422 l
262.073202 188.297489 l
266.927584 191.598903 l
271.78189 194.900615 l
276.636268 198.202688 l
281.490515 201.503555 l
286.3448 204.804484 l
291.199135 208.105404 l
296.053411 211.4061 l
300.907684 214.7071 l
305.762015 218.007924 l
310.616297 221.308696 l
315.470614 224.609413 l
320.324915 227.910141 l
325.179191 231.210852 l
330.033635 234.511686 l
334.887754 237.812332 l
339.742065 241.113134 l
344.596426 244.414005 l
349.45071 247.714882 l
354.305044 251.015882 l
359.159311 254.316967 l
364.013623 257.618214 l
368.867898 260.919677 l
373.722259 264.221514 l
378.576548 267.523727 l
383.430816 270.826528 l
388.285145 274.130202 l
393.139415 277.434986 l
397.993695 280.741375 l
402.848114 284.050056 l
407.702286 287.361633 l
412.556616 290.677562 l
417.410948 293.999371 l
422.265302 297.329352 l
427.119577 300.670599 l
431.973851 304.027566 l
436.82818 307.406416 l
441.682468 310.815619 l
446.536763 314.267095 l
451.391067 317.77738 l
456.245368 321.369332 l
461.099671 325.074213 l
465.954002 328.933825 l
470.808189 333.001707 l
475.662573 337.342769 l
480.516911 342.026916 l
485.371218 347.118618 l
490.225508 352.662044 l
495.079746 358.668389 l
499.934072 365.106184 l
504.788362 371.867381 l
509.642671 378.626288 l
514.496973 384.485042 l
519.351288 387.539601 l
524.205569 385.935639 l
529.059883 378.880508 l
533.91417 369.123795 l
538.768571 373.748495 l
543.622746 379.973441 l
548.477059 382.771968 l
553.331359 383.008997 l
558.185695 381.677817 l
563.04 377.746534 l
stroke
grestore
0.500 setlinewidth
0 setlinejoin
0 setlinecap
0.000 setgray
gsave
480.6 350.1 82.46 68.93 clipbox
/o {
gsave
newpath
translate
0.5 setlinewidth
0 setlinejoin
0 setlinecap
-0 -4.242641 m
2.545584 0 l
0 4.242641 l
-2.545584 0 l
cl

gsave
0.545 0.000 0.000 setrgbcolor
fill
grestore
stroke
grestore
} bind def
82.4641 110.413 o
87.3185 108.607 o
92.1727 110.443 o
97.027 110.443 o
101.881 108.607 o
106.736 108.607 o
111.59 108.571 o
116.444 108.607 o
121.298 108.607 o
126.153 108.571 o
131.007 106.363 o
135.861 106.318 o
140.716 99.3369 o
150.424 92.2207 o
155.279 103.417 o
160.133 113.367 o
164.987 118.276 o
169.842 123.133 o
174.696 127.088 o
179.55 130.86 o
184.404 134.588 o
189.259 138.111 o
194.113 141.691 o
198.967 145.081 o
203.822 148.483 o
208.676 151.855 o
213.53 155.167 o
218.385 158.504 o
223.239 161.829 o
228.093 165.155 o
232.947 168.46 o
237.802 171.776 o
242.656 175.083 o
247.51 178.388 o
252.365 181.692 o
257.219 184.994 o
262.073 188.297 o
266.928 191.599 o
271.782 194.901 o
276.636 198.203 o
281.491 201.504 o
286.345 204.804 o
291.199 208.105 o
296.053 211.406 o
300.908 214.707 o
305.762 218.008 o
310.616 221.309 o
315.471 224.609 o
320.325 227.91 o
325.179 231.211 o
330.034 234.512 o
334.888 237.812 o
339.742 241.113 o
344.596 244.414 o
349.451 247.715 o
354.305 251.016 o
359.159 254.317 o
364.014 257.618 o
368.868 260.92 o
373.722 264.222 o
378.577 267.524 o
383.431 270.827 o
388.285 274.13 o
393.139 277.435 o
397.994 280.741 o
402.848 284.05 o
407.702 287.362 o
412.557 290.678 o
417.411 293.999 o
422.265 297.329 o
427.12 300.671 o
431.974 304.028 o
436.828 307.406 o
441.682 310.816 o
446.537 314.267 o
451.391 317.777 o
456.245 321.369 o
461.1 325.074 o
465.954 328.934 o
470.808 333.002 o
475.663 337.343 o
480.517 342.027 o
485.371 347.119 o
490.226 352.662 o
495.08 358.668 o
499.934 365.106 o
504.788 371.867 o
509.643 378.626 o
514.497 384.485 o
519.351 387.54 o
524.206 385.936 o
529.06 378.881 o
533.914 369.124 o
538.769 373.748 o
543.623 379.973 o
548.477 382.772 o
553.331 383.009 o
558.186 381.678 o
563.04 377.747 o
grestore
2.500 setlinewidth
1 setlinejoin
[1 3] 0 setdash
0.000 0.392 0.000 setrgbcolor
gsave
480.6 350.1 82.46 68.93 clipbox
82.464127 181.20201 m
87.318463 181.205467 l
92.172737 181.20217 l
97.027017 181.206408 l
101.88133 181.21017 l
106.735639 181.208289 l
111.589925 181.20578 l
116.444247 181.205467 l
121.298434 181.203425 l
126.15288 181.199186 l
131.007117 181.19777 l
135.8614 181.193054 l
140.715738 181.189446 l
145.570017 181.192587 l
150.424352 181.173401 l
155.278644 181.171352 l
160.13293 181.165365 l
164.987267 181.153863 l
169.841546 181.130019 l
174.69585 181.098185 l
179.550152 181.067854 l
184.404475 181.016501 l
189.258652 180.941717 l
194.113 180.838429 l
198.967427 180.69026 l
203.821734 180.487814 l
208.67592 180.205825 l
213.530243 179.797285 l
218.384624 179.200141 l
223.238859 178.315142 l
228.093153 176.93535 l
232.947491 174.657148 l
237.801756 170.294435 l
242.656066 156.559849 l
247.510373 167.682343 l
252.364682 178.292799 l
257.21906 184.788692 l
262.073202 189.893362 l
266.927584 194.325062 l
271.78189 198.370468 l
276.636268 202.176481 l
281.490515 205.827328 l
286.3448 209.373222 l
291.199135 212.846658 l
296.053411 216.271022 l
300.907684 219.659714 l
305.762015 223.023709 l
310.616297 226.370016 l
315.470614 229.703136 l
320.324915 233.027328 l
325.179191 236.344924 l
330.033635 239.6579 l
334.887754 242.967275 l
339.742065 246.274308 l
344.596426 249.579603 l
349.45071 252.883581 l
354.305044 256.186672 l
359.159311 259.489061 l
364.013623 262.791001 l
368.867898 266.092573 l
373.722259 269.393965 l
378.576548 272.69514 l
383.430816 275.996188 l
388.285145 279.297211 l
393.139415 282.598159 l
397.993695 285.899112 l
402.848114 289.200192 l
407.702286 292.501171 l
412.556616 295.802367 l
417.410948 299.103728 l
422.265302 302.40534 l
427.119577 305.707232 l
431.973851 309.009588 l
436.82818 312.312628 l
441.682468 315.616538 l
446.536763 318.921693 l
451.391067 322.228569 l
456.245368 325.537808 l
461.099671 328.850305 l
465.954002 332.167293 l
470.808189 335.490301 l
475.662573 338.82177 l
480.516911 342.16445 l
485.371218 345.522098 l
490.225508 348.899318 l
495.079746 352.301172 l
499.934072 355.731956 l
504.788362 359.190487 l
509.642671 362.6562 l
514.496973 366.031889 l
519.351288 368.698468 l
524.205569 401.075653 l
529.059883 324.134171 l
533.91417 348.196655 l
538.768571 320.666516 l
543.622746 318.693799 l
548.477059 340.529515 l
553.331359 348.566495 l
558.185695 364.472734 l
563.04 331.643289 l
stroke
grestore
0.500 setlinewidth
[] 0 setdash
0.000 setgray
gsave
480.6 350.1 82.46 68.93 clipbox
/o {
gsave
newpath
translate
0.5 setlinewidth
1 setlinejoin
0 setlinecap
0 -3 m
0.795609 -3 1.55874 -2.683901 2.12132 -2.12132 c
2.683901 -1.55874 3 -0.795609 3 0 c
3 0.795609 2.683901 1.55874 2.12132 2.12132 c
1.55874 2.683901 0.795609 3 0 3 c
-0.795609 3 -1.55874 2.683901 -2.12132 2.12132 c
-2.683901 1.55874 -3 0.795609 -3 0 c
-3 -0.795609 -2.683901 -1.55874 -2.12132 -2.12132 c
-1.55874 -2.683901 -0.795609 -3 0 -3 c
cl

gsave
0.000 0.392 0.000 setrgbcolor
fill
grestore
stroke
grestore
} bind def
82.4641 181.202 o
87.3185 181.205 o
92.1727 181.202 o
97.027 181.206 o
101.881 181.21 o
106.736 181.208 o
111.59 181.206 o
116.444 181.205 o
121.298 181.203 o
126.153 181.199 o
131.007 181.198 o
135.861 181.193 o
140.716 181.189 o
145.57 181.193 o
150.424 181.173 o
155.279 181.171 o
160.133 181.165 o
164.987 181.154 o
169.842 181.13 o
174.696 181.098 o
179.55 181.068 o
184.404 181.017 o
189.259 180.942 o
194.113 180.838 o
198.967 180.69 o
203.822 180.488 o
208.676 180.206 o
213.53 179.797 o
218.385 179.2 o
223.239 178.315 o
228.093 176.935 o
232.947 174.657 o
237.802 170.294 o
242.656 156.56 o
247.51 167.682 o
252.365 178.293 o
257.219 184.789 o
262.073 189.893 o
266.928 194.325 o
271.782 198.37 o
276.636 202.176 o
281.491 205.827 o
286.345 209.373 o
291.199 212.847 o
296.053 216.271 o
300.908 219.66 o
305.762 223.024 o
310.616 226.37 o
315.471 229.703 o
320.325 233.027 o
325.179 236.345 o
330.034 239.658 o
334.888 242.967 o
339.742 246.274 o
344.596 249.58 o
349.451 252.884 o
354.305 256.187 o
359.159 259.489 o
364.014 262.791 o
368.868 266.093 o
373.722 269.394 o
378.577 272.695 o
383.431 275.996 o
388.285 279.297 o
393.139 282.598 o
397.994 285.899 o
402.848 289.2 o
407.702 292.501 o
412.557 295.802 o
417.411 299.104 o
422.265 302.405 o
427.12 305.707 o
431.974 309.01 o
436.828 312.313 o
441.682 315.617 o
446.537 318.922 o
451.391 322.229 o
456.245 325.538 o
461.1 328.85 o
465.954 332.167 o
470.808 335.49 o
475.663 338.822 o
480.517 342.164 o
485.371 345.522 o
490.226 348.899 o
495.08 352.301 o
499.934 355.732 o
504.788 359.19 o
509.643 362.656 o
514.497 366.032 o
519.351 368.698 o
524.206 401.076 o
529.06 324.134 o
533.914 348.197 o
538.769 320.667 o
543.623 318.694 o
548.477 340.53 o
553.331 348.566 o
558.186 364.473 o
563.04 331.643 o
grestore
2.500 setlinewidth
[1 3] 0 setdash
0.000 0.392 0.000 setrgbcolor
gsave
480.6 350.1 82.46 68.93 clipbox
82.464127 128.600602 m
87.318463 128.311472 l
92.172737 128.5956 l
97.027017 127.08792 l
101.88133 126.751477 l
106.735639 127.40793 l
111.589925 128.876848 l
116.444247 127.718146 l
121.298434 128.01915 l
126.15288 128.600602 l
131.007117 127.402303 l
135.8614 128.01915 l
140.715738 127.082113 l
145.570017 124.906953 l
150.424352 123.133426 l
155.278644 110.413179 l
160.13293 110.443214 l
164.987267 125.682811 l
169.841546 133.254232 l
174.69585 137.54384 l
179.550152 142.860831 l
184.404475 147.130474 l
189.258652 150.902443 l
194.113 154.511659 l
198.967427 158.083387 l
203.821734 161.526958 l
208.67592 164.970285 l
213.530243 168.370956 l
218.384624 171.728238 l
223.238859 175.077652 l
228.093153 178.417098 l
232.947491 181.736775 l
237.801756 185.053637 l
242.656066 188.368955 l
247.510373 191.677952 l
252.364682 194.983588 l
257.21906 198.289749 l
262.073202 201.593618 l
266.927584 204.896615 l
271.78189 208.199297 l
276.636268 211.501203 l
281.490515 214.803052 l
286.3448 218.104603 l
291.199135 221.40564 l
296.053411 224.706666 l
300.907684 228.007739 l
305.762015 231.308629 l
310.616297 234.609292 l
315.470614 237.910169 l
320.324915 241.210866 l
325.179191 244.511566 l
330.033635 247.812362 l
334.887754 251.11291 l
339.742065 254.41359 l
344.596426 257.714285 l
349.45071 261.014914 l
354.305044 264.315565 l
359.159311 267.616151 l
364.013623 270.916741 l
368.867898 274.21727 l
373.722259 277.517811 l
378.576548 280.818238 l
383.430816 284.11856 l
388.285145 287.418801 l
393.139415 290.718831 l
397.993695 294.018635 l
402.848114 297.318214 l
407.702286 300.61719 l
412.556616 303.915683 l
417.410948 307.213387 l
422.265302 310.510059 l
427.119577 313.805321 l
431.973851 317.098878 l
436.82818 320.39045 l
441.682468 323.679826 l
446.536763 326.967396 l
451.391067 330.25469 l
456.245368 333.545692 l
461.099671 336.849246 l
465.954002 340.183225 l
470.808189 343.581059 l
475.662573 347.101557 l
480.516911 350.837918 l
485.371218 354.921576 l
490.225508 359.508227 l
495.079746 364.745707 l
499.934072 370.747525 l
504.788362 377.535014 l
509.642671 384.442966 l
514.496973 389.397377 l
519.351288 391.871693 l
524.205569 406.324383 l
529.059883 378.093795 l
533.91417 349.289307 l
538.768571 342.138497 l
543.622746 341.214715 l
548.477059 370.476691 l
553.331359 354.46806 l
558.185695 365.868462 l
563.04 379.77493 l
stroke
grestore
0.500 setlinewidth
0 setlinejoin
[] 0 setdash
0.000 setgray
gsave
480.6 350.1 82.46 68.93 clipbox
/o {
gsave
newpath
translate
0.5 setlinewidth
0 setlinejoin
0 setlinecap
-0 -4.242641 m
2.545584 0 l
0 4.242641 l
-2.545584 0 l
cl

gsave
0.000 0.392 0.000 setrgbcolor
fill
grestore
stroke
grestore
} bind def
82.4641 128.601 o
87.3185 128.311 o
92.1727 128.596 o
97.027 127.088 o
101.881 126.751 o
106.736 127.408 o
111.59 128.877 o
116.444 127.718 o
121.298 128.019 o
126.153 128.601 o
131.007 127.402 o
135.861 128.019 o
140.716 127.082 o
145.57 124.907 o
150.424 123.133 o
155.279 110.413 o
160.133 110.443 o
164.987 125.683 o
169.842 133.254 o
174.696 137.544 o
179.55 142.861 o
184.404 147.13 o
189.259 150.902 o
194.113 154.512 o
198.967 158.083 o
203.822 161.527 o
208.676 164.97 o
213.53 168.371 o
218.385 171.728 o
223.239 175.078 o
228.093 178.417 o
232.947 181.737 o
237.802 185.054 o
242.656 188.369 o
247.51 191.678 o
252.365 194.984 o
257.219 198.29 o
262.073 201.594 o
266.928 204.897 o
271.782 208.199 o
276.636 211.501 o
281.491 214.803 o
286.345 218.105 o
291.199 221.406 o
296.053 224.707 o
300.908 228.008 o
305.762 231.309 o
310.616 234.609 o
315.471 237.91 o
320.325 241.211 o
325.179 244.512 o
330.034 247.812 o
334.888 251.113 o
339.742 254.414 o
344.596 257.714 o
349.451 261.015 o
354.305 264.316 o
359.159 267.616 o
364.014 270.917 o
368.868 274.217 o
373.722 277.518 o
378.577 280.818 o
383.431 284.119 o
388.285 287.419 o
393.139 290.719 o
397.994 294.019 o
402.848 297.318 o
407.702 300.617 o
412.557 303.916 o
417.411 307.213 o
422.265 310.51 o
427.12 313.805 o
431.974 317.099 o
436.828 320.39 o
441.682 323.68 o
446.537 326.967 o
451.391 330.255 o
456.245 333.546 o
461.1 336.849 o
465.954 340.183 o
470.808 343.581 o
475.663 347.102 o
480.517 350.838 o
485.371 354.922 o
490.226 359.508 o
495.08 364.746 o
499.934 370.748 o
504.788 377.535 o
509.643 384.443 o
514.497 389.397 o
519.351 391.872 o
524.206 406.324 o
529.06 378.094 o
533.914 349.289 o
538.769 342.138 o
543.623 341.215 o
548.477 370.477 o
553.331 354.468 o
558.186 365.868 o
563.04 379.775 o
grestore
1.000 setlinewidth
2 setlinecap
gsave
82.464127 419.04 m
563.04 419.04 l
stroke
grestore
gsave
563.04 68.933491 m
563.04 419.04 l
stroke
grestore
gsave
82.464127 68.933491 m
563.04 68.933491 l
stroke
grestore
gsave
82.464127 68.933491 m
82.464127 419.04 l
stroke
grestore
0.500 setlinewidth
1 setlinejoin
0 setlinecap
[1 3] 0 setdash
gsave
480.6 350.1 82.46 68.93 clipbox
112.370612 68.933491 m
112.370612 419.04 l
stroke
grestore
[] 0 setdash
gsave
/o {
gsave
newpath
translate
0.5 setlinewidth
1 setlinejoin
0 setlinecap
0 0 m
0 4 l

gsave
0.000 setgray
fill
grestore
stroke
grestore
} bind def
112.371 68.9335 o
grestore
gsave
/o {
gsave
newpath
translate
0.5 setlinewidth
1 setlinejoin
0 setlinecap
0 0 m
0 -4 l

gsave
0.000 setgray
fill
grestore
stroke
grestore
} bind def
112.371 419.04 o
grestore
gsave
97.370612 52.839741 translate
0.000000 rotate
/BitstreamVeraSans-Roman findfont
14.0 scalefont
setfont
0.000000 0.111563 moveto
/one glyphshow

8.907227 0.111563 moveto
/zero glyphshow

/BitstreamVeraSans-Roman findfont
9.8 scalefont
setfont
18.586203 6.726563 moveto
/hyphen glyphshow

22.122434 6.726563 moveto
/six glyphshow


grestore
[1 3] 0 setdash
gsave
480.6 350.1 82.46 68.93 clipbox
181.024308 68.933491 m
181.024308 419.04 l
stroke
grestore
[] 0 setdash
gsave
/o {
gsave
newpath
translate
0.5 setlinewidth
1 setlinejoin
0 setlinecap
0 0 m
0 4 l

gsave
0.000 setgray
fill
grestore
stroke
grestore
} bind def
181.024 68.9335 o
grestore
gsave
/o {
gsave
newpath
translate
0.5 setlinewidth
1 setlinejoin
0 setlinecap
0 0 m
0 -4 l

gsave
0.000 setgray
fill
grestore
stroke
grestore
} bind def
181.024 419.04 o
grestore
gsave
166.024308 52.839741 translate
0.000000 rotate
/BitstreamVeraSans-Roman findfont
14.0 scalefont
setfont
0.000000 0.242812 moveto
/one glyphshow

8.907227 0.242812 moveto
/zero glyphshow

/BitstreamVeraSans-Roman findfont
9.8 scalefont
setfont
18.586203 6.857812 moveto
/hyphen glyphshow

22.122434 6.857812 moveto
/five glyphshow


grestore
[1 3] 0 setdash
gsave
480.6 350.1 82.46 68.93 clipbox
249.678004 68.933491 m
249.678004 419.04 l
stroke
grestore
[] 0 setdash
gsave
/o {
gsave
newpath
translate
0.5 setlinewidth
1 setlinejoin
0 setlinecap
0 0 m
0 4 l

gsave
0.000 setgray
fill
grestore
stroke
grestore
} bind def
249.678 68.9335 o
grestore
gsave
/o {
gsave
newpath
translate
0.5 setlinewidth
1 setlinejoin
0 setlinecap
0 0 m
0 -4 l

gsave
0.000 setgray
fill
grestore
stroke
grestore
} bind def
249.678 419.04 o
grestore
gsave
234.678004 52.839741 translate
0.000000 rotate
/BitstreamVeraSans-Roman findfont
14.0 scalefont
setfont
0.000000 0.242812 moveto
/one glyphshow

8.907227 0.242812 moveto
/zero glyphshow

/BitstreamVeraSans-Roman findfont
9.8 scalefont
setfont
18.586203 6.857812 moveto
/hyphen glyphshow

22.122434 6.857812 moveto
/four glyphshow


grestore
[1 3] 0 setdash
gsave
480.6 350.1 82.46 68.93 clipbox
318.3317 68.933491 m
318.3317 419.04 l
stroke
grestore
[] 0 setdash
gsave
/o {
gsave
newpath
translate
0.5 setlinewidth
1 setlinejoin
0 setlinecap
0 0 m
0 4 l

gsave
0.000 setgray
fill
grestore
stroke
grestore
} bind def
318.332 68.9335 o
grestore
gsave
/o {
gsave
newpath
translate
0.5 setlinewidth
1 setlinejoin
0 setlinecap
0 0 m
0 -4 l

gsave
0.000 setgray
fill
grestore
stroke
grestore
} bind def
318.332 419.04 o
grestore
gsave
303.331700 52.839741 translate
0.000000 rotate
/BitstreamVeraSans-Roman findfont
14.0 scalefont
setfont
0.000000 0.111563 moveto
/one glyphshow

8.907227 0.111563 moveto
/zero glyphshow

/BitstreamVeraSans-Roman findfont
9.8 scalefont
setfont
18.586203 6.726563 moveto
/hyphen glyphshow

22.122434 6.726563 moveto
/three glyphshow


grestore
[1 3] 0 setdash
gsave
480.6 350.1 82.46 68.93 clipbox
386.985397 68.933491 m
386.985397 419.04 l
stroke
grestore
[] 0 setdash
gsave
/o {
gsave
newpath
translate
0.5 setlinewidth
1 setlinejoin
0 setlinecap
0 0 m
0 4 l

gsave
0.000 setgray
fill
grestore
stroke
grestore
} bind def
386.985 68.9335 o
grestore
gsave
/o {
gsave
newpath
translate
0.5 setlinewidth
1 setlinejoin
0 setlinecap
0 0 m
0 -4 l

gsave
0.000 setgray
fill
grestore
stroke
grestore
} bind def
386.985 419.04 o
grestore
gsave
371.985397 52.839741 translate
0.000000 rotate
/BitstreamVeraSans-Roman findfont
14.0 scalefont
setfont
0.000000 0.111563 moveto
/one glyphshow

8.907227 0.111563 moveto
/zero glyphshow

/BitstreamVeraSans-Roman findfont
9.8 scalefont
setfont
18.586203 6.726563 moveto
/hyphen glyphshow

22.122434 6.726563 moveto
/two glyphshow


grestore
[1 3] 0 setdash
gsave
480.6 350.1 82.46 68.93 clipbox
455.639093 68.933491 m
455.639093 419.04 l
stroke
grestore
[] 0 setdash
gsave
/o {
gsave
newpath
translate
0.5 setlinewidth
1 setlinejoin
0 setlinecap
0 0 m
0 4 l

gsave
0.000 setgray
fill
grestore
stroke
grestore
} bind def
455.639 68.9335 o
grestore
gsave
/o {
gsave
newpath
translate
0.5 setlinewidth
1 setlinejoin
0 setlinecap
0 0 m
0 -4 l

gsave
0.000 setgray
fill
grestore
stroke
grestore
} bind def
455.639 419.04 o
grestore
gsave
440.639093 52.839741 translate
0.000000 rotate
/BitstreamVeraSans-Roman findfont
14.0 scalefont
setfont
0.000000 0.242812 moveto
/one glyphshow

8.907227 0.242812 moveto
/zero glyphshow

/BitstreamVeraSans-Roman findfont
9.8 scalefont
setfont
18.586203 6.857812 moveto
/hyphen glyphshow

22.122434 6.857812 moveto
/one glyphshow


grestore
[1 3] 0 setdash
gsave
480.6 350.1 82.46 68.93 clipbox
524.292789 68.933491 m
524.292789 419.04 l
stroke
grestore
[] 0 setdash
gsave
/o {
gsave
newpath
translate
0.5 setlinewidth
1 setlinejoin
0 setlinecap
0 0 m
0 4 l

gsave
0.000 setgray
fill
grestore
stroke
grestore
} bind def
524.293 68.9335 o
grestore
gsave
/o {
gsave
newpath
translate
0.5 setlinewidth
1 setlinejoin
0 setlinecap
0 0 m
0 -4 l

gsave
0.000 setgray
fill
grestore
stroke
grestore
} bind def
524.293 419.04 o
grestore
gsave
511.292789 52.839741 translate
0.000000 rotate
/BitstreamVeraSans-Roman findfont
14.0 scalefont
setfont
0.000000 0.111563 moveto
/one glyphshow

8.907227 0.111563 moveto
/zero glyphshow

/BitstreamVeraSans-Roman findfont
9.8 scalefont
setfont
18.586203 6.726563 moveto
/zero glyphshow


grestore
gsave
/o {
gsave
newpath
translate
0.5 setlinewidth
1 setlinejoin
0 setlinecap
0 0 m
0 2 l

gsave
0.000 setgray
fill
grestore
stroke
grestore
} bind def
85.0506 68.9335 o
grestore
gsave
/o {
gsave
newpath
translate
0.5 setlinewidth
1 setlinejoin
0 setlinecap
0 0 m
0 -2 l

gsave
0.000 setgray
fill
grestore
stroke
grestore
} bind def
85.0506 419.04 o
grestore
gsave
/o {
gsave
newpath
translate
0.5 setlinewidth
1 setlinejoin
0 setlinecap
0 0 m
0 2 l

gsave
0.000 setgray
fill
grestore
stroke
grestore
} bind def
91.7038 68.9335 o
grestore
gsave
/o {
gsave
newpath
translate
0.5 setlinewidth
1 setlinejoin
0 setlinecap
0 0 m
0 -2 l

gsave
0.000 setgray
fill
grestore
stroke
grestore
} bind def
91.7038 419.04 o
grestore
gsave
/o {
gsave
newpath
translate
0.5 setlinewidth
1 setlinejoin
0 setlinecap
0 0 m
0 2 l

gsave
0.000 setgray
fill
grestore
stroke
grestore
} bind def
97.1399 68.9335 o
grestore
gsave
/o {
gsave
newpath
translate
0.5 setlinewidth
1 setlinejoin
0 setlinecap
0 0 m
0 -2 l

gsave
0.000 setgray
fill
grestore
stroke
grestore
} bind def
97.1399 419.04 o
grestore
gsave
/o {
gsave
newpath
translate
0.5 setlinewidth
1 setlinejoin
0 setlinecap
0 0 m
0 2 l

gsave
0.000 setgray
fill
grestore
stroke
grestore
} bind def
101.736 68.9335 o
grestore
gsave
/o {
gsave
newpath
translate
0.5 setlinewidth
1 setlinejoin
0 setlinecap
0 0 m
0 -2 l

gsave
0.000 setgray
fill
grestore
stroke
grestore
} bind def
101.736 419.04 o
grestore
gsave
/o {
gsave
newpath
translate
0.5 setlinewidth
1 setlinejoin
0 setlinecap
0 0 m
0 2 l

gsave
0.000 setgray
fill
grestore
stroke
grestore
} bind def
105.717 68.9335 o
grestore
gsave
/o {
gsave
newpath
translate
0.5 setlinewidth
1 setlinejoin
0 setlinecap
0 0 m
0 -2 l

gsave
0.000 setgray
fill
grestore
stroke
grestore
} bind def
105.717 419.04 o
grestore
gsave
/o {
gsave
newpath
translate
0.5 setlinewidth
1 setlinejoin
0 setlinecap
0 0 m
0 2 l

gsave
0.000 setgray
fill
grestore
stroke
grestore
} bind def
109.229 68.9335 o
grestore
gsave
/o {
gsave
newpath
translate
0.5 setlinewidth
1 setlinejoin
0 setlinecap
0 0 m
0 -2 l

gsave
0.000 setgray
fill
grestore
stroke
grestore
} bind def
109.229 419.04 o
grestore
gsave
/o {
gsave
newpath
translate
0.5 setlinewidth
1 setlinejoin
0 setlinecap
0 0 m
0 2 l

gsave
0.000 setgray
fill
grestore
stroke
grestore
} bind def
133.037 68.9335 o
grestore
gsave
/o {
gsave
newpath
translate
0.5 setlinewidth
1 setlinejoin
0 setlinecap
0 0 m
0 -2 l

gsave
0.000 setgray
fill
grestore
stroke
grestore
} bind def
133.037 419.04 o
grestore
gsave
/o {
gsave
newpath
translate
0.5 setlinewidth
1 setlinejoin
0 setlinecap
0 0 m
0 2 l

gsave
0.000 setgray
fill
grestore
stroke
grestore
} bind def
145.127 68.9335 o
grestore
gsave
/o {
gsave
newpath
translate
0.5 setlinewidth
1 setlinejoin
0 setlinecap
0 0 m
0 -2 l

gsave
0.000 setgray
fill
grestore
stroke
grestore
} bind def
145.127 419.04 o
grestore
gsave
/o {
gsave
newpath
translate
0.5 setlinewidth
1 setlinejoin
0 setlinecap
0 0 m
0 2 l

gsave
0.000 setgray
fill
grestore
stroke
grestore
} bind def
153.704 68.9335 o
grestore
gsave
/o {
gsave
newpath
translate
0.5 setlinewidth
1 setlinejoin
0 setlinecap
0 0 m
0 -2 l

gsave
0.000 setgray
fill
grestore
stroke
grestore
} bind def
153.704 419.04 o
grestore
gsave
/o {
gsave
newpath
translate
0.5 setlinewidth
1 setlinejoin
0 setlinecap
0 0 m
0 2 l

gsave
0.000 setgray
fill
grestore
stroke
grestore
} bind def
160.357 68.9335 o
grestore
gsave
/o {
gsave
newpath
translate
0.5 setlinewidth
1 setlinejoin
0 setlinecap
0 0 m
0 -2 l

gsave
0.000 setgray
fill
grestore
stroke
grestore
} bind def
160.357 419.04 o
grestore
gsave
/o {
gsave
newpath
translate
0.5 setlinewidth
1 setlinejoin
0 setlinecap
0 0 m
0 2 l

gsave
0.000 setgray
fill
grestore
stroke
grestore
} bind def
165.794 68.9335 o
grestore
gsave
/o {
gsave
newpath
translate
0.5 setlinewidth
1 setlinejoin
0 setlinecap
0 0 m
0 -2 l

gsave
0.000 setgray
fill
grestore
stroke
grestore
} bind def
165.794 419.04 o
grestore
gsave
/o {
gsave
newpath
translate
0.5 setlinewidth
1 setlinejoin
0 setlinecap
0 0 m
0 2 l

gsave
0.000 setgray
fill
grestore
stroke
grestore
} bind def
170.39 68.9335 o
grestore
gsave
/o {
gsave
newpath
translate
0.5 setlinewidth
1 setlinejoin
0 setlinecap
0 0 m
0 -2 l

gsave
0.000 setgray
fill
grestore
stroke
grestore
} bind def
170.39 419.04 o
grestore
gsave
/o {
gsave
newpath
translate
0.5 setlinewidth
1 setlinejoin
0 setlinecap
0 0 m
0 2 l

gsave
0.000 setgray
fill
grestore
stroke
grestore
} bind def
174.371 68.9335 o
grestore
gsave
/o {
gsave
newpath
translate
0.5 setlinewidth
1 setlinejoin
0 setlinecap
0 0 m
0 -2 l

gsave
0.000 setgray
fill
grestore
stroke
grestore
} bind def
174.371 419.04 o
grestore
gsave
/o {
gsave
newpath
translate
0.5 setlinewidth
1 setlinejoin
0 setlinecap
0 0 m
0 2 l

gsave
0.000 setgray
fill
grestore
stroke
grestore
} bind def
177.883 68.9335 o
grestore
gsave
/o {
gsave
newpath
translate
0.5 setlinewidth
1 setlinejoin
0 setlinecap
0 0 m
0 -2 l

gsave
0.000 setgray
fill
grestore
stroke
grestore
} bind def
177.883 419.04 o
grestore
gsave
/o {
gsave
newpath
translate
0.5 setlinewidth
1 setlinejoin
0 setlinecap
0 0 m
0 2 l

gsave
0.000 setgray
fill
grestore
stroke
grestore
} bind def
201.691 68.9335 o
grestore
gsave
/o {
gsave
newpath
translate
0.5 setlinewidth
1 setlinejoin
0 setlinecap
0 0 m
0 -2 l

gsave
0.000 setgray
fill
grestore
stroke
grestore
} bind def
201.691 419.04 o
grestore
gsave
/o {
gsave
newpath
translate
0.5 setlinewidth
1 setlinejoin
0 setlinecap
0 0 m
0 2 l

gsave
0.000 setgray
fill
grestore
stroke
grestore
} bind def
213.78 68.9335 o
grestore
gsave
/o {
gsave
newpath
translate
0.5 setlinewidth
1 setlinejoin
0 setlinecap
0 0 m
0 -2 l

gsave
0.000 setgray
fill
grestore
stroke
grestore
} bind def
213.78 419.04 o
grestore
gsave
/o {
gsave
newpath
translate
0.5 setlinewidth
1 setlinejoin
0 setlinecap
0 0 m
0 2 l

gsave
0.000 setgray
fill
grestore
stroke
grestore
} bind def
222.358 68.9335 o
grestore
gsave
/o {
gsave
newpath
translate
0.5 setlinewidth
1 setlinejoin
0 setlinecap
0 0 m
0 -2 l

gsave
0.000 setgray
fill
grestore
stroke
grestore
} bind def
222.358 419.04 o
grestore
gsave
/o {
gsave
newpath
translate
0.5 setlinewidth
1 setlinejoin
0 setlinecap
0 0 m
0 2 l

gsave
0.000 setgray
fill
grestore
stroke
grestore
} bind def
229.011 68.9335 o
grestore
gsave
/o {
gsave
newpath
translate
0.5 setlinewidth
1 setlinejoin
0 setlinecap
0 0 m
0 -2 l

gsave
0.000 setgray
fill
grestore
stroke
grestore
} bind def
229.011 419.04 o
grestore
gsave
/o {
gsave
newpath
translate
0.5 setlinewidth
1 setlinejoin
0 setlinecap
0 0 m
0 2 l

gsave
0.000 setgray
fill
grestore
stroke
grestore
} bind def
234.447 68.9335 o
grestore
gsave
/o {
gsave
newpath
translate
0.5 setlinewidth
1 setlinejoin
0 setlinecap
0 0 m
0 -2 l

gsave
0.000 setgray
fill
grestore
stroke
grestore
} bind def
234.447 419.04 o
grestore
gsave
/o {
gsave
newpath
translate
0.5 setlinewidth
1 setlinejoin
0 setlinecap
0 0 m
0 2 l

gsave
0.000 setgray
fill
grestore
stroke
grestore
} bind def
239.043 68.9335 o
grestore
gsave
/o {
gsave
newpath
translate
0.5 setlinewidth
1 setlinejoin
0 setlinecap
0 0 m
0 -2 l

gsave
0.000 setgray
fill
grestore
stroke
grestore
} bind def
239.043 419.04 o
grestore
gsave
/o {
gsave
newpath
translate
0.5 setlinewidth
1 setlinejoin
0 setlinecap
0 0 m
0 2 l

gsave
0.000 setgray
fill
grestore
stroke
grestore
} bind def
243.025 68.9335 o
grestore
gsave
/o {
gsave
newpath
translate
0.5 setlinewidth
1 setlinejoin
0 setlinecap
0 0 m
0 -2 l

gsave
0.000 setgray
fill
grestore
stroke
grestore
} bind def
243.025 419.04 o
grestore
gsave
/o {
gsave
newpath
translate
0.5 setlinewidth
1 setlinejoin
0 setlinecap
0 0 m
0 2 l

gsave
0.000 setgray
fill
grestore
stroke
grestore
} bind def
246.537 68.9335 o
grestore
gsave
/o {
gsave
newpath
translate
0.5 setlinewidth
1 setlinejoin
0 setlinecap
0 0 m
0 -2 l

gsave
0.000 setgray
fill
grestore
stroke
grestore
} bind def
246.537 419.04 o
grestore
gsave
/o {
gsave
newpath
translate
0.5 setlinewidth
1 setlinejoin
0 setlinecap
0 0 m
0 2 l

gsave
0.000 setgray
fill
grestore
stroke
grestore
} bind def
270.345 68.9335 o
grestore
gsave
/o {
gsave
newpath
translate
0.5 setlinewidth
1 setlinejoin
0 setlinecap
0 0 m
0 -2 l

gsave
0.000 setgray
fill
grestore
stroke
grestore
} bind def
270.345 419.04 o
grestore
gsave
/o {
gsave
newpath
translate
0.5 setlinewidth
1 setlinejoin
0 setlinecap
0 0 m
0 2 l

gsave
0.000 setgray
fill
grestore
stroke
grestore
} bind def
282.434 68.9335 o
grestore
gsave
/o {
gsave
newpath
translate
0.5 setlinewidth
1 setlinejoin
0 setlinecap
0 0 m
0 -2 l

gsave
0.000 setgray
fill
grestore
stroke
grestore
} bind def
282.434 419.04 o
grestore
gsave
/o {
gsave
newpath
translate
0.5 setlinewidth
1 setlinejoin
0 setlinecap
0 0 m
0 2 l

gsave
0.000 setgray
fill
grestore
stroke
grestore
} bind def
291.012 68.9335 o
grestore
gsave
/o {
gsave
newpath
translate
0.5 setlinewidth
1 setlinejoin
0 setlinecap
0 0 m
0 -2 l

gsave
0.000 setgray
fill
grestore
stroke
grestore
} bind def
291.012 419.04 o
grestore
gsave
/o {
gsave
newpath
translate
0.5 setlinewidth
1 setlinejoin
0 setlinecap
0 0 m
0 2 l

gsave
0.000 setgray
fill
grestore
stroke
grestore
} bind def
297.665 68.9335 o
grestore
gsave
/o {
gsave
newpath
translate
0.5 setlinewidth
1 setlinejoin
0 setlinecap
0 0 m
0 -2 l

gsave
0.000 setgray
fill
grestore
stroke
grestore
} bind def
297.665 419.04 o
grestore
gsave
/o {
gsave
newpath
translate
0.5 setlinewidth
1 setlinejoin
0 setlinecap
0 0 m
0 2 l

gsave
0.000 setgray
fill
grestore
stroke
grestore
} bind def
303.101 68.9335 o
grestore
gsave
/o {
gsave
newpath
translate
0.5 setlinewidth
1 setlinejoin
0 setlinecap
0 0 m
0 -2 l

gsave
0.000 setgray
fill
grestore
stroke
grestore
} bind def
303.101 419.04 o
grestore
gsave
/o {
gsave
newpath
translate
0.5 setlinewidth
1 setlinejoin
0 setlinecap
0 0 m
0 2 l

gsave
0.000 setgray
fill
grestore
stroke
grestore
} bind def
307.697 68.9335 o
grestore
gsave
/o {
gsave
newpath
translate
0.5 setlinewidth
1 setlinejoin
0 setlinecap
0 0 m
0 -2 l

gsave
0.000 setgray
fill
grestore
stroke
grestore
} bind def
307.697 419.04 o
grestore
gsave
/o {
gsave
newpath
translate
0.5 setlinewidth
1 setlinejoin
0 setlinecap
0 0 m
0 2 l

gsave
0.000 setgray
fill
grestore
stroke
grestore
} bind def
311.678 68.9335 o
grestore
gsave
/o {
gsave
newpath
translate
0.5 setlinewidth
1 setlinejoin
0 setlinecap
0 0 m
0 -2 l

gsave
0.000 setgray
fill
grestore
stroke
grestore
} bind def
311.678 419.04 o
grestore
gsave
/o {
gsave
newpath
translate
0.5 setlinewidth
1 setlinejoin
0 setlinecap
0 0 m
0 2 l

gsave
0.000 setgray
fill
grestore
stroke
grestore
} bind def
315.19 68.9335 o
grestore
gsave
/o {
gsave
newpath
translate
0.5 setlinewidth
1 setlinejoin
0 setlinecap
0 0 m
0 -2 l

gsave
0.000 setgray
fill
grestore
stroke
grestore
} bind def
315.19 419.04 o
grestore
gsave
/o {
gsave
newpath
translate
0.5 setlinewidth
1 setlinejoin
0 setlinecap
0 0 m
0 2 l

gsave
0.000 setgray
fill
grestore
stroke
grestore
} bind def
338.999 68.9335 o
grestore
gsave
/o {
gsave
newpath
translate
0.5 setlinewidth
1 setlinejoin
0 setlinecap
0 0 m
0 -2 l

gsave
0.000 setgray
fill
grestore
stroke
grestore
} bind def
338.999 419.04 o
grestore
gsave
/o {
gsave
newpath
translate
0.5 setlinewidth
1 setlinejoin
0 setlinecap
0 0 m
0 2 l

gsave
0.000 setgray
fill
grestore
stroke
grestore
} bind def
351.088 68.9335 o
grestore
gsave
/o {
gsave
newpath
translate
0.5 setlinewidth
1 setlinejoin
0 setlinecap
0 0 m
0 -2 l

gsave
0.000 setgray
fill
grestore
stroke
grestore
} bind def
351.088 419.04 o
grestore
gsave
/o {
gsave
newpath
translate
0.5 setlinewidth
1 setlinejoin
0 setlinecap
0 0 m
0 2 l

gsave
0.000 setgray
fill
grestore
stroke
grestore
} bind def
359.665 68.9335 o
grestore
gsave
/o {
gsave
newpath
translate
0.5 setlinewidth
1 setlinejoin
0 setlinecap
0 0 m
0 -2 l

gsave
0.000 setgray
fill
grestore
stroke
grestore
} bind def
359.665 419.04 o
grestore
gsave
/o {
gsave
newpath
translate
0.5 setlinewidth
1 setlinejoin
0 setlinecap
0 0 m
0 2 l

gsave
0.000 setgray
fill
grestore
stroke
grestore
} bind def
366.319 68.9335 o
grestore
gsave
/o {
gsave
newpath
translate
0.5 setlinewidth
1 setlinejoin
0 setlinecap
0 0 m
0 -2 l

gsave
0.000 setgray
fill
grestore
stroke
grestore
} bind def
366.319 419.04 o
grestore
gsave
/o {
gsave
newpath
translate
0.5 setlinewidth
1 setlinejoin
0 setlinecap
0 0 m
0 2 l

gsave
0.000 setgray
fill
grestore
stroke
grestore
} bind def
371.755 68.9335 o
grestore
gsave
/o {
gsave
newpath
translate
0.5 setlinewidth
1 setlinejoin
0 setlinecap
0 0 m
0 -2 l

gsave
0.000 setgray
fill
grestore
stroke
grestore
} bind def
371.755 419.04 o
grestore
gsave
/o {
gsave
newpath
translate
0.5 setlinewidth
1 setlinejoin
0 setlinecap
0 0 m
0 2 l

gsave
0.000 setgray
fill
grestore
stroke
grestore
} bind def
376.351 68.9335 o
grestore
gsave
/o {
gsave
newpath
translate
0.5 setlinewidth
1 setlinejoin
0 setlinecap
0 0 m
0 -2 l

gsave
0.000 setgray
fill
grestore
stroke
grestore
} bind def
376.351 419.04 o
grestore
gsave
/o {
gsave
newpath
translate
0.5 setlinewidth
1 setlinejoin
0 setlinecap
0 0 m
0 2 l

gsave
0.000 setgray
fill
grestore
stroke
grestore
} bind def
380.332 68.9335 o
grestore
gsave
/o {
gsave
newpath
translate
0.5 setlinewidth
1 setlinejoin
0 setlinecap
0 0 m
0 -2 l

gsave
0.000 setgray
fill
grestore
stroke
grestore
} bind def
380.332 419.04 o
grestore
gsave
/o {
gsave
newpath
translate
0.5 setlinewidth
1 setlinejoin
0 setlinecap
0 0 m
0 2 l

gsave
0.000 setgray
fill
grestore
stroke
grestore
} bind def
383.844 68.9335 o
grestore
gsave
/o {
gsave
newpath
translate
0.5 setlinewidth
1 setlinejoin
0 setlinecap
0 0 m
0 -2 l

gsave
0.000 setgray
fill
grestore
stroke
grestore
} bind def
383.844 419.04 o
grestore
gsave
/o {
gsave
newpath
translate
0.5 setlinewidth
1 setlinejoin
0 setlinecap
0 0 m
0 2 l

gsave
0.000 setgray
fill
grestore
stroke
grestore
} bind def
407.652 68.9335 o
grestore
gsave
/o {
gsave
newpath
translate
0.5 setlinewidth
1 setlinejoin
0 setlinecap
0 0 m
0 -2 l

gsave
0.000 setgray
fill
grestore
stroke
grestore
} bind def
407.652 419.04 o
grestore
gsave
/o {
gsave
newpath
translate
0.5 setlinewidth
1 setlinejoin
0 setlinecap
0 0 m
0 2 l

gsave
0.000 setgray
fill
grestore
stroke
grestore
} bind def
419.742 68.9335 o
grestore
gsave
/o {
gsave
newpath
translate
0.5 setlinewidth
1 setlinejoin
0 setlinecap
0 0 m
0 -2 l

gsave
0.000 setgray
fill
grestore
stroke
grestore
} bind def
419.742 419.04 o
grestore
gsave
/o {
gsave
newpath
translate
0.5 setlinewidth
1 setlinejoin
0 setlinecap
0 0 m
0 2 l

gsave
0.000 setgray
fill
grestore
stroke
grestore
} bind def
428.319 68.9335 o
grestore
gsave
/o {
gsave
newpath
translate
0.5 setlinewidth
1 setlinejoin
0 setlinecap
0 0 m
0 -2 l

gsave
0.000 setgray
fill
grestore
stroke
grestore
} bind def
428.319 419.04 o
grestore
gsave
/o {
gsave
newpath
translate
0.5 setlinewidth
1 setlinejoin
0 setlinecap
0 0 m
0 2 l

gsave
0.000 setgray
fill
grestore
stroke
grestore
} bind def
434.972 68.9335 o
grestore
gsave
/o {
gsave
newpath
translate
0.5 setlinewidth
1 setlinejoin
0 setlinecap
0 0 m
0 -2 l

gsave
0.000 setgray
fill
grestore
stroke
grestore
} bind def
434.972 419.04 o
grestore
gsave
/o {
gsave
newpath
translate
0.5 setlinewidth
1 setlinejoin
0 setlinecap
0 0 m
0 2 l

gsave
0.000 setgray
fill
grestore
stroke
grestore
} bind def
440.408 68.9335 o
grestore
gsave
/o {
gsave
newpath
translate
0.5 setlinewidth
1 setlinejoin
0 setlinecap
0 0 m
0 -2 l

gsave
0.000 setgray
fill
grestore
stroke
grestore
} bind def
440.408 419.04 o
grestore
gsave
/o {
gsave
newpath
translate
0.5 setlinewidth
1 setlinejoin
0 setlinecap
0 0 m
0 2 l

gsave
0.000 setgray
fill
grestore
stroke
grestore
} bind def
445.005 68.9335 o
grestore
gsave
/o {
gsave
newpath
translate
0.5 setlinewidth
1 setlinejoin
0 setlinecap
0 0 m
0 -2 l

gsave
0.000 setgray
fill
grestore
stroke
grestore
} bind def
445.005 419.04 o
grestore
gsave
/o {
gsave
newpath
translate
0.5 setlinewidth
1 setlinejoin
0 setlinecap
0 0 m
0 2 l

gsave
0.000 setgray
fill
grestore
stroke
grestore
} bind def
448.986 68.9335 o
grestore
gsave
/o {
gsave
newpath
translate
0.5 setlinewidth
1 setlinejoin
0 setlinecap
0 0 m
0 -2 l

gsave
0.000 setgray
fill
grestore
stroke
grestore
} bind def
448.986 419.04 o
grestore
gsave
/o {
gsave
newpath
translate
0.5 setlinewidth
1 setlinejoin
0 setlinecap
0 0 m
0 2 l

gsave
0.000 setgray
fill
grestore
stroke
grestore
} bind def
452.498 68.9335 o
grestore
gsave
/o {
gsave
newpath
translate
0.5 setlinewidth
1 setlinejoin
0 setlinecap
0 0 m
0 -2 l

gsave
0.000 setgray
fill
grestore
stroke
grestore
} bind def
452.498 419.04 o
grestore
gsave
/o {
gsave
newpath
translate
0.5 setlinewidth
1 setlinejoin
0 setlinecap
0 0 m
0 2 l

gsave
0.000 setgray
fill
grestore
stroke
grestore
} bind def
476.306 68.9335 o
grestore
gsave
/o {
gsave
newpath
translate
0.5 setlinewidth
1 setlinejoin
0 setlinecap
0 0 m
0 -2 l

gsave
0.000 setgray
fill
grestore
stroke
grestore
} bind def
476.306 419.04 o
grestore
gsave
/o {
gsave
newpath
translate
0.5 setlinewidth
1 setlinejoin
0 setlinecap
0 0 m
0 2 l

gsave
0.000 setgray
fill
grestore
stroke
grestore
} bind def
488.395 68.9335 o
grestore
gsave
/o {
gsave
newpath
translate
0.5 setlinewidth
1 setlinejoin
0 setlinecap
0 0 m
0 -2 l

gsave
0.000 setgray
fill
grestore
stroke
grestore
} bind def
488.395 419.04 o
grestore
gsave
/o {
gsave
newpath
translate
0.5 setlinewidth
1 setlinejoin
0 setlinecap
0 0 m
0 2 l

gsave
0.000 setgray
fill
grestore
stroke
grestore
} bind def
496.973 68.9335 o
grestore
gsave
/o {
gsave
newpath
translate
0.5 setlinewidth
1 setlinejoin
0 setlinecap
0 0 m
0 -2 l

gsave
0.000 setgray
fill
grestore
stroke
grestore
} bind def
496.973 419.04 o
grestore
gsave
/o {
gsave
newpath
translate
0.5 setlinewidth
1 setlinejoin
0 setlinecap
0 0 m
0 2 l

gsave
0.000 setgray
fill
grestore
stroke
grestore
} bind def
503.626 68.9335 o
grestore
gsave
/o {
gsave
newpath
translate
0.5 setlinewidth
1 setlinejoin
0 setlinecap
0 0 m
0 -2 l

gsave
0.000 setgray
fill
grestore
stroke
grestore
} bind def
503.626 419.04 o
grestore
gsave
/o {
gsave
newpath
translate
0.5 setlinewidth
1 setlinejoin
0 setlinecap
0 0 m
0 2 l

gsave
0.000 setgray
fill
grestore
stroke
grestore
} bind def
509.062 68.9335 o
grestore
gsave
/o {
gsave
newpath
translate
0.5 setlinewidth
1 setlinejoin
0 setlinecap
0 0 m
0 -2 l

gsave
0.000 setgray
fill
grestore
stroke
grestore
} bind def
509.062 419.04 o
grestore
gsave
/o {
gsave
newpath
translate
0.5 setlinewidth
1 setlinejoin
0 setlinecap
0 0 m
0 2 l

gsave
0.000 setgray
fill
grestore
stroke
grestore
} bind def
513.658 68.9335 o
grestore
gsave
/o {
gsave
newpath
translate
0.5 setlinewidth
1 setlinejoin
0 setlinecap
0 0 m
0 -2 l

gsave
0.000 setgray
fill
grestore
stroke
grestore
} bind def
513.658 419.04 o
grestore
gsave
/o {
gsave
newpath
translate
0.5 setlinewidth
1 setlinejoin
0 setlinecap
0 0 m
0 2 l

gsave
0.000 setgray
fill
grestore
stroke
grestore
} bind def
517.64 68.9335 o
grestore
gsave
/o {
gsave
newpath
translate
0.5 setlinewidth
1 setlinejoin
0 setlinecap
0 0 m
0 -2 l

gsave
0.000 setgray
fill
grestore
stroke
grestore
} bind def
517.64 419.04 o
grestore
gsave
/o {
gsave
newpath
translate
0.5 setlinewidth
1 setlinejoin
0 setlinecap
0 0 m
0 2 l

gsave
0.000 setgray
fill
grestore
stroke
grestore
} bind def
521.151 68.9335 o
grestore
gsave
/o {
gsave
newpath
translate
0.5 setlinewidth
1 setlinejoin
0 setlinecap
0 0 m
0 -2 l

gsave
0.000 setgray
fill
grestore
stroke
grestore
} bind def
521.151 419.04 o
grestore
gsave
/o {
gsave
newpath
translate
0.5 setlinewidth
1 setlinejoin
0 setlinecap
0 0 m
0 2 l

gsave
0.000 setgray
fill
grestore
stroke
grestore
} bind def
544.96 68.9335 o
grestore
gsave
/o {
gsave
newpath
translate
0.5 setlinewidth
1 setlinejoin
0 setlinecap
0 0 m
0 -2 l

gsave
0.000 setgray
fill
grestore
stroke
grestore
} bind def
544.96 419.04 o
grestore
gsave
/o {
gsave
newpath
translate
0.5 setlinewidth
1 setlinejoin
0 setlinecap
0 0 m
0 2 l

gsave
0.000 setgray
fill
grestore
stroke
grestore
} bind def
557.049 68.9335 o
grestore
gsave
/o {
gsave
newpath
translate
0.5 setlinewidth
1 setlinejoin
0 setlinecap
0 0 m
0 -2 l

gsave
0.000 setgray
fill
grestore
stroke
grestore
} bind def
557.049 419.04 o
grestore
gsave
308.252063 23.933491 translate
0.000000 rotate
/Cmmi10 findfont
14.5152 scalefont
setfont
0.000000 11.090625 moveto
/R glyphshow

/Cmr10 findfont
10.16064 scalefont
setfont
11.013112 8.622134 moveto
/zero glyphshow

/Cmmi10 findfont
14.5152 scalefont
setfont
17.018718 11.090625 moveto
/omega glyphshow

0.000000 3.216103 26.047485 1.296000 rectfill
10.000000 -4.489272 moveto
/c glyphshow


grestore
[1 3] 0 setdash
gsave
480.6 350.1 82.46 68.93 clipbox
82.464127 68.933491 m
563.04 68.933491 l
stroke
grestore
[] 0 setdash
gsave
/o {
gsave
newpath
translate
0.5 setlinewidth
1 setlinejoin
0 setlinecap
0 0 m
4 0 l

gsave
0.000 setgray
fill
grestore
stroke
grestore
} bind def
82.4641 68.9335 o
grestore
gsave
/o {
gsave
newpath
translate
0.5 setlinewidth
1 setlinejoin
0 setlinecap
0 0 m
-4 0 l

gsave
0.000 setgray
fill
grestore
stroke
grestore
} bind def
563.04 68.9335 o
grestore
gsave
42.464127 64.339741 translate
0.000000 rotate
/BitstreamVeraSans-Roman findfont
14.0 scalefont
setfont
0.000000 0.242812 moveto
/one glyphshow

8.907227 0.242812 moveto
/zero glyphshow

/BitstreamVeraSans-Roman findfont
9.8 scalefont
setfont
18.586203 6.857812 moveto
/hyphen glyphshow

22.122434 6.857812 moveto
/one glyphshow

28.357492 6.857812 moveto
/four glyphshow


grestore
[1 3] 0 setdash
gsave
480.6 350.1 82.46 68.93 clipbox
82.464127 115.614359 m
563.04 115.614359 l
stroke
grestore
[] 0 setdash
gsave
/o {
gsave
newpath
translate
0.5 setlinewidth
1 setlinejoin
0 setlinecap
0 0 m
4 0 l

gsave
0.000 setgray
fill
grestore
stroke
grestore
} bind def
82.4641 115.614 o
grestore
gsave
/o {
gsave
newpath
translate
0.5 setlinewidth
1 setlinejoin
0 setlinecap
0 0 m
-4 0 l

gsave
0.000 setgray
fill
grestore
stroke
grestore
} bind def
563.04 115.614 o
grestore
gsave
42.464127 111.020609 translate
0.000000 rotate
/BitstreamVeraSans-Roman findfont
14.0 scalefont
setfont
0.000000 0.111563 moveto
/one glyphshow

8.907227 0.111563 moveto
/zero glyphshow

/BitstreamVeraSans-Roman findfont
9.8 scalefont
setfont
18.586203 6.726563 moveto
/hyphen glyphshow

22.122434 6.726563 moveto
/one glyphshow

28.357492 6.726563 moveto
/two glyphshow


grestore
[1 3] 0 setdash
gsave
480.6 350.1 82.46 68.93 clipbox
82.464127 162.295227 m
563.04 162.295227 l
stroke
grestore
[] 0 setdash
gsave
/o {
gsave
newpath
translate
0.5 setlinewidth
1 setlinejoin
0 setlinecap
0 0 m
4 0 l

gsave
0.000 setgray
fill
grestore
stroke
grestore
} bind def
82.4641 162.295 o
grestore
gsave
/o {
gsave
newpath
translate
0.5 setlinewidth
1 setlinejoin
0 setlinecap
0 0 m
-4 0 l

gsave
0.000 setgray
fill
grestore
stroke
grestore
} bind def
563.04 162.295 o
grestore
gsave
42.464127 157.701477 translate
0.000000 rotate
/BitstreamVeraSans-Roman findfont
14.0 scalefont
setfont
0.000000 0.111563 moveto
/one glyphshow

8.907227 0.111563 moveto
/zero glyphshow

/BitstreamVeraSans-Roman findfont
9.8 scalefont
setfont
18.586203 6.726563 moveto
/hyphen glyphshow

22.122434 6.726563 moveto
/one glyphshow

28.357492 6.726563 moveto
/zero glyphshow


grestore
[1 3] 0 setdash
gsave
480.6 350.1 82.46 68.93 clipbox
82.464127 208.976095 m
563.04 208.976095 l
stroke
grestore
[] 0 setdash
gsave
/o {
gsave
newpath
translate
0.5 setlinewidth
1 setlinejoin
0 setlinecap
0 0 m
4 0 l

gsave
0.000 setgray
fill
grestore
stroke
grestore
} bind def
82.4641 208.976 o
grestore
gsave
/o {
gsave
newpath
translate
0.5 setlinewidth
1 setlinejoin
0 setlinecap
0 0 m
-4 0 l

gsave
0.000 setgray
fill
grestore
stroke
grestore
} bind def
563.04 208.976 o
grestore
gsave
48.464127 204.382345 translate
0.000000 rotate
/BitstreamVeraSans-Roman findfont
14.0 scalefont
setfont
0.000000 0.111563 moveto
/one glyphshow

8.907227 0.111563 moveto
/zero glyphshow

/BitstreamVeraSans-Roman findfont
9.8 scalefont
setfont
18.586203 6.726563 moveto
/hyphen glyphshow

22.122434 6.726563 moveto
/eight glyphshow


grestore
[1 3] 0 setdash
gsave
480.6 350.1 82.46 68.93 clipbox
82.464127 255.656963 m
563.04 255.656963 l
stroke
grestore
[] 0 setdash
gsave
/o {
gsave
newpath
translate
0.5 setlinewidth
1 setlinejoin
0 setlinecap
0 0 m
4 0 l

gsave
0.000 setgray
fill
grestore
stroke
grestore
} bind def
82.4641 255.657 o
grestore
gsave
/o {
gsave
newpath
translate
0.5 setlinewidth
1 setlinejoin
0 setlinecap
0 0 m
-4 0 l

gsave
0.000 setgray
fill
grestore
stroke
grestore
} bind def
563.04 255.657 o
grestore
gsave
48.464127 251.063213 translate
0.000000 rotate
/BitstreamVeraSans-Roman findfont
14.0 scalefont
setfont
0.000000 0.111563 moveto
/one glyphshow

8.907227 0.111563 moveto
/zero glyphshow

/BitstreamVeraSans-Roman findfont
9.8 scalefont
setfont
18.586203 6.726563 moveto
/hyphen glyphshow

22.122434 6.726563 moveto
/six glyphshow


grestore
[1 3] 0 setdash
gsave
480.6 350.1 82.46 68.93 clipbox
82.464127 302.33783 m
563.04 302.33783 l
stroke
grestore
[] 0 setdash
gsave
/o {
gsave
newpath
translate
0.5 setlinewidth
1 setlinejoin
0 setlinecap
0 0 m
4 0 l

gsave
0.000 setgray
fill
grestore
stroke
grestore
} bind def
82.4641 302.338 o
grestore
gsave
/o {
gsave
newpath
translate
0.5 setlinewidth
1 setlinejoin
0 setlinecap
0 0 m
-4 0 l

gsave
0.000 setgray
fill
grestore
stroke
grestore
} bind def
563.04 302.338 o
grestore
gsave
48.464127 297.744080 translate
0.000000 rotate
/BitstreamVeraSans-Roman findfont
14.0 scalefont
setfont
0.000000 0.242812 moveto
/one glyphshow

8.907227 0.242812 moveto
/zero glyphshow

/BitstreamVeraSans-Roman findfont
9.8 scalefont
setfont
18.586203 6.857812 moveto
/hyphen glyphshow

22.122434 6.857812 moveto
/four glyphshow


grestore
[1 3] 0 setdash
gsave
480.6 350.1 82.46 68.93 clipbox
82.464127 349.018698 m
563.04 349.018698 l
stroke
grestore
[] 0 setdash
gsave
/o {
gsave
newpath
translate
0.5 setlinewidth
1 setlinejoin
0 setlinecap
0 0 m
4 0 l

gsave
0.000 setgray
fill
grestore
stroke
grestore
} bind def
82.4641 349.019 o
grestore
gsave
/o {
gsave
newpath
translate
0.5 setlinewidth
1 setlinejoin
0 setlinecap
0 0 m
-4 0 l

gsave
0.000 setgray
fill
grestore
stroke
grestore
} bind def
563.04 349.019 o
grestore
gsave
48.464127 344.424948 translate
0.000000 rotate
/BitstreamVeraSans-Roman findfont
14.0 scalefont
setfont
0.000000 0.111563 moveto
/one glyphshow

8.907227 0.111563 moveto
/zero glyphshow

/BitstreamVeraSans-Roman findfont
9.8 scalefont
setfont
18.586203 6.726563 moveto
/hyphen glyphshow

22.122434 6.726563 moveto
/two glyphshow


grestore
[1 3] 0 setdash
gsave
480.6 350.1 82.46 68.93 clipbox
82.464127 395.699566 m
563.04 395.699566 l
stroke
grestore
[] 0 setdash
gsave
/o {
gsave
newpath
translate
0.5 setlinewidth
1 setlinejoin
0 setlinecap
0 0 m
4 0 l

gsave
0.000 setgray
fill
grestore
stroke
grestore
} bind def
82.4641 395.7 o
grestore
gsave
/o {
gsave
newpath
translate
0.5 setlinewidth
1 setlinejoin
0 setlinecap
0 0 m
-4 0 l

gsave
0.000 setgray
fill
grestore
stroke
grestore
} bind def
563.04 395.7 o
grestore
gsave
52.464127 391.105816 translate
0.000000 rotate
/BitstreamVeraSans-Roman findfont
14.0 scalefont
setfont
0.000000 0.111563 moveto
/one glyphshow

8.907227 0.111563 moveto
/zero glyphshow

/BitstreamVeraSans-Roman findfont
9.8 scalefont
setfont
18.586203 6.726563 moveto
/zero glyphshow


grestore
gsave
/o {
gsave
newpath
translate
0.5 setlinewidth
1 setlinejoin
0 setlinecap
0 0 m
2 0 l

gsave
0.000 setgray
fill
grestore
stroke
grestore
} bind def
82.4641 68.9335 o
grestore
gsave
/o {
gsave
newpath
translate
0.5 setlinewidth
1 setlinejoin
0 setlinecap
0 0 m
-2 0 l

gsave
0.000 setgray
fill
grestore
stroke
grestore
} bind def
563.04 68.9335 o
grestore
gsave
/o {
gsave
newpath
translate
0.5 setlinewidth
1 setlinejoin
0 setlinecap
0 0 m
2 0 l

gsave
0.000 setgray
fill
grestore
stroke
grestore
} bind def
82.4641 115.614 o
grestore
gsave
/o {
gsave
newpath
translate
0.5 setlinewidth
1 setlinejoin
0 setlinecap
0 0 m
-2 0 l

gsave
0.000 setgray
fill
grestore
stroke
grestore
} bind def
563.04 115.614 o
grestore
gsave
/o {
gsave
newpath
translate
0.5 setlinewidth
1 setlinejoin
0 setlinecap
0 0 m
2 0 l

gsave
0.000 setgray
fill
grestore
stroke
grestore
} bind def
82.4641 162.295 o
grestore
gsave
/o {
gsave
newpath
translate
0.5 setlinewidth
1 setlinejoin
0 setlinecap
0 0 m
-2 0 l

gsave
0.000 setgray
fill
grestore
stroke
grestore
} bind def
563.04 162.295 o
grestore
gsave
/o {
gsave
newpath
translate
0.5 setlinewidth
1 setlinejoin
0 setlinecap
0 0 m
2 0 l

gsave
0.000 setgray
fill
grestore
stroke
grestore
} bind def
82.4641 208.976 o
grestore
gsave
/o {
gsave
newpath
translate
0.5 setlinewidth
1 setlinejoin
0 setlinecap
0 0 m
-2 0 l

gsave
0.000 setgray
fill
grestore
stroke
grestore
} bind def
563.04 208.976 o
grestore
gsave
/o {
gsave
newpath
translate
0.5 setlinewidth
1 setlinejoin
0 setlinecap
0 0 m
2 0 l

gsave
0.000 setgray
fill
grestore
stroke
grestore
} bind def
82.4641 255.657 o
grestore
gsave
/o {
gsave
newpath
translate
0.5 setlinewidth
1 setlinejoin
0 setlinecap
0 0 m
-2 0 l

gsave
0.000 setgray
fill
grestore
stroke
grestore
} bind def
563.04 255.657 o
grestore
gsave
/o {
gsave
newpath
translate
0.5 setlinewidth
1 setlinejoin
0 setlinecap
0 0 m
2 0 l

gsave
0.000 setgray
fill
grestore
stroke
grestore
} bind def
82.4641 302.338 o
grestore
gsave
/o {
gsave
newpath
translate
0.5 setlinewidth
1 setlinejoin
0 setlinecap
0 0 m
-2 0 l

gsave
0.000 setgray
fill
grestore
stroke
grestore
} bind def
563.04 302.338 o
grestore
gsave
/o {
gsave
newpath
translate
0.5 setlinewidth
1 setlinejoin
0 setlinecap
0 0 m
2 0 l

gsave
0.000 setgray
fill
grestore
stroke
grestore
} bind def
82.4641 349.019 o
grestore
gsave
/o {
gsave
newpath
translate
0.5 setlinewidth
1 setlinejoin
0 setlinecap
0 0 m
-2 0 l

gsave
0.000 setgray
fill
grestore
stroke
grestore
} bind def
563.04 349.019 o
grestore
gsave
/o {
gsave
newpath
translate
0.5 setlinewidth
1 setlinejoin
0 setlinecap
0 0 m
2 0 l

gsave
0.000 setgray
fill
grestore
stroke
grestore
} bind def
82.4641 395.7 o
grestore
gsave
/o {
gsave
newpath
translate
0.5 setlinewidth
1 setlinejoin
0 setlinecap
0 0 m
-2 0 l

gsave
0.000 setgray
fill
grestore
stroke
grestore
} bind def
563.04 395.7 o
grestore
gsave
32.464127 164.486746 translate
90.000000 rotate
/Cmsy10 findfont
17.28 scalefont
setfont
0.000000 0.320782 moveto
/bar glyphshow

/Cmr10 findfont
17.28 scalefont
setfont
4.780075 0.320782 moveto
/parenleft glyphshow

/Cmmi10 findfont
17.28 scalefont
setfont
11.482300 0.320782 moveto
/lambda glyphshow

/Cmr10 findfont
12.096 scalefont
setfont
23.550744 6.932813 moveto
/parenleft glyphshow

28.242301 6.932813 moveto
/one glyphshow

34.285270 6.932813 moveto
/parenright glyphshow

/Cmr10 findfont
17.28 scalefont
setfont
40.078832 0.320782 moveto
/parenright glyphshow

/Cmr10 findfont
12.096 scalefont
setfont
47.552460 6.932813 moveto
/two glyphshow

/Cmsy10 findfont
17.28 scalefont
setfont
57.729035 0.320782 moveto
/minus glyphshow

/Cmr10 findfont
17.28 scalefont
setfont
74.173524 0.320782 moveto
/parenleft glyphshow

/Cmmi10 findfont
17.28 scalefont
setfont
80.875748 0.320782 moveto
/lambda glyphshow

/Cmr10 findfont
12.096 scalefont
setfont
92.944192 6.932813 moveto
/parenleft glyphshow

97.635750 6.932813 moveto
/two glyphshow

103.678718 6.932813 moveto
/parenright glyphshow

/Cmr10 findfont
17.28 scalefont
setfont
109.472281 0.320782 moveto
/parenright glyphshow

/Cmr10 findfont
12.096 scalefont
setfont
116.945909 6.932813 moveto
/two glyphshow

/Cmsy10 findfont
17.28 scalefont
setfont
124.090883 0.320782 moveto
/bar glyphshow

/Cmex10 findfont
15.7906596226 scalefont
setfont
133.081548 14.229220 moveto
/bracketleftbig glyphshow

/Cmr10 findfont
12.096 scalefont
setfont
141.646795 6.801095 moveto
/one glyphshow

139.646795 2.481095 10.610603 1.080000 rectfill
/Cmmi10 findfont
12.096 scalefont
setfont
139.646795 -3.936405 moveto
/m glyphshow

/Cmex10 findfont
15.7906596226 scalefont
setfont
152.417398 14.229220 moveto
/bracketrightbig glyphshow


grestore
/BitstreamVeraSans-Roman findfont
12.000 scalefont
setfont
gsave
348.838236 192.848965 translate
0.000000 rotate
0.000000 0.000000 m /one glyphshow
grestore
gsave
397.283451 229.004029 translate
0.000000 rotate
0.000000 0.000000 m /two glyphshow
grestore
1.000 setlinewidth
0 setlinejoin
gsave
89.664127 322.72 m
201.504127 322.72 l
201.504127 411.84 l
89.664127 411.84 l
cl
gsave
1.000 setgray
fill
grestore
stroke
grestore
2.500 setlinewidth
1 setlinejoin
2 setlinecap
0.545 0.000 0.000 setrgbcolor
gsave
99.744127 400.12 m
119.904127 400.12 l
stroke
grestore
0.500 setlinewidth
0 setlinecap
0.000 setgray
gsave
/o {
gsave
newpath
translate
0.5 setlinewidth
1 setlinejoin
0 setlinecap
0 -3 m
0.795609 -3 1.55874 -2.683901 2.12132 -2.12132 c
2.683901 -1.55874 3 -0.795609 3 0 c
3 0.795609 2.683901 1.55874 2.12132 2.12132 c
1.55874 2.683901 0.795609 3 0 3 c
-0.795609 3 -1.55874 2.683901 -2.12132 2.12132 c
-2.683901 1.55874 -3 0.795609 -3 0 c
-3 -0.795609 -2.683901 -1.55874 -2.12132 -2.12132 c
-1.55874 -2.683901 -0.795609 -3 0 -3 c
cl

gsave
0.545 0.000 0.000 setrgbcolor
fill
grestore
stroke
grestore
} bind def
99.7441 400.12 o
119.904 400.12 o
grestore
gsave
135.744127 395.080000 translate
0.000000 rotate
/Cmmi10 findfont
14.4 scalefont
setfont
0.000000 0.359375 moveto
/lambda glyphshow

/Cmr10 findfont
10.08 scalefont
setfont
8.389847 -2.089525 moveto
/zero glyphshow

/BitstreamVeraSans-Roman findfont
14.4 scalefont
setfont
14.344903 0.359375 moveto
/space glyphshow

18.914300 0.359375 moveto
/l glyphshow

22.908135 0.359375 moveto
/i glyphshow

26.901971 0.359375 moveto
/n glyphshow

36.012689 0.359375 moveto
/e glyphshow

44.856683 0.359375 moveto
/a glyphshow

53.665582 0.359375 moveto
/r glyphshow


grestore
2.500 setlinewidth
2 setlinecap
0.545 0.000 0.000 setrgbcolor
gsave
99.744127 378.92 m
119.904127 378.92 l
stroke
grestore
0.500 setlinewidth
0 setlinejoin
0 setlinecap
0.000 setgray
gsave
/o {
gsave
newpath
translate
0.5 setlinewidth
0 setlinejoin
0 setlinecap
-0 -4.242641 m
2.545584 0 l
0 4.242641 l
-2.545584 0 l
cl

gsave
0.545 0.000 0.000 setrgbcolor
fill
grestore
stroke
grestore
} bind def
99.7441 378.92 o
119.904 378.92 o
grestore
gsave
135.744127 373.880000 translate
0.000000 rotate
/Cmmi10 findfont
14.4 scalefont
setfont
0.000000 0.359375 moveto
/lambda glyphshow

/Cmr10 findfont
10.08 scalefont
setfont
8.389847 -2.089525 moveto
/nine glyphshow

/BitstreamVeraSans-Roman findfont
14.4 scalefont
setfont
14.344903 0.359375 moveto
/space glyphshow

18.914300 0.359375 moveto
/l glyphshow

22.908135 0.359375 moveto
/i glyphshow

26.901971 0.359375 moveto
/n glyphshow

36.012689 0.359375 moveto
/e glyphshow

44.856683 0.359375 moveto
/a glyphshow

53.665582 0.359375 moveto
/r glyphshow


grestore
2.500 setlinewidth
1 setlinejoin
[1 3] 0 setdash
0.000 0.392 0.000 setrgbcolor
gsave
99.744127 357.72 m
119.904127 357.72 l
stroke
grestore
0.500 setlinewidth
[] 0 setdash
0.000 setgray
gsave
/o {
gsave
newpath
translate
0.5 setlinewidth
1 setlinejoin
0 setlinecap
0 -3 m
0.795609 -3 1.55874 -2.683901 2.12132 -2.12132 c
2.683901 -1.55874 3 -0.795609 3 0 c
3 0.795609 2.683901 1.55874 2.12132 2.12132 c
1.55874 2.683901 0.795609 3 0 3 c
-0.795609 3 -1.55874 2.683901 -2.12132 2.12132 c
-2.683901 1.55874 -3 0.795609 -3 0 c
-3 -0.795609 -2.683901 -1.55874 -2.12132 -2.12132 c
-1.55874 -2.683901 -0.795609 -3 0 -3 c
cl

gsave
0.000 0.392 0.000 setrgbcolor
fill
grestore
stroke
grestore
} bind def
99.7441 357.72 o
119.904 357.72 o
grestore
gsave
135.744127 352.680000 translate
0.000000 rotate
/Cmmi10 findfont
14.4 scalefont
setfont
0.000000 0.359375 moveto
/lambda glyphshow

/Cmr10 findfont
10.08 scalefont
setfont
8.389847 -2.089525 moveto
/zero glyphshow

/BitstreamVeraSans-Roman findfont
14.4 scalefont
setfont
14.344903 0.359375 moveto
/space glyphshow

18.914300 0.359375 moveto
/f glyphshow

23.975030 0.359375 moveto
/u glyphshow

33.085748 0.359375 moveto
/l glyphshow

37.079583 0.359375 moveto
/l glyphshow


grestore
2.500 setlinewidth
[1 3] 0 setdash
0.000 0.392 0.000 setrgbcolor
gsave
99.744127 336.52 m
119.904127 336.52 l
stroke
grestore
0.500 setlinewidth
0 setlinejoin
[] 0 setdash
0.000 setgray
gsave
/o {
gsave
newpath
translate
0.5 setlinewidth
0 setlinejoin
0 setlinecap
-0 -4.242641 m
2.545584 0 l
0 4.242641 l
-2.545584 0 l
cl

gsave
0.000 0.392 0.000 setrgbcolor
fill
grestore
stroke
grestore
} bind def
99.7441 336.52 o
119.904 336.52 o
grestore
gsave
135.744127 331.480000 translate
0.000000 rotate
/Cmmi10 findfont
14.4 scalefont
setfont
0.000000 0.359375 moveto
/lambda glyphshow

/Cmr10 findfont
10.08 scalefont
setfont
8.389847 -2.089525 moveto
/nine glyphshow

/BitstreamVeraSans-Roman findfont
14.4 scalefont
setfont
14.344903 0.359375 moveto
/space glyphshow

18.914300 0.359375 moveto
/f glyphshow

23.975030 0.359375 moveto
/u glyphshow

33.085748 0.359375 moveto
/l glyphshow

37.079583 0.359375 moveto
/l glyphshow


grestore

end
showpage
