%!PS-Adobe-3.0 EPSF-3.0
%%Title: ID2_Aniso_CW_vs_CCW_difference_vacuum.eps
%%Creator: matplotlib version 1.5.1, http://matplotlib.org/
%%CreationDate: Fri Sep 30 18:09:36 2016
%%Orientation: portrait
%%BoundingBox: 18 180 594 612
%%EndComments
%%BeginProlog
/mpldict 12 dict def
mpldict begin
/m { moveto } bind def
/l { lineto } bind def
/r { rlineto } bind def
/c { curveto } bind def
/cl { closepath } bind def
/box {
m
1 index 0 r
0 exch r
neg 0 r
cl
} bind def
/clipbox {
box
clip
newpath
} bind def
%!PS-Adobe-3.0 Resource-Font
%%Title: cmsy10
%%Copyright: Copyright (C) 1994, Basil K. Malyshev. All Rights Reserved.012BaKoMa Fonts Collection, Level-B.
%%Creator: Converted from TrueType to type 3 by PPR
25 dict begin
/_d{bind def}bind def
/_m{moveto}_d
/_l{lineto}_d
/_cl{closepath eofill}_d
/_c{curveto}_d
/_sc{7 -1 roll{setcachedevice}{pop pop pop pop pop pop}ifelse}_d
/_e{exec}_d
/FontName /Cmsy10 def
/PaintType 0 def
/FontMatrix[.001 0 0 .001 0 0]def
/FontBBox[-29 -960 1123 779]def
/FontType 3 def
/Encoding [ /minus /bar ] def
/FontInfo 10 dict dup begin
/FamilyName (cmsy10) def
/FullName (cmsy10) def
/Notice (Copyright (C) 1994, Basil K. Malyshev. All Rights Reserved.012BaKoMa Fonts Collection, Level-B. ) def
/Weight (Regular) def
/Version (1.1/12-Nov-94) def
/ItalicAngle 0.0 def
/isFixedPitch false def
/UnderlinePosition -133 def
/UnderlineThickness 20 def
end readonly def
/CharStrings 2 dict dup begin
/minus{777 0 83 230 694 270 _sc
102 230 _m
96 230 92 232 88 236 _c
84 240 83 245 83 250 _c
83 254 84 259 88 263 _c
92 267 96 270 102 270 _c
676 270 _l
681 270 685 267 689 263 _c
692 259 694 254 694 250 _c
694 245 692 240 689 236 _c
685 232 681 230 676 230 _c
102 230 _l
_cl}_d
/bar{277 0 119 -249 159 750 _sc
119 -231 _m
119 732 _l
119 737 121 741 125 745 _c
129 748 133 750 139 750 _c
143 750 148 748 152 745 _c
156 741 159 737 159 732 _c
159 -231 _l
159 -236 156 -240 152 -244 _c
148 -247 143 -249 139 -249 _c
133 -249 129 -247 125 -244 _c
121 -240 119 -236 119 -231 _c
_cl}_d
end readonly def

/BuildGlyph
 {exch begin
 CharStrings exch
 2 copy known not{pop /.notdef}if
 true 3 1 roll get exec
 end}_d

/BuildChar {
 1 index /Encoding get exch get
 1 index /BuildGlyph get exec
}_d

FontName currentdict end definefont pop
%!PS-Adobe-3.0 Resource-Font
%%Title: cmmi10
%%Copyright: Copyright (C) 1994, Basil K. Malyshev. All Rights Reserved.012BaKoMa Fonts Collection, Level-B.
%%Creator: Converted from TrueType to type 3 by PPR
25 dict begin
/_d{bind def}bind def
/_m{moveto}_d
/_l{lineto}_d
/_cl{closepath eofill}_d
/_c{curveto}_d
/_sc{7 -1 roll{setcachedevice}{pop pop pop pop pop pop}ifelse}_d
/_e{exec}_d
/FontName /Cmmi10 def
/PaintType 0 def
/FontMatrix[.001 0 0 .001 0 0]def
/FontBBox[-34 -250 1048 750]def
/FontType 3 def
/Encoding [ /lambda /omega /m /W /C /R /c ] def
/FontInfo 10 dict dup begin
/FamilyName (cmmi10) def
/FullName (cmmi10) def
/Notice (Copyright (C) 1994, Basil K. Malyshev. All Rights Reserved.012BaKoMa Fonts Collection, Level-B. ) def
/Weight (Regular) def
/Version (1.1/12-Nov-94) def
/ItalicAngle 0.0 def
/isFixedPitch false def
/UnderlinePosition -133 def
/UnderlineThickness 20 def
end readonly def
/CharStrings 7 dict dup begin
/lambda{{583 0 51 -12 550 694 _sc
51 17 _m
51 27 55 36 64 45 _c
345 321 _l
246 599 _l
238 620 229 637 221 649 _c
212 661 200 668 184 668 _c
176 668 173 672 173 681 _c
173 685 175 688 178 690 _c
180 692 184 694 188 694 _c
258 694 300 673 315 632 _c
518 65 _l
526 36 535 17 545 8 _c
548 2 550 0 550 -1 _c
550 -7 547 -10 542 -10 _c
488 -10 _l
471 -5 458 8 448 32 _c
}_e{357 288 _l
115 4 _l
103 -6 92 -12 83 -12 _c
74 -12 66 -9 60 -4 _c
54 1 51 8 51 17 _c
_cl}_e}_d
/omega{{622 0 14 -10 605 443 _sc
121 -10 _m
83 -10 55 3 39 31 _c
22 58 14 92 14 132 _c
14 158 16 183 21 209 _c
25 234 32 260 42 286 _c
52 312 63 336 75 359 _c
87 381 101 403 117 425 _c
120 429 124 431 129 431 _c
133 431 136 429 139 427 _c
141 424 143 421 143 418 _c
143 414 142 411 140 408 _c
79 324 49 247 49 177 _c
49 146 56 120 70 98 _c
}_e{84 76 105 65 135 65 _c
159 65 182 72 204 87 _c
225 101 244 120 260 143 _c
260 155 262 173 266 198 _c
270 222 276 244 285 264 _c
293 283 304 293 316 293 _c
331 293 339 284 339 266 _c
339 255 336 242 332 226 _c
328 210 323 196 318 182 _c
312 168 306 153 298 136 _c
306 88 329 65 369 65 _c
392 65 415 71 439 85 _c
462 98 482 115 500 137 _c
}_e{518 159 532 182 542 207 _c
552 232 558 256 558 279 _c
558 299 554 314 548 326 _c
542 337 533 349 523 361 _c
513 373 508 383 508 391 _c
508 404 513 416 524 427 _c
535 437 547 443 560 443 _c
576 443 587 435 594 420 _c
601 405 605 388 605 370 _c
605 339 598 300 586 254 _c
574 208 560 169 545 138 _c
523 96 496 60 464 32 _c
432 4 395 -10 355 -10 _c
}_e{329 -10 308 -2 292 12 _c
276 27 266 48 262 75 _c
243 49 222 28 198 13 _c
174 -2 149 -10 121 -10 _c
_cl}_e}_d
/m{{878 0 27 -10 851 442 _sc
77 17 _m
77 21 77 24 78 26 _c
153 324 _l
157 342 160 359 160 373 _c
160 401 150 416 131 416 _c
110 416 94 403 84 378 _c
74 353 64 322 55 284 _c
55 282 54 280 52 279 _c
50 278 48 278 47 278 _c
35 278 _l
33 278 31 279 29 281 _c
27 283 27 286 27 288 _c
34 317 41 342 48 362 _c
54 382 65 400 79 417 _c
}_e{93 433 110 442 132 442 _c
156 442 178 434 198 418 _c
217 402 227 382 227 358 _c
247 384 270 404 297 419 _c
323 434 352 442 382 442 _c
413 442 440 434 463 418 _c
486 402 498 379 498 349 _c
518 378 542 401 570 417 _c
597 433 627 442 660 442 _c
694 442 722 432 743 414 _c
764 395 775 368 775 334 _c
775 306 768 273 756 235 _c
744 196 729 153 711 105 _c
}_e{701 81 697 61 697 45 _c
697 25 704 15 720 15 _c
746 15 767 29 785 57 _c
802 85 814 115 822 147 _c
824 151 826 153 830 153 _c
842 153 _l
844 153 846 152 848 150 _c
850 148 851 146 851 144 _c
851 143 850 142 850 141 _c
840 103 824 68 802 37 _c
780 5 752 -10 718 -10 _c
694 -10 674 -2 658 13 _c
641 29 633 48 633 72 _c
633 83 635 96 641 111 _c
}_e{659 161 675 205 688 245 _c
700 284 707 319 707 349 _c
707 367 703 383 696 396 _c
688 409 676 416 658 416 _c
622 416 590 404 563 382 _c
536 360 513 330 494 294 _c
492 287 491 282 491 279 _c
427 22 _l
424 12 419 5 411 -1 _c
403 -7 394 -10 385 -10 _c
377 -10 370 -7 364 -3 _c
358 1 355 8 355 17 _c
355 21 355 24 356 26 _c
420 281 _l
426 308 430 331 430 349 _c
}_e{430 367 426 383 418 396 _c
410 409 398 416 380 416 _c
355 416 332 410 312 400 _c
292 389 274 375 259 357 _c
243 339 229 318 217 294 _c
149 22 _l
147 12 142 5 134 -1 _c
126 -7 117 -10 107 -10 _c
99 -10 92 -7 86 -3 _c
80 1 77 8 77 17 _c
_cl}_e}_d
/W{{944 0 54 -21 1048 683 _sc
178 -10 _m
132 626 _l
129 636 121 642 109 644 _c
97 646 82 648 64 648 _c
57 648 54 652 54 661 _c
56 669 58 675 60 678 _c
61 681 65 683 71 683 _c
309 683 _l
315 683 319 678 319 670 _c
316 655 312 648 306 648 _c
252 648 224 638 221 620 _c
257 115 _l
507 551 _l
502 626 _l
500 636 492 642 480 644 _c
467 646 452 648 434 648 _c
}_e{427 648 424 652 424 661 _c
426 669 427 675 429 678 _c
430 681 434 683 441 683 _c
679 683 _l
685 683 689 678 689 670 _c
688 668 687 665 687 661 _c
686 657 685 654 683 652 _c
681 649 679 648 676 648 _c
622 648 593 638 591 620 _c
591 613 _l
627 115 _l
899 590 _l
903 597 905 604 905 611 _c
905 624 898 633 885 639 _c
871 645 856 648 840 648 _c
833 648 830 652 830 661 _c
}_e{831 666 832 670 833 673 _c
833 676 835 678 837 680 _c
839 682 843 683 847 683 _c
1038 683 _l
1044 683 1048 678 1048 670 _c
1047 668 1046 665 1045 661 _c
1044 657 1043 653 1041 651 _c
1039 649 1037 648 1035 648 _c
987 648 951 626 927 583 _c
925 581 924 580 924 580 _c
585 -10 _l
581 -17 576 -21 568 -21 _c
560 -21 _l
552 -21 548 -17 548 -10 _c
510 504 _l
216 -10 _l
}_e{210 -17 204 -21 198 -21 _c
190 -21 _l
182 -21 178 -17 178 -10 _c
_cl}_e}_d
/C{{714 0 51 -21 760 705 _sc
146 216 _m
146 176 153 140 169 110 _c
184 79 206 55 236 38 _c
266 21 301 13 341 13 _c
383 13 423 23 462 45 _c
501 67 534 96 562 132 _c
589 168 608 206 618 246 _c
619 250 622 252 626 252 _c
638 252 _l
640 252 642 251 644 249 _c
646 247 647 245 647 243 _c
647 242 646 241 646 240 _c
634 194 612 150 580 110 _c
547 69 508 37 462 14 _c
}_e{416 -9 370 -21 322 -21 _c
270 -21 223 -9 182 13 _c
140 36 108 68 85 110 _c
62 152 51 199 51 252 _c
51 308 63 363 88 418 _c
113 472 147 521 189 564 _c
231 607 280 641 334 667 _c
388 692 443 705 499 705 _c
521 705 542 701 562 695 _c
582 688 601 678 619 664 _c
636 650 650 635 661 617 _c
740 703 _l
740 704 741 705 745 705 _c
751 705 _l
753 705 755 703 757 701 _c
}_e{759 699 760 697 760 695 _c
692 425 _l
692 420 689 418 684 418 _c
666 418 _l
660 418 658 421 658 429 _c
660 443 662 461 662 482 _c
662 514 656 545 645 574 _c
634 602 617 625 594 643 _c
570 661 542 670 509 670 _c
454 670 404 656 359 629 _c
314 601 276 565 244 521 _c
212 477 188 427 171 373 _c
154 319 146 266 146 216 _c
_cl}_e}_d
/R{{759 0 39 -21 755 683 _sc
49 0 _m
42 0 39 4 39 13 _c
39 15 40 18 41 22 _c
41 26 43 29 45 31 _c
47 33 49 35 52 35 _c
92 35 121 37 137 42 _c
145 44 152 53 156 69 _c
293 618 _l
294 624 295 629 295 632 _c
295 639 291 643 283 644 _c
270 646 246 648 211 648 _c
204 648 201 652 201 661 _c
201 663 202 666 203 670 _c
204 674 205 677 207 679 _c
}_e{209 681 211 683 214 683 _c
517 683 _l
541 683 566 680 592 675 _c
618 669 642 661 664 649 _c
686 637 704 621 718 601 _c
732 581 739 558 739 532 _c
739 498 727 468 705 442 _c
683 416 655 394 621 376 _c
587 358 555 346 523 339 _c
549 329 570 314 587 294 _c
603 273 612 249 612 222 _c
612 218 611 216 611 214 _c
611 212 611 210 611 208 _c
603 119 _l
602 106 601 95 601 86 _c
}_e{600 76 600 69 600 64 _c
600 46 602 31 608 20 _c
613 9 624 4 640 4 _c
660 4 679 13 695 33 _c
711 52 721 73 726 96 _c
728 102 732 105 736 105 _c
745 105 _l
751 105 755 100 755 92 _c
750 72 742 54 732 37 _c
721 19 707 5 691 -5 _c
675 -15 657 -21 639 -21 _c
600 -21 567 -12 539 4 _c
511 21 498 48 498 86 _c
498 100 499 112 502 123 _c
524 212 _l
}_e{526 220 528 229 528 240 _c
528 268 518 289 500 305 _c
481 321 457 329 429 329 _c
306 329 _l
240 65 _l
238 59 238 55 238 51 _c
238 44 242 40 250 39 _c
262 36 286 35 322 35 _c
328 35 332 30 332 22 _c
330 12 328 6 327 4 _c
325 1 321 0 315 0 _c
49 0 _l
312 355 _m
423 355 _l
495 355 550 373 587 410 _c
603 427 617 449 627 475 _c
}_e{637 501 642 527 642 553 _c
642 577 634 597 620 611 _c
606 625 588 634 567 640 _c
545 645 522 648 496 648 _c
429 648 _l
411 648 399 646 393 643 _c
387 640 381 630 377 614 _c
312 355 _l
_cl}_e}_d
/c{{432 0 40 -10 430 442 _sc
117 119 _m
117 90 124 65 139 45 _c
154 25 175 15 203 15 _c
243 15 281 24 318 42 _c
354 60 384 86 407 118 _c
409 120 411 121 415 121 _c
418 121 421 119 425 115 _c
428 111 430 108 430 105 _c
430 102 429 100 428 99 _c
404 65 371 38 330 19 _c
288 0 245 -10 201 -10 _c
169 -10 140 -2 116 12 _c
92 26 73 46 60 72 _c
}_e{46 97 40 126 40 158 _c
40 203 52 248 77 292 _c
102 336 135 372 177 400 _c
219 428 263 442 309 442 _c
339 442 366 434 390 420 _c
414 405 426 384 426 356 _c
426 338 420 322 410 309 _c
399 296 385 290 367 290 _c
356 290 347 293 340 300 _c
332 306 329 315 329 326 _c
329 342 334 355 346 366 _c
357 377 370 383 386 383 _c
388 383 _l
380 394 368 402 354 408 _c
}_e{339 413 324 416 308 416 _c
269 416 235 399 206 366 _c
176 332 154 292 139 246 _c
124 200 117 157 117 119 _c
_cl}_e}_d
end readonly def

/BuildGlyph
 {exch begin
 CharStrings exch
 2 copy known not{pop /.notdef}if
 true 3 1 roll get exec
 end}_d

/BuildChar {
 1 index /Encoding get exch get
 1 index /BuildGlyph get exec
}_d

FontName currentdict end definefont pop
%!PS-Adobe-3.0 Resource-Font
%%Title: cmex10
%%Copyright: Copyright (C) 1994, Basil K. Malyshev. All Rights Reserved.012BaKoMa Fonts Collection, Level-B.
%%Creator: Converted from TrueType to type 3 by PPR
25 dict begin
/_d{bind def}bind def
/_m{moveto}_d
/_l{lineto}_d
/_cl{closepath eofill}_d
/_c{curveto}_d
/_sc{7 -1 roll{setcachedevice}{pop pop pop pop pop pop}ifelse}_d
/_e{exec}_d
/FontName /Cmex10 def
/PaintType 0 def
/FontMatrix[.001 0 0 .001 0 0]def
/FontBBox[-24 -2960 1454 772]def
/FontType 3 def
/Encoding [ /bracketleftbig /bracketrightbig ] def
/FontInfo 10 dict dup begin
/FamilyName (cmex10) def
/FullName (cmex10) def
/Notice (Copyright (C) 1994, Basil K. Malyshev. All Rights Reserved.012BaKoMa Fonts Collection, Level-B. ) def
/Weight (Regular) def
/Version (1.1/12-Nov-94) def
/ItalicAngle 0.0 def
/isFixedPitch false def
/UnderlinePosition -133 def
/UnderlineThickness 20 def
end readonly def
/CharStrings 2 dict dup begin
/bracketleftbig{416 0 202 -1158 394 40 _sc
202 -1158 _m
202 40 _l
394 40 _l
394 0 _l
242 0 _l
242 -1118 _l
394 -1118 _l
394 -1158 _l
202 -1158 _l
_cl}_d
/bracketrightbig{416 0 22 -1158 214 40 _sc
22 -1158 _m
22 -1118 _l
174 -1118 _l
174 0 _l
22 0 _l
22 40 _l
214 40 _l
214 -1158 _l
22 -1158 _l
_cl}_d
end readonly def

/BuildGlyph
 {exch begin
 CharStrings exch
 2 copy known not{pop /.notdef}if
 true 3 1 roll get exec
 end}_d

/BuildChar {
 1 index /Encoding get exch get
 1 index /BuildGlyph get exec
}_d

FontName currentdict end definefont pop
%!PS-Adobe-3.0 Resource-Font
%%Title: cmr10
%%Copyright: Copyright (C) 1994, Basil K. Malyshev. All Rights Reserved.012BaKoMa Fonts Collection, Level-B.
%%Creator: Converted from TrueType to type 3 by PPR
25 dict begin
/_d{bind def}bind def
/_m{moveto}_d
/_l{lineto}_d
/_cl{closepath eofill}_d
/_c{curveto}_d
/_sc{7 -1 roll{setcachedevice}{pop pop pop pop pop pop}ifelse}_d
/_e{exec}_d
/FontName /Cmr10 def
/PaintType 0 def
/FontMatrix[.001 0 0 .001 0 0]def
/FontBBox[-44 -250 1009 750]def
/FontType 3 def
/Encoding [ /Delta /zero /one ] def
/FontInfo 10 dict dup begin
/FamilyName (cmr10) def
/FullName (cmr10) def
/Notice (Copyright (C) 1994, Basil K. Malyshev. All Rights Reserved.012BaKoMa Fonts Collection, Level-B. ) def
/Weight (Regular) def
/Version (1.1/12-Nov-94) def
/ItalicAngle 0.0 def
/isFixedPitch false def
/UnderlinePosition -133 def
/UnderlineThickness 20 def
end readonly def
/CharStrings 3 dict dup begin
/Delta{833 0 46 0 786 716 _sc
54 0 _m
48 0 46 2 46 8 _c
46 8 46 9 46 9 _c
46 9 47 10 47 11 _c
391 705 _l
394 712 400 716 409 716 _c
423 716 _l
432 716 438 712 441 705 _c
785 11 _l
785 10 786 9 786 9 _c
786 9 786 8 786 8 _c
786 2 783 0 778 0 _c
54 0 _l
120 80 _m
647 80 _l
384 611 _l
120 80 _l
_cl}_d
/zero{{500 0 39 -21 460 666 _sc
250 -21 _m
168 -21 112 12 83 79 _c
53 146 39 226 39 319 _c
39 377 44 431 55 482 _c
65 533 86 576 118 612 _c
149 648 193 666 250 666 _c
294 666 330 655 358 634 _c
386 612 407 585 422 551 _c
436 517 446 480 452 441 _c
457 402 460 361 460 319 _c
460 261 454 208 444 158 _c
433 108 412 65 381 31 _c
350 -3 306 -21 250 -21 _c
250 4 _m
}_e{287 4 315 23 333 61 _c
351 99 362 141 366 187 _c
370 233 373 283 373 335 _c
373 385 370 431 366 473 _c
362 515 351 554 333 588 _c
315 622 287 640 250 640 _c
212 640 184 622 166 588 _c
148 554 136 515 132 473 _c
128 431 126 385 126 335 _c
126 297 126 262 128 230 _c
130 197 135 163 143 128 _c
151 93 163 64 181 40 _c
198 16 221 4 250 4 _c
_cl}_e}_d
/one{500 0 87 0 421 666 _sc
93 0 _m
93 35 _l
176 35 218 45 218 67 _c
218 592 _l
183 575 139 567 87 567 _c
87 602 _l
168 602 230 623 272 666 _c
286 666 _l
288 666 291 665 293 663 _c
295 661 296 659 296 657 _c
296 67 _l
296 45 337 35 421 35 _c
421 0 _l
93 0 _l
_cl}_d
end readonly def

/BuildGlyph
 {exch begin
 CharStrings exch
 2 copy known not{pop /.notdef}if
 true 3 1 roll get exec
 end}_d

/BuildChar {
 1 index /Encoding get exch get
 1 index /BuildGlyph get exec
}_d

FontName currentdict end definefont pop
%!PS-Adobe-3.0 Resource-Font
%%Title: Bitstream Vera Sans
%%Copyright: Copyright (c) 2003 by Bitstream, Inc. All Rights Reserved.
%%Creator: Converted from TrueType to type 3 by PPR
25 dict begin
/_d{bind def}bind def
/_m{moveto}_d
/_l{lineto}_d
/_cl{closepath eofill}_d
/_c{curveto}_d
/_sc{7 -1 roll{setcachedevice}{pop pop pop pop pop pop}ifelse}_d
/_e{exec}_d
/FontName /BitstreamVeraSans-Roman def
/PaintType 0 def
/FontMatrix[.001 0 0 .001 0 0]def
/FontBBox[-183 -236 1287 928]def
/FontType 3 def
/Encoding [ /space /hyphen /zero /one /two /three /four /five /six /nine /D /E /P /a /d /e /f /i /l /n /r /u /z ] def
/FontInfo 10 dict dup begin
/FamilyName (Bitstream Vera Sans) def
/FullName (Bitstream Vera Sans) def
/Notice (Copyright (c) 2003 by Bitstream, Inc. All Rights Reserved. Bitstream Vera is a trademark of Bitstream, Inc.) def
/Weight (Roman) def
/Version (Release 1.10) def
/ItalicAngle 0.0 def
/isFixedPitch false def
/UnderlinePosition -213 def
/UnderlineThickness 143 def
end readonly def
/CharStrings 23 dict dup begin
/space{318 0 0 0 0 0 _sc
}_d
/hyphen{361 0 49 234 312 314 _sc
49 314 _m
312 314 _l
312 234 _l
49 234 _l
49 314 _l
_cl}_d
/zero{636 0 66 -13 570 742 _sc
318 664 _m
267 664 229 639 203 589 _c
177 539 165 464 165 364 _c
165 264 177 189 203 139 _c
229 89 267 64 318 64 _c
369 64 407 89 433 139 _c
458 189 471 264 471 364 _c
471 464 458 539 433 589 _c
407 639 369 664 318 664 _c
318 742 _m
399 742 461 709 505 645 _c
548 580 570 486 570 364 _c
570 241 548 147 505 83 _c
461 19 399 -13 318 -13 _c
236 -13 173 19 130 83 _c
87 147 66 241 66 364 _c
66 486 87 580 130 645 _c
173 709 236 742 318 742 _c
_cl}_d
/one{636 0 110 0 544 729 _sc
124 83 _m
285 83 _l
285 639 _l
110 604 _l
110 694 _l
284 729 _l
383 729 _l
383 83 _l
544 83 _l
544 0 _l
124 0 _l
124 83 _l
_cl}_d
/two{{636 0 73 0 536 742 _sc
192 83 _m
536 83 _l
536 0 _l
73 0 _l
73 83 _l
110 121 161 173 226 239 _c
290 304 331 346 348 365 _c
380 400 402 430 414 455 _c
426 479 433 504 433 528 _c
433 566 419 598 392 622 _c
365 646 330 659 286 659 _c
255 659 222 653 188 643 _c
154 632 117 616 78 594 _c
78 694 _l
118 710 155 722 189 730 _c
223 738 255 742 284 742 _c
}_e{359 742 419 723 464 685 _c
509 647 532 597 532 534 _c
532 504 526 475 515 449 _c
504 422 484 390 454 354 _c
446 344 420 317 376 272 _c
332 227 271 164 192 83 _c
_cl}_e}_d
/three{{636 0 76 -13 556 742 _sc
406 393 _m
453 383 490 362 516 330 _c
542 298 556 258 556 212 _c
556 140 531 84 482 45 _c
432 6 362 -13 271 -13 _c
240 -13 208 -10 176 -4 _c
144 1 110 10 76 22 _c
76 117 _l
103 101 133 89 166 81 _c
198 73 232 69 268 69 _c
330 69 377 81 409 105 _c
441 129 458 165 458 212 _c
458 254 443 288 413 312 _c
383 336 341 349 287 349 _c
}_e{202 349 _l
202 430 _l
291 430 _l
339 430 376 439 402 459 _c
428 478 441 506 441 543 _c
441 580 427 609 401 629 _c
374 649 336 659 287 659 _c
260 659 231 656 200 650 _c
169 644 135 635 98 623 _c
98 711 _l
135 721 170 729 203 734 _c
235 739 266 742 296 742 _c
370 742 429 725 473 691 _c
517 657 539 611 539 553 _c
539 513 527 479 504 451 _c
481 423 448 403 406 393 _c
_cl}_e}_d
/four{636 0 49 0 580 729 _sc
378 643 _m
129 254 _l
378 254 _l
378 643 _l
352 729 _m
476 729 _l
476 254 _l
580 254 _l
580 172 _l
476 172 _l
476 0 _l
378 0 _l
378 172 _l
49 172 _l
49 267 _l
352 729 _l
_cl}_d
/five{{636 0 77 -13 549 729 _sc
108 729 _m
495 729 _l
495 646 _l
198 646 _l
198 467 _l
212 472 227 476 241 478 _c
255 480 270 482 284 482 _c
365 482 429 459 477 415 _c
525 370 549 310 549 234 _c
549 155 524 94 475 51 _c
426 8 357 -13 269 -13 _c
238 -13 207 -10 175 -6 _c
143 -1 111 6 77 17 _c
77 116 _l
106 100 136 88 168 80 _c
199 72 232 69 267 69 _c
}_e{323 69 368 83 401 113 _c
433 143 450 183 450 234 _c
450 284 433 324 401 354 _c
368 384 323 399 267 399 _c
241 399 214 396 188 390 _c
162 384 135 375 108 363 _c
108 729 _l
_cl}_e}_d
/six{{636 0 70 -13 573 742 _sc
330 404 _m
286 404 251 388 225 358 _c
199 328 186 286 186 234 _c
186 181 199 139 225 109 _c
251 79 286 64 330 64 _c
374 64 409 79 435 109 _c
461 139 474 181 474 234 _c
474 286 461 328 435 358 _c
409 388 374 404 330 404 _c
526 713 _m
526 623 _l
501 635 476 644 451 650 _c
425 656 400 659 376 659 _c
310 659 260 637 226 593 _c
}_e{192 549 172 482 168 394 _c
187 422 211 444 240 459 _c
269 474 301 482 336 482 _c
409 482 467 459 509 415 _c
551 371 573 310 573 234 _c
573 159 550 99 506 54 _c
462 9 403 -13 330 -13 _c
246 -13 181 19 137 83 _c
92 147 70 241 70 364 _c
70 479 97 571 152 639 _c
206 707 280 742 372 742 _c
396 742 421 739 447 735 _c
472 730 498 723 526 713 _c
_cl}_e}_d
/nine{{636 0 63 -13 566 742 _sc
110 15 _m
110 105 _l
134 93 159 84 185 78 _c
210 72 235 69 260 69 _c
324 69 374 90 408 134 _c
442 178 462 244 468 334 _c
448 306 424 284 396 269 _c
367 254 335 247 300 247 _c
226 247 168 269 126 313 _c
84 357 63 417 63 494 _c
63 568 85 628 129 674 _c
173 719 232 742 306 742 _c
390 742 455 709 499 645 _c
543 580 566 486 566 364 _c
}_e{566 248 538 157 484 89 _c
429 21 356 -13 264 -13 _c
239 -13 214 -10 189 -6 _c
163 -2 137 5 110 15 _c
306 324 _m
350 324 385 339 411 369 _c
437 399 450 441 450 494 _c
450 546 437 588 411 618 _c
385 648 350 664 306 664 _c
262 664 227 648 201 618 _c
175 588 162 546 162 494 _c
162 441 175 399 201 369 _c
227 339 262 324 306 324 _c
_cl}_e}_d
/D{770 0 98 0 711 729 _sc
197 648 _m
197 81 _l
316 81 _l
416 81 490 103 537 149 _c
583 195 607 267 607 365 _c
607 463 583 534 537 580 _c
490 625 416 648 316 648 _c
197 648 _l
98 729 _m
301 729 _l
442 729 546 699 612 641 _c
678 582 711 490 711 365 _c
711 239 677 147 611 88 _c
545 29 441 0 301 0 _c
98 0 _l
98 729 _l
_cl}_d
/E{632 0 98 0 568 729 _sc
98 729 _m
559 729 _l
559 646 _l
197 646 _l
197 430 _l
544 430 _l
544 347 _l
197 347 _l
197 83 _l
568 83 _l
568 0 _l
98 0 _l
98 729 _l
_cl}_d
/P{603 0 98 0 569 729 _sc
197 648 _m
197 374 _l
321 374 _l
367 374 402 385 427 409 _c
452 433 465 467 465 511 _c
465 555 452 588 427 612 _c
402 636 367 648 321 648 _c
197 648 _l
98 729 _m
321 729 _l
402 729 464 710 506 673 _c
548 636 569 582 569 511 _c
569 439 548 384 506 348 _c
464 311 402 293 321 293 _c
197 293 _l
197 0 _l
98 0 _l
98 729 _l
_cl}_d
/a{{613 0 60 -13 522 560 _sc
343 275 _m
270 275 220 266 192 250 _c
164 233 150 205 150 165 _c
150 133 160 107 181 89 _c
202 70 231 61 267 61 _c
317 61 357 78 387 114 _c
417 149 432 196 432 255 _c
432 275 _l
343 275 _l
522 312 _m
522 0 _l
432 0 _l
432 83 _l
411 49 385 25 355 10 _c
325 -5 287 -13 243 -13 _c
187 -13 142 2 109 33 _c
76 64 60 106 60 159 _c
}_e{60 220 80 266 122 298 _c
163 329 224 345 306 345 _c
432 345 _l
432 354 _l
432 395 418 427 391 450 _c
364 472 326 484 277 484 _c
245 484 215 480 185 472 _c
155 464 127 453 100 439 _c
100 522 _l
132 534 164 544 195 550 _c
226 556 256 560 286 560 _c
365 560 424 539 463 498 _c
502 457 522 395 522 312 _c
_cl}_e}_d
/d{{635 0 55 -13 544 760 _sc
454 464 _m
454 760 _l
544 760 _l
544 0 _l
454 0 _l
454 82 _l
435 49 411 25 382 10 _c
353 -5 319 -13 279 -13 _c
213 -13 159 13 117 65 _c
75 117 55 187 55 273 _c
55 359 75 428 117 481 _c
159 533 213 560 279 560 _c
319 560 353 552 382 536 _c
411 520 435 496 454 464 _c
148 273 _m
148 207 161 155 188 117 _c
215 79 253 61 301 61 _c
}_e{348 61 385 79 413 117 _c
440 155 454 207 454 273 _c
454 339 440 390 413 428 _c
385 466 348 485 301 485 _c
253 485 215 466 188 428 _c
161 390 148 339 148 273 _c
_cl}_e}_d
/e{{615 0 55 -13 562 560 _sc
562 296 _m
562 252 _l
149 252 _l
153 190 171 142 205 110 _c
238 78 284 62 344 62 _c
378 62 412 66 444 74 _c
476 82 509 95 541 113 _c
541 28 _l
509 14 476 3 442 -3 _c
408 -9 373 -13 339 -13 _c
251 -13 182 12 131 62 _c
80 112 55 181 55 268 _c
55 357 79 428 127 481 _c
175 533 241 560 323 560 _c
397 560 455 536 498 489 _c
}_e{540 441 562 377 562 296 _c
472 322 _m
471 371 457 410 431 440 _c
404 469 368 484 324 484 _c
274 484 234 469 204 441 _c
174 413 156 373 152 322 _c
472 322 _l
_cl}_e}_d
/f{352 0 23 0 371 760 _sc
371 760 _m
371 685 _l
285 685 _l
253 685 230 678 218 665 _c
205 652 199 629 199 595 _c
199 547 _l
347 547 _l
347 477 _l
199 477 _l
199 0 _l
109 0 _l
109 477 _l
23 477 _l
23 547 _l
109 547 _l
109 585 _l
109 645 123 690 151 718 _c
179 746 224 760 286 760 _c
371 760 _l
_cl}_d
/i{278 0 94 0 184 760 _sc
94 547 _m
184 547 _l
184 0 _l
94 0 _l
94 547 _l
94 760 _m
184 760 _l
184 646 _l
94 646 _l
94 760 _l
_cl}_d
/l{278 0 94 0 184 760 _sc
94 760 _m
184 760 _l
184 0 _l
94 0 _l
94 760 _l
_cl}_d
/n{634 0 91 0 549 560 _sc
549 330 _m
549 0 _l
459 0 _l
459 327 _l
459 379 448 417 428 443 _c
408 469 378 482 338 482 _c
289 482 251 466 223 435 _c
195 404 181 362 181 309 _c
181 0 _l
91 0 _l
91 547 _l
181 547 _l
181 462 _l
202 494 227 519 257 535 _c
286 551 320 560 358 560 _c
420 560 468 540 500 501 _c
532 462 549 405 549 330 _c
_cl}_d
/r{411 0 91 0 411 560 _sc
411 463 _m
401 469 390 473 378 476 _c
366 478 353 480 339 480 _c
288 480 249 463 222 430 _c
194 397 181 350 181 288 _c
181 0 _l
91 0 _l
91 547 _l
181 547 _l
181 462 _l
199 495 224 520 254 536 _c
284 552 321 560 365 560 _c
371 560 378 559 386 559 _c
393 558 401 557 411 555 _c
411 463 _l
_cl}_d
/u{634 0 85 -13 543 547 _sc
85 216 _m
85 547 _l
175 547 _l
175 219 _l
175 167 185 129 205 103 _c
225 77 255 64 296 64 _c
344 64 383 79 411 110 _c
439 141 453 183 453 237 _c
453 547 _l
543 547 _l
543 0 _l
453 0 _l
453 84 _l
431 50 405 26 377 10 _c
348 -5 315 -13 277 -13 _c
214 -13 166 6 134 45 _c
101 83 85 140 85 216 _c
_cl}_d
/z{525 0 43 0 482 547 _sc
55 547 _m
482 547 _l
482 465 _l
144 72 _l
482 72 _l
482 0 _l
43 0 _l
43 82 _l
381 475 _l
55 475 _l
55 547 _l
_cl}_d
end readonly def

/BuildGlyph
 {exch begin
 CharStrings exch
 2 copy known not{pop /.notdef}if
 true 3 1 roll get exec
 end}_d

/BuildChar {
 1 index /Encoding get exch get
 1 index /BuildGlyph get exec
}_d

FontName currentdict end definefont pop
end
%%EndProlog
mpldict begin
18 180 translate
576 432 0 0 clipbox
100000 setmiterlimit
gsave
0 0 m
576 0 l
576 432 l
0 432 l
cl
1.000 setgray
fill
grestore
gsave
77.562097 65.282076 m
548.459097 65.282076 l
548.459097 410.1525 l
77.562097 410.1525 l
cl
1.000 setgray
fill
grestore
1.500 setlinewidth
0 setlinejoin
0 setlinecap
[] 0 setdash
0.000 setgray
gsave
470.9 344.9 77.56 65.28 clipbox
375.195494 479.126585 m
stroke
grestore
1.000 setlinewidth
gsave
470.9 344.9 77.56 65.28 clipbox
609.012128 65.282076 m
609.012128 410.1525 l
683.984707 410.1525 l
683.984707 65.282076 l
cl
  << /PatternType 1
     /PaintType 2
     /TilingType 2
     /BBox[0 0 72 72]
     /XStep 72
     /YStep 72

     /PaintProc {
        pop
        0 setlinewidth
-36 36 m
36 108 l
-24 24 m
48 96 l
-12 12 m
60 84 l
0 0 m
72 72 l
12 -12 m
84 60 l
24 -24 m
96 48 l
36 -36 m
108 36 l
-36 36 m
36 -36 l
-24 48 m
48 -24 l
-12 60 m
60 -12 l
0 72 m
72 0 l
12 84 m
84 12 l
24 96 m
96 24 l
36 108 m
108 36 l
          stroke
     } bind
   >>
   matrix
   makepattern
   /H0 exch def
gsave
[/Pattern [/DeviceRGB]] setcolorspace 0.000000 0.000000 0.000000 H0 setcolor fill grestore
stroke
grestore
2.500 setlinewidth
1 setlinejoin
2 setlinecap
0.545 0.000 0.000 setrgbcolor
gsave
470.9 344.9 77.56 65.28 clipbox
77.562097 203.812532 m
89.9381 204.406744 l
102.314019 204.9643 l
114.690024 203.838614 l
127.066047 203.497765 l
139.441897 204.712151 l
151.817979 204.124026 l
164.193898 204.124026 l
176.569902 204.124026 l
188.945821 203.550456 l
201.321825 203.838614 l
213.697848 204.9643 l
226.073698 204.686819 l
238.44978 204.686819 l
250.8257 204.124026 l
263.201703 203.524122 l
275.577622 204.9643 l
287.953627 204.686819 l
300.32965 203.232909 l
312.7055 203.524122 l
325.081582 204.406744 l
337.457501 204.124026 l
349.833505 203.524122 l
362.209424 204.989398 l
374.585428 204.124026 l
386.961451 203.812532 l
399.337301 202.911958 l
411.713383 204.406744 l
424.089303 204.381153 l
436.465306 203.838614 l
448.841225 203.838614 l
461.21723 204.9643 l
473.593253 204.712151 l
485.969103 203.838614 l
498.345185 204.9643 l
510.721104 202.938836 l
523.097108 204.124026 l
535.473027 204.9643 l
547.849031 204.712151 l
560.225054 204.686819 l
stroke
grestore
0.500 setlinewidth
0 setlinecap
0.000 setgray
gsave
470.9 344.9 77.56 65.28 clipbox
/o {
gsave
newpath
translate
0.5 setlinewidth
1 setlinejoin
0 setlinecap
0 -3 m
0.795609 -3 1.55874 -2.683901 2.12132 -2.12132 c
2.683901 -1.55874 3 -0.795609 3 0 c
3 0.795609 2.683901 1.55874 2.12132 2.12132 c
1.55874 2.683901 0.795609 3 0 3 c
-0.795609 3 -1.55874 2.683901 -2.12132 2.12132 c
-2.683901 1.55874 -3 0.795609 -3 0 c
-3 -0.795609 -2.683901 -1.55874 -2.12132 -2.12132 c
-1.55874 -2.683901 -0.795609 -3 0 -3 c
cl

gsave
0.545 0.000 0.000 setrgbcolor
fill
grestore
stroke
grestore
} bind def
77.5621 203.813 o
89.9381 204.407 o
102.314 204.964 o
114.69 203.839 o
127.066 203.498 o
139.442 204.712 o
151.818 204.124 o
164.194 204.124 o
176.57 204.124 o
188.946 203.55 o
201.322 203.839 o
213.698 204.964 o
226.074 204.687 o
238.45 204.687 o
250.826 204.124 o
263.202 203.524 o
275.578 204.964 o
287.954 204.687 o
300.33 203.233 o
312.705 203.524 o
325.082 204.407 o
337.458 204.124 o
349.834 203.524 o
362.209 204.989 o
374.585 204.124 o
386.961 203.813 o
399.337 202.912 o
411.713 204.407 o
424.089 204.381 o
436.465 203.839 o
448.841 203.839 o
461.217 204.964 o
473.593 204.712 o
485.969 203.839 o
498.345 204.964 o
510.721 202.939 o
523.097 204.124 o
535.473 204.964 o
547.849 204.712 o
560.225 204.687 o
grestore
2.500 setlinewidth
2 setlinecap
0.545 0.000 0.000 setrgbcolor
gsave
470.9 344.9 77.56 65.28 clipbox
77.562097 150.244453 m
89.9381 142.040098 l
102.314019 150.08803 l
114.690024 123.261334 l
127.066047 142.24457 l
139.441897 131.002073 l
151.817979 148.311198 l
164.193898 137.147686 l
176.569902 141.834221 l
201.321825 127.547929 m
213.697848 131.002073 l
226.073698 134.098778 l
238.44978 137.147686 l
250.8257 139.693663 l
263.201703 123.261334 l
275.577622 134.365047 l
287.953627 137.147686 l
300.32965 136.905133 l
312.7055 139.914734 l
325.081582 144.406201 l
337.457501 146.244512 l
349.833505 139.693663 l
362.209424 123.261334 l
374.585428 142.040098 l
386.961451 146.422287 l
399.337301 139.693663 l
411.713383 127.213232 l
424.089303 137.147686 l
436.465306 142.040098 l
448.841225 137.38829 l
461.21723 142.24457 l
473.593253 131.002073 l
485.969103 113.33551 l
498.345185 137.147686 l
510.721104 142.040098 l
523.097108 134.098778 l
535.473027 146.422287 l
547.849031 151.765342 l
683.984707 355.476765 m
stroke
grestore
0.500 setlinewidth
0 setlinejoin
0 setlinecap
0.000 setgray
gsave
470.9 344.9 77.56 65.28 clipbox
/o {
gsave
newpath
translate
0.5 setlinewidth
0 setlinejoin
0 setlinecap
-0 -4.242641 m
2.545584 0 l
0 4.242641 l
-2.545584 0 l
cl

gsave
0.545 0.000 0.000 setrgbcolor
fill
grestore
stroke
grestore
} bind def
77.5621 150.244 o
89.9381 142.04 o
102.314 150.088 o
114.69 123.261 o
127.066 142.245 o
139.442 131.002 o
151.818 148.311 o
164.194 137.148 o
176.57 141.834 o
201.322 127.548 o
213.698 131.002 o
226.074 134.099 o
238.45 137.148 o
250.826 139.694 o
263.202 123.261 o
275.578 134.365 o
287.954 137.148 o
300.33 136.905 o
312.705 139.915 o
325.082 144.406 o
337.458 146.245 o
349.834 139.694 o
362.209 123.261 o
374.585 142.04 o
386.961 146.422 o
399.337 139.694 o
411.713 127.213 o
424.089 137.148 o
436.465 142.04 o
448.841 137.388 o
461.217 142.245 o
473.593 131.002 o
485.969 113.336 o
498.345 137.148 o
510.721 142.04 o
523.097 134.099 o
535.473 146.422 o
547.849 151.765 o
683.985 355.477 o
grestore
1.000 setlinewidth
2 setlinecap
gsave
77.562097 410.1525 m
548.459097 410.1525 l
stroke
grestore
gsave
548.459097 65.282076 m
548.459097 410.1525 l
stroke
grestore
gsave
77.562097 65.282076 m
548.459097 65.282076 l
stroke
grestore
gsave
77.562097 65.282076 m
77.562097 410.1525 l
stroke
grestore
0.500 setlinewidth
1 setlinejoin
0 setlinecap
[1 3] 0 setdash
gsave
470.9 344.9 77.56 65.28 clipbox
115.300089 65.282076 m
115.300089 410.1525 l
stroke
grestore
[] 0 setdash
gsave
/o {
gsave
newpath
translate
0.5 setlinewidth
1 setlinejoin
0 setlinecap
0 0 m
0 4 l

gsave
0.000 setgray
fill
grestore
stroke
grestore
} bind def
115.3 65.2821 o
grestore
gsave
/o {
gsave
newpath
translate
0.5 setlinewidth
1 setlinejoin
0 setlinecap
0 0 m
0 -4 l

gsave
0.000 setgray
fill
grestore
stroke
grestore
} bind def
115.3 410.153 o
grestore
gsave
100.300089 49.188326 translate
0.000000 rotate
/BitstreamVeraSans-Roman findfont
14.0 scalefont
setfont
0.000000 0.111563 moveto
/one glyphshow

8.907227 0.111563 moveto
/zero glyphshow

/BitstreamVeraSans-Roman findfont
9.8 scalefont
setfont
18.586203 6.726563 moveto
/hyphen glyphshow

22.122434 6.726563 moveto
/six glyphshow


grestore
[1 3] 0 setdash
gsave
470.9 344.9 77.56 65.28 clipbox
201.931891 65.282076 m
201.931891 410.1525 l
stroke
grestore
[] 0 setdash
gsave
/o {
gsave
newpath
translate
0.5 setlinewidth
1 setlinejoin
0 setlinecap
0 0 m
0 4 l

gsave
0.000 setgray
fill
grestore
stroke
grestore
} bind def
201.932 65.2821 o
grestore
gsave
/o {
gsave
newpath
translate
0.5 setlinewidth
1 setlinejoin
0 setlinecap
0 0 m
0 -4 l

gsave
0.000 setgray
fill
grestore
stroke
grestore
} bind def
201.932 410.153 o
grestore
gsave
186.931891 49.188326 translate
0.000000 rotate
/BitstreamVeraSans-Roman findfont
14.0 scalefont
setfont
0.000000 0.242812 moveto
/one glyphshow

8.907227 0.242812 moveto
/zero glyphshow

/BitstreamVeraSans-Roman findfont
9.8 scalefont
setfont
18.586203 6.857812 moveto
/hyphen glyphshow

22.122434 6.857812 moveto
/five glyphshow


grestore
[1 3] 0 setdash
gsave
470.9 344.9 77.56 65.28 clipbox
288.563692 65.282076 m
288.563692 410.1525 l
stroke
grestore
[] 0 setdash
gsave
/o {
gsave
newpath
translate
0.5 setlinewidth
1 setlinejoin
0 setlinecap
0 0 m
0 4 l

gsave
0.000 setgray
fill
grestore
stroke
grestore
} bind def
288.564 65.2821 o
grestore
gsave
/o {
gsave
newpath
translate
0.5 setlinewidth
1 setlinejoin
0 setlinecap
0 0 m
0 -4 l

gsave
0.000 setgray
fill
grestore
stroke
grestore
} bind def
288.564 410.153 o
grestore
gsave
273.563692 49.188326 translate
0.000000 rotate
/BitstreamVeraSans-Roman findfont
14.0 scalefont
setfont
0.000000 0.242812 moveto
/one glyphshow

8.907227 0.242812 moveto
/zero glyphshow

/BitstreamVeraSans-Roman findfont
9.8 scalefont
setfont
18.586203 6.857812 moveto
/hyphen glyphshow

22.122434 6.857812 moveto
/four glyphshow


grestore
[1 3] 0 setdash
gsave
470.9 344.9 77.56 65.28 clipbox
375.195494 65.282076 m
375.195494 410.1525 l
stroke
grestore
[] 0 setdash
gsave
/o {
gsave
newpath
translate
0.5 setlinewidth
1 setlinejoin
0 setlinecap
0 0 m
0 4 l

gsave
0.000 setgray
fill
grestore
stroke
grestore
} bind def
375.195 65.2821 o
grestore
gsave
/o {
gsave
newpath
translate
0.5 setlinewidth
1 setlinejoin
0 setlinecap
0 0 m
0 -4 l

gsave
0.000 setgray
fill
grestore
stroke
grestore
} bind def
375.195 410.153 o
grestore
gsave
360.195494 49.188326 translate
0.000000 rotate
/BitstreamVeraSans-Roman findfont
14.0 scalefont
setfont
0.000000 0.111563 moveto
/one glyphshow

8.907227 0.111563 moveto
/zero glyphshow

/BitstreamVeraSans-Roman findfont
9.8 scalefont
setfont
18.586203 6.726563 moveto
/hyphen glyphshow

22.122434 6.726563 moveto
/three glyphshow


grestore
[1 3] 0 setdash
gsave
470.9 344.9 77.56 65.28 clipbox
461.827295 65.282076 m
461.827295 410.1525 l
stroke
grestore
[] 0 setdash
gsave
/o {
gsave
newpath
translate
0.5 setlinewidth
1 setlinejoin
0 setlinecap
0 0 m
0 4 l

gsave
0.000 setgray
fill
grestore
stroke
grestore
} bind def
461.827 65.2821 o
grestore
gsave
/o {
gsave
newpath
translate
0.5 setlinewidth
1 setlinejoin
0 setlinecap
0 0 m
0 -4 l

gsave
0.000 setgray
fill
grestore
stroke
grestore
} bind def
461.827 410.153 o
grestore
gsave
446.827295 49.188326 translate
0.000000 rotate
/BitstreamVeraSans-Roman findfont
14.0 scalefont
setfont
0.000000 0.111563 moveto
/one glyphshow

8.907227 0.111563 moveto
/zero glyphshow

/BitstreamVeraSans-Roman findfont
9.8 scalefont
setfont
18.586203 6.726563 moveto
/hyphen glyphshow

22.122434 6.726563 moveto
/two glyphshow


grestore
[1 3] 0 setdash
gsave
470.9 344.9 77.56 65.28 clipbox
548.459097 65.282076 m
548.459097 410.1525 l
stroke
grestore
[] 0 setdash
gsave
/o {
gsave
newpath
translate
0.5 setlinewidth
1 setlinejoin
0 setlinecap
0 0 m
0 4 l

gsave
0.000 setgray
fill
grestore
stroke
grestore
} bind def
548.459 65.2821 o
grestore
gsave
/o {
gsave
newpath
translate
0.5 setlinewidth
1 setlinejoin
0 setlinecap
0 0 m
0 -4 l

gsave
0.000 setgray
fill
grestore
stroke
grestore
} bind def
548.459 410.153 o
grestore
gsave
533.459097 49.188326 translate
0.000000 rotate
/BitstreamVeraSans-Roman findfont
14.0 scalefont
setfont
0.000000 0.242812 moveto
/one glyphshow

8.907227 0.242812 moveto
/zero glyphshow

/BitstreamVeraSans-Roman findfont
9.8 scalefont
setfont
18.586203 6.857812 moveto
/hyphen glyphshow

22.122434 6.857812 moveto
/one glyphshow


grestore
gsave
/o {
gsave
newpath
translate
0.5 setlinewidth
1 setlinejoin
0 setlinecap
0 0 m
0 2 l

gsave
0.000 setgray
fill
grestore
stroke
grestore
} bind def
80.8258 65.2821 o
grestore
gsave
/o {
gsave
newpath
translate
0.5 setlinewidth
1 setlinejoin
0 setlinecap
0 0 m
0 -2 l

gsave
0.000 setgray
fill
grestore
stroke
grestore
} bind def
80.8258 410.153 o
grestore
gsave
/o {
gsave
newpath
translate
0.5 setlinewidth
1 setlinejoin
0 setlinecap
0 0 m
0 2 l

gsave
0.000 setgray
fill
grestore
stroke
grestore
} bind def
89.2213 65.2821 o
grestore
gsave
/o {
gsave
newpath
translate
0.5 setlinewidth
1 setlinejoin
0 setlinecap
0 0 m
0 -2 l

gsave
0.000 setgray
fill
grestore
stroke
grestore
} bind def
89.2213 410.153 o
grestore
gsave
/o {
gsave
newpath
translate
0.5 setlinewidth
1 setlinejoin
0 setlinecap
0 0 m
0 2 l

gsave
0.000 setgray
fill
grestore
stroke
grestore
} bind def
96.0809 65.2821 o
grestore
gsave
/o {
gsave
newpath
translate
0.5 setlinewidth
1 setlinejoin
0 setlinecap
0 0 m
0 -2 l

gsave
0.000 setgray
fill
grestore
stroke
grestore
} bind def
96.0809 410.153 o
grestore
gsave
/o {
gsave
newpath
translate
0.5 setlinewidth
1 setlinejoin
0 setlinecap
0 0 m
0 2 l

gsave
0.000 setgray
fill
grestore
stroke
grestore
} bind def
101.881 65.2821 o
grestore
gsave
/o {
gsave
newpath
translate
0.5 setlinewidth
1 setlinejoin
0 setlinecap
0 0 m
0 -2 l

gsave
0.000 setgray
fill
grestore
stroke
grestore
} bind def
101.881 410.153 o
grestore
gsave
/o {
gsave
newpath
translate
0.5 setlinewidth
1 setlinejoin
0 setlinecap
0 0 m
0 2 l

gsave
0.000 setgray
fill
grestore
stroke
grestore
} bind def
106.905 65.2821 o
grestore
gsave
/o {
gsave
newpath
translate
0.5 setlinewidth
1 setlinejoin
0 setlinecap
0 0 m
0 -2 l

gsave
0.000 setgray
fill
grestore
stroke
grestore
} bind def
106.905 410.153 o
grestore
gsave
/o {
gsave
newpath
translate
0.5 setlinewidth
1 setlinejoin
0 setlinecap
0 0 m
0 2 l

gsave
0.000 setgray
fill
grestore
stroke
grestore
} bind def
111.336 65.2821 o
grestore
gsave
/o {
gsave
newpath
translate
0.5 setlinewidth
1 setlinejoin
0 setlinecap
0 0 m
0 -2 l

gsave
0.000 setgray
fill
grestore
stroke
grestore
} bind def
111.336 410.153 o
grestore
gsave
/o {
gsave
newpath
translate
0.5 setlinewidth
1 setlinejoin
0 setlinecap
0 0 m
0 2 l

gsave
0.000 setgray
fill
grestore
stroke
grestore
} bind def
141.379 65.2821 o
grestore
gsave
/o {
gsave
newpath
translate
0.5 setlinewidth
1 setlinejoin
0 setlinecap
0 0 m
0 -2 l

gsave
0.000 setgray
fill
grestore
stroke
grestore
} bind def
141.379 410.153 o
grestore
gsave
/o {
gsave
newpath
translate
0.5 setlinewidth
1 setlinejoin
0 setlinecap
0 0 m
0 2 l

gsave
0.000 setgray
fill
grestore
stroke
grestore
} bind def
156.634 65.2821 o
grestore
gsave
/o {
gsave
newpath
translate
0.5 setlinewidth
1 setlinejoin
0 setlinecap
0 0 m
0 -2 l

gsave
0.000 setgray
fill
grestore
stroke
grestore
} bind def
156.634 410.153 o
grestore
gsave
/o {
gsave
newpath
translate
0.5 setlinewidth
1 setlinejoin
0 setlinecap
0 0 m
0 2 l

gsave
0.000 setgray
fill
grestore
stroke
grestore
} bind def
167.458 65.2821 o
grestore
gsave
/o {
gsave
newpath
translate
0.5 setlinewidth
1 setlinejoin
0 setlinecap
0 0 m
0 -2 l

gsave
0.000 setgray
fill
grestore
stroke
grestore
} bind def
167.458 410.153 o
grestore
gsave
/o {
gsave
newpath
translate
0.5 setlinewidth
1 setlinejoin
0 setlinecap
0 0 m
0 2 l

gsave
0.000 setgray
fill
grestore
stroke
grestore
} bind def
175.853 65.2821 o
grestore
gsave
/o {
gsave
newpath
translate
0.5 setlinewidth
1 setlinejoin
0 setlinecap
0 0 m
0 -2 l

gsave
0.000 setgray
fill
grestore
stroke
grestore
} bind def
175.853 410.153 o
grestore
gsave
/o {
gsave
newpath
translate
0.5 setlinewidth
1 setlinejoin
0 setlinecap
0 0 m
0 2 l

gsave
0.000 setgray
fill
grestore
stroke
grestore
} bind def
182.713 65.2821 o
grestore
gsave
/o {
gsave
newpath
translate
0.5 setlinewidth
1 setlinejoin
0 setlinecap
0 0 m
0 -2 l

gsave
0.000 setgray
fill
grestore
stroke
grestore
} bind def
182.713 410.153 o
grestore
gsave
/o {
gsave
newpath
translate
0.5 setlinewidth
1 setlinejoin
0 setlinecap
0 0 m
0 2 l

gsave
0.000 setgray
fill
grestore
stroke
grestore
} bind def
188.512 65.2821 o
grestore
gsave
/o {
gsave
newpath
translate
0.5 setlinewidth
1 setlinejoin
0 setlinecap
0 0 m
0 -2 l

gsave
0.000 setgray
fill
grestore
stroke
grestore
} bind def
188.512 410.153 o
grestore
gsave
/o {
gsave
newpath
translate
0.5 setlinewidth
1 setlinejoin
0 setlinecap
0 0 m
0 2 l

gsave
0.000 setgray
fill
grestore
stroke
grestore
} bind def
193.536 65.2821 o
grestore
gsave
/o {
gsave
newpath
translate
0.5 setlinewidth
1 setlinejoin
0 setlinecap
0 0 m
0 -2 l

gsave
0.000 setgray
fill
grestore
stroke
grestore
} bind def
193.536 410.153 o
grestore
gsave
/o {
gsave
newpath
translate
0.5 setlinewidth
1 setlinejoin
0 setlinecap
0 0 m
0 2 l

gsave
0.000 setgray
fill
grestore
stroke
grestore
} bind def
197.968 65.2821 o
grestore
gsave
/o {
gsave
newpath
translate
0.5 setlinewidth
1 setlinejoin
0 setlinecap
0 0 m
0 -2 l

gsave
0.000 setgray
fill
grestore
stroke
grestore
} bind def
197.968 410.153 o
grestore
gsave
/o {
gsave
newpath
translate
0.5 setlinewidth
1 setlinejoin
0 setlinecap
0 0 m
0 2 l

gsave
0.000 setgray
fill
grestore
stroke
grestore
} bind def
228.011 65.2821 o
grestore
gsave
/o {
gsave
newpath
translate
0.5 setlinewidth
1 setlinejoin
0 setlinecap
0 0 m
0 -2 l

gsave
0.000 setgray
fill
grestore
stroke
grestore
} bind def
228.011 410.153 o
grestore
gsave
/o {
gsave
newpath
translate
0.5 setlinewidth
1 setlinejoin
0 setlinecap
0 0 m
0 2 l

gsave
0.000 setgray
fill
grestore
stroke
grestore
} bind def
243.266 65.2821 o
grestore
gsave
/o {
gsave
newpath
translate
0.5 setlinewidth
1 setlinejoin
0 setlinecap
0 0 m
0 -2 l

gsave
0.000 setgray
fill
grestore
stroke
grestore
} bind def
243.266 410.153 o
grestore
gsave
/o {
gsave
newpath
translate
0.5 setlinewidth
1 setlinejoin
0 setlinecap
0 0 m
0 2 l

gsave
0.000 setgray
fill
grestore
stroke
grestore
} bind def
254.089 65.2821 o
grestore
gsave
/o {
gsave
newpath
translate
0.5 setlinewidth
1 setlinejoin
0 setlinecap
0 0 m
0 -2 l

gsave
0.000 setgray
fill
grestore
stroke
grestore
} bind def
254.089 410.153 o
grestore
gsave
/o {
gsave
newpath
translate
0.5 setlinewidth
1 setlinejoin
0 setlinecap
0 0 m
0 2 l

gsave
0.000 setgray
fill
grestore
stroke
grestore
} bind def
262.485 65.2821 o
grestore
gsave
/o {
gsave
newpath
translate
0.5 setlinewidth
1 setlinejoin
0 setlinecap
0 0 m
0 -2 l

gsave
0.000 setgray
fill
grestore
stroke
grestore
} bind def
262.485 410.153 o
grestore
gsave
/o {
gsave
newpath
translate
0.5 setlinewidth
1 setlinejoin
0 setlinecap
0 0 m
0 2 l

gsave
0.000 setgray
fill
grestore
stroke
grestore
} bind def
269.345 65.2821 o
grestore
gsave
/o {
gsave
newpath
translate
0.5 setlinewidth
1 setlinejoin
0 setlinecap
0 0 m
0 -2 l

gsave
0.000 setgray
fill
grestore
stroke
grestore
} bind def
269.345 410.153 o
grestore
gsave
/o {
gsave
newpath
translate
0.5 setlinewidth
1 setlinejoin
0 setlinecap
0 0 m
0 2 l

gsave
0.000 setgray
fill
grestore
stroke
grestore
} bind def
275.144 65.2821 o
grestore
gsave
/o {
gsave
newpath
translate
0.5 setlinewidth
1 setlinejoin
0 setlinecap
0 0 m
0 -2 l

gsave
0.000 setgray
fill
grestore
stroke
grestore
} bind def
275.144 410.153 o
grestore
gsave
/o {
gsave
newpath
translate
0.5 setlinewidth
1 setlinejoin
0 setlinecap
0 0 m
0 2 l

gsave
0.000 setgray
fill
grestore
stroke
grestore
} bind def
280.168 65.2821 o
grestore
gsave
/o {
gsave
newpath
translate
0.5 setlinewidth
1 setlinejoin
0 setlinecap
0 0 m
0 -2 l

gsave
0.000 setgray
fill
grestore
stroke
grestore
} bind def
280.168 410.153 o
grestore
gsave
/o {
gsave
newpath
translate
0.5 setlinewidth
1 setlinejoin
0 setlinecap
0 0 m
0 2 l

gsave
0.000 setgray
fill
grestore
stroke
grestore
} bind def
284.6 65.2821 o
grestore
gsave
/o {
gsave
newpath
translate
0.5 setlinewidth
1 setlinejoin
0 setlinecap
0 0 m
0 -2 l

gsave
0.000 setgray
fill
grestore
stroke
grestore
} bind def
284.6 410.153 o
grestore
gsave
/o {
gsave
newpath
translate
0.5 setlinewidth
1 setlinejoin
0 setlinecap
0 0 m
0 2 l

gsave
0.000 setgray
fill
grestore
stroke
grestore
} bind def
314.642 65.2821 o
grestore
gsave
/o {
gsave
newpath
translate
0.5 setlinewidth
1 setlinejoin
0 setlinecap
0 0 m
0 -2 l

gsave
0.000 setgray
fill
grestore
stroke
grestore
} bind def
314.642 410.153 o
grestore
gsave
/o {
gsave
newpath
translate
0.5 setlinewidth
1 setlinejoin
0 setlinecap
0 0 m
0 2 l

gsave
0.000 setgray
fill
grestore
stroke
grestore
} bind def
329.898 65.2821 o
grestore
gsave
/o {
gsave
newpath
translate
0.5 setlinewidth
1 setlinejoin
0 setlinecap
0 0 m
0 -2 l

gsave
0.000 setgray
fill
grestore
stroke
grestore
} bind def
329.898 410.153 o
grestore
gsave
/o {
gsave
newpath
translate
0.5 setlinewidth
1 setlinejoin
0 setlinecap
0 0 m
0 2 l

gsave
0.000 setgray
fill
grestore
stroke
grestore
} bind def
340.721 65.2821 o
grestore
gsave
/o {
gsave
newpath
translate
0.5 setlinewidth
1 setlinejoin
0 setlinecap
0 0 m
0 -2 l

gsave
0.000 setgray
fill
grestore
stroke
grestore
} bind def
340.721 410.153 o
grestore
gsave
/o {
gsave
newpath
translate
0.5 setlinewidth
1 setlinejoin
0 setlinecap
0 0 m
0 2 l

gsave
0.000 setgray
fill
grestore
stroke
grestore
} bind def
349.117 65.2821 o
grestore
gsave
/o {
gsave
newpath
translate
0.5 setlinewidth
1 setlinejoin
0 setlinecap
0 0 m
0 -2 l

gsave
0.000 setgray
fill
grestore
stroke
grestore
} bind def
349.117 410.153 o
grestore
gsave
/o {
gsave
newpath
translate
0.5 setlinewidth
1 setlinejoin
0 setlinecap
0 0 m
0 2 l

gsave
0.000 setgray
fill
grestore
stroke
grestore
} bind def
355.976 65.2821 o
grestore
gsave
/o {
gsave
newpath
translate
0.5 setlinewidth
1 setlinejoin
0 setlinecap
0 0 m
0 -2 l

gsave
0.000 setgray
fill
grestore
stroke
grestore
} bind def
355.976 410.153 o
grestore
gsave
/o {
gsave
newpath
translate
0.5 setlinewidth
1 setlinejoin
0 setlinecap
0 0 m
0 2 l

gsave
0.000 setgray
fill
grestore
stroke
grestore
} bind def
361.776 65.2821 o
grestore
gsave
/o {
gsave
newpath
translate
0.5 setlinewidth
1 setlinejoin
0 setlinecap
0 0 m
0 -2 l

gsave
0.000 setgray
fill
grestore
stroke
grestore
} bind def
361.776 410.153 o
grestore
gsave
/o {
gsave
newpath
translate
0.5 setlinewidth
1 setlinejoin
0 setlinecap
0 0 m
0 2 l

gsave
0.000 setgray
fill
grestore
stroke
grestore
} bind def
366.8 65.2821 o
grestore
gsave
/o {
gsave
newpath
translate
0.5 setlinewidth
1 setlinejoin
0 setlinecap
0 0 m
0 -2 l

gsave
0.000 setgray
fill
grestore
stroke
grestore
} bind def
366.8 410.153 o
grestore
gsave
/o {
gsave
newpath
translate
0.5 setlinewidth
1 setlinejoin
0 setlinecap
0 0 m
0 2 l

gsave
0.000 setgray
fill
grestore
stroke
grestore
} bind def
371.231 65.2821 o
grestore
gsave
/o {
gsave
newpath
translate
0.5 setlinewidth
1 setlinejoin
0 setlinecap
0 0 m
0 -2 l

gsave
0.000 setgray
fill
grestore
stroke
grestore
} bind def
371.231 410.153 o
grestore
gsave
/o {
gsave
newpath
translate
0.5 setlinewidth
1 setlinejoin
0 setlinecap
0 0 m
0 2 l

gsave
0.000 setgray
fill
grestore
stroke
grestore
} bind def
401.274 65.2821 o
grestore
gsave
/o {
gsave
newpath
translate
0.5 setlinewidth
1 setlinejoin
0 setlinecap
0 0 m
0 -2 l

gsave
0.000 setgray
fill
grestore
stroke
grestore
} bind def
401.274 410.153 o
grestore
gsave
/o {
gsave
newpath
translate
0.5 setlinewidth
1 setlinejoin
0 setlinecap
0 0 m
0 2 l

gsave
0.000 setgray
fill
grestore
stroke
grestore
} bind def
416.529 65.2821 o
grestore
gsave
/o {
gsave
newpath
translate
0.5 setlinewidth
1 setlinejoin
0 setlinecap
0 0 m
0 -2 l

gsave
0.000 setgray
fill
grestore
stroke
grestore
} bind def
416.529 410.153 o
grestore
gsave
/o {
gsave
newpath
translate
0.5 setlinewidth
1 setlinejoin
0 setlinecap
0 0 m
0 2 l

gsave
0.000 setgray
fill
grestore
stroke
grestore
} bind def
427.353 65.2821 o
grestore
gsave
/o {
gsave
newpath
translate
0.5 setlinewidth
1 setlinejoin
0 setlinecap
0 0 m
0 -2 l

gsave
0.000 setgray
fill
grestore
stroke
grestore
} bind def
427.353 410.153 o
grestore
gsave
/o {
gsave
newpath
translate
0.5 setlinewidth
1 setlinejoin
0 setlinecap
0 0 m
0 2 l

gsave
0.000 setgray
fill
grestore
stroke
grestore
} bind def
435.749 65.2821 o
grestore
gsave
/o {
gsave
newpath
translate
0.5 setlinewidth
1 setlinejoin
0 setlinecap
0 0 m
0 -2 l

gsave
0.000 setgray
fill
grestore
stroke
grestore
} bind def
435.749 410.153 o
grestore
gsave
/o {
gsave
newpath
translate
0.5 setlinewidth
1 setlinejoin
0 setlinecap
0 0 m
0 2 l

gsave
0.000 setgray
fill
grestore
stroke
grestore
} bind def
442.608 65.2821 o
grestore
gsave
/o {
gsave
newpath
translate
0.5 setlinewidth
1 setlinejoin
0 setlinecap
0 0 m
0 -2 l

gsave
0.000 setgray
fill
grestore
stroke
grestore
} bind def
442.608 410.153 o
grestore
gsave
/o {
gsave
newpath
translate
0.5 setlinewidth
1 setlinejoin
0 setlinecap
0 0 m
0 2 l

gsave
0.000 setgray
fill
grestore
stroke
grestore
} bind def
448.408 65.2821 o
grestore
gsave
/o {
gsave
newpath
translate
0.5 setlinewidth
1 setlinejoin
0 setlinecap
0 0 m
0 -2 l

gsave
0.000 setgray
fill
grestore
stroke
grestore
} bind def
448.408 410.153 o
grestore
gsave
/o {
gsave
newpath
translate
0.5 setlinewidth
1 setlinejoin
0 setlinecap
0 0 m
0 2 l

gsave
0.000 setgray
fill
grestore
stroke
grestore
} bind def
453.432 65.2821 o
grestore
gsave
/o {
gsave
newpath
translate
0.5 setlinewidth
1 setlinejoin
0 setlinecap
0 0 m
0 -2 l

gsave
0.000 setgray
fill
grestore
stroke
grestore
} bind def
453.432 410.153 o
grestore
gsave
/o {
gsave
newpath
translate
0.5 setlinewidth
1 setlinejoin
0 setlinecap
0 0 m
0 2 l

gsave
0.000 setgray
fill
grestore
stroke
grestore
} bind def
457.863 65.2821 o
grestore
gsave
/o {
gsave
newpath
translate
0.5 setlinewidth
1 setlinejoin
0 setlinecap
0 0 m
0 -2 l

gsave
0.000 setgray
fill
grestore
stroke
grestore
} bind def
457.863 410.153 o
grestore
gsave
/o {
gsave
newpath
translate
0.5 setlinewidth
1 setlinejoin
0 setlinecap
0 0 m
0 2 l

gsave
0.000 setgray
fill
grestore
stroke
grestore
} bind def
487.906 65.2821 o
grestore
gsave
/o {
gsave
newpath
translate
0.5 setlinewidth
1 setlinejoin
0 setlinecap
0 0 m
0 -2 l

gsave
0.000 setgray
fill
grestore
stroke
grestore
} bind def
487.906 410.153 o
grestore
gsave
/o {
gsave
newpath
translate
0.5 setlinewidth
1 setlinejoin
0 setlinecap
0 0 m
0 2 l

gsave
0.000 setgray
fill
grestore
stroke
grestore
} bind def
503.161 65.2821 o
grestore
gsave
/o {
gsave
newpath
translate
0.5 setlinewidth
1 setlinejoin
0 setlinecap
0 0 m
0 -2 l

gsave
0.000 setgray
fill
grestore
stroke
grestore
} bind def
503.161 410.153 o
grestore
gsave
/o {
gsave
newpath
translate
0.5 setlinewidth
1 setlinejoin
0 setlinecap
0 0 m
0 2 l

gsave
0.000 setgray
fill
grestore
stroke
grestore
} bind def
513.985 65.2821 o
grestore
gsave
/o {
gsave
newpath
translate
0.5 setlinewidth
1 setlinejoin
0 setlinecap
0 0 m
0 -2 l

gsave
0.000 setgray
fill
grestore
stroke
grestore
} bind def
513.985 410.153 o
grestore
gsave
/o {
gsave
newpath
translate
0.5 setlinewidth
1 setlinejoin
0 setlinecap
0 0 m
0 2 l

gsave
0.000 setgray
fill
grestore
stroke
grestore
} bind def
522.38 65.2821 o
grestore
gsave
/o {
gsave
newpath
translate
0.5 setlinewidth
1 setlinejoin
0 setlinecap
0 0 m
0 -2 l

gsave
0.000 setgray
fill
grestore
stroke
grestore
} bind def
522.38 410.153 o
grestore
gsave
/o {
gsave
newpath
translate
0.5 setlinewidth
1 setlinejoin
0 setlinecap
0 0 m
0 2 l

gsave
0.000 setgray
fill
grestore
stroke
grestore
} bind def
529.24 65.2821 o
grestore
gsave
/o {
gsave
newpath
translate
0.5 setlinewidth
1 setlinejoin
0 setlinecap
0 0 m
0 -2 l

gsave
0.000 setgray
fill
grestore
stroke
grestore
} bind def
529.24 410.153 o
grestore
gsave
/o {
gsave
newpath
translate
0.5 setlinewidth
1 setlinejoin
0 setlinecap
0 0 m
0 2 l

gsave
0.000 setgray
fill
grestore
stroke
grestore
} bind def
535.04 65.2821 o
grestore
gsave
/o {
gsave
newpath
translate
0.5 setlinewidth
1 setlinejoin
0 setlinecap
0 0 m
0 -2 l

gsave
0.000 setgray
fill
grestore
stroke
grestore
} bind def
535.04 410.153 o
grestore
gsave
/o {
gsave
newpath
translate
0.5 setlinewidth
1 setlinejoin
0 setlinecap
0 0 m
0 2 l

gsave
0.000 setgray
fill
grestore
stroke
grestore
} bind def
540.064 65.2821 o
grestore
gsave
/o {
gsave
newpath
translate
0.5 setlinewidth
1 setlinejoin
0 setlinecap
0 0 m
0 -2 l

gsave
0.000 setgray
fill
grestore
stroke
grestore
} bind def
540.064 410.153 o
grestore
gsave
/o {
gsave
newpath
translate
0.5 setlinewidth
1 setlinejoin
0 setlinecap
0 0 m
0 2 l

gsave
0.000 setgray
fill
grestore
stroke
grestore
} bind def
544.495 65.2821 o
grestore
gsave
/o {
gsave
newpath
translate
0.5 setlinewidth
1 setlinejoin
0 setlinecap
0 0 m
0 -2 l

gsave
0.000 setgray
fill
grestore
stroke
grestore
} bind def
544.495 410.153 o
grestore
gsave
301.010597 24.282076 translate
0.000000 rotate
/Cmmi10 findfont
12.096 scalefont
setfont
0.000000 8.742188 moveto
/R glyphshow

/Cmr10 findfont
8.4672 scalefont
setfont
9.170677 6.685111 moveto
/zero glyphshow

/Cmmi10 findfont
12.096 scalefont
setfont
14.172159 8.742188 moveto
/omega glyphshow

0.000000 2.181361 21.690462 1.080000 rectfill
8.000000 -4.236138 moveto
/c glyphshow


grestore
[1 3] 0 setdash
gsave
470.9 344.9 77.56 65.28 clipbox
77.562097 65.282076 m
548.459097 65.282076 l
stroke
grestore
[] 0 setdash
gsave
/o {
gsave
newpath
translate
0.5 setlinewidth
1 setlinejoin
0 setlinecap
0 0 m
4 0 l

gsave
0.000 setgray
fill
grestore
stroke
grestore
} bind def
77.5621 65.2821 o
grestore
gsave
/o {
gsave
newpath
translate
0.5 setlinewidth
1 setlinejoin
0 setlinecap
0 0 m
-4 0 l

gsave
0.000 setgray
fill
grestore
stroke
grestore
} bind def
548.459 65.2821 o
grestore
gsave
37.562097 60.688326 translate
0.000000 rotate
/BitstreamVeraSans-Roman findfont
14.0 scalefont
setfont
0.000000 0.242812 moveto
/one glyphshow

8.907227 0.242812 moveto
/zero glyphshow

/BitstreamVeraSans-Roman findfont
9.8 scalefont
setfont
18.586203 6.857812 moveto
/hyphen glyphshow

22.122434 6.857812 moveto
/one glyphshow

28.357492 6.857812 moveto
/four glyphshow


grestore
[1 3] 0 setdash
gsave
470.9 344.9 77.56 65.28 clipbox
77.562097 134.256161 m
548.459097 134.256161 l
stroke
grestore
[] 0 setdash
gsave
/o {
gsave
newpath
translate
0.5 setlinewidth
1 setlinejoin
0 setlinecap
0 0 m
4 0 l

gsave
0.000 setgray
fill
grestore
stroke
grestore
} bind def
77.5621 134.256 o
grestore
gsave
/o {
gsave
newpath
translate
0.5 setlinewidth
1 setlinejoin
0 setlinecap
0 0 m
-4 0 l

gsave
0.000 setgray
fill
grestore
stroke
grestore
} bind def
548.459 134.256 o
grestore
gsave
37.562097 129.662411 translate
0.000000 rotate
/BitstreamVeraSans-Roman findfont
14.0 scalefont
setfont
0.000000 0.111563 moveto
/one glyphshow

8.907227 0.111563 moveto
/zero glyphshow

/BitstreamVeraSans-Roman findfont
9.8 scalefont
setfont
18.586203 6.726563 moveto
/hyphen glyphshow

22.122434 6.726563 moveto
/one glyphshow

28.357492 6.726563 moveto
/three glyphshow


grestore
[1 3] 0 setdash
gsave
470.9 344.9 77.56 65.28 clipbox
77.562097 203.230246 m
548.459097 203.230246 l
stroke
grestore
[] 0 setdash
gsave
/o {
gsave
newpath
translate
0.5 setlinewidth
1 setlinejoin
0 setlinecap
0 0 m
4 0 l

gsave
0.000 setgray
fill
grestore
stroke
grestore
} bind def
77.5621 203.23 o
grestore
gsave
/o {
gsave
newpath
translate
0.5 setlinewidth
1 setlinejoin
0 setlinecap
0 0 m
-4 0 l

gsave
0.000 setgray
fill
grestore
stroke
grestore
} bind def
548.459 203.23 o
grestore
gsave
37.562097 198.636496 translate
0.000000 rotate
/BitstreamVeraSans-Roman findfont
14.0 scalefont
setfont
0.000000 0.111563 moveto
/one glyphshow

8.907227 0.111563 moveto
/zero glyphshow

/BitstreamVeraSans-Roman findfont
9.8 scalefont
setfont
18.586203 6.726563 moveto
/hyphen glyphshow

22.122434 6.726563 moveto
/one glyphshow

28.357492 6.726563 moveto
/two glyphshow


grestore
[1 3] 0 setdash
gsave
470.9 344.9 77.56 65.28 clipbox
77.562097 272.20433 m
548.459097 272.20433 l
stroke
grestore
[] 0 setdash
gsave
/o {
gsave
newpath
translate
0.5 setlinewidth
1 setlinejoin
0 setlinecap
0 0 m
4 0 l

gsave
0.000 setgray
fill
grestore
stroke
grestore
} bind def
77.5621 272.204 o
grestore
gsave
/o {
gsave
newpath
translate
0.5 setlinewidth
1 setlinejoin
0 setlinecap
0 0 m
-4 0 l

gsave
0.000 setgray
fill
grestore
stroke
grestore
} bind def
548.459 272.204 o
grestore
gsave
37.562097 267.610580 translate
0.000000 rotate
/BitstreamVeraSans-Roman findfont
14.0 scalefont
setfont
0.000000 0.242812 moveto
/one glyphshow

8.907227 0.242812 moveto
/zero glyphshow

/BitstreamVeraSans-Roman findfont
9.8 scalefont
setfont
18.586203 6.857812 moveto
/hyphen glyphshow

22.122434 6.857812 moveto
/one glyphshow

28.357492 6.857812 moveto
/one glyphshow


grestore
[1 3] 0 setdash
gsave
470.9 344.9 77.56 65.28 clipbox
77.562097 341.178415 m
548.459097 341.178415 l
stroke
grestore
[] 0 setdash
gsave
/o {
gsave
newpath
translate
0.5 setlinewidth
1 setlinejoin
0 setlinecap
0 0 m
4 0 l

gsave
0.000 setgray
fill
grestore
stroke
grestore
} bind def
77.5621 341.178 o
grestore
gsave
/o {
gsave
newpath
translate
0.5 setlinewidth
1 setlinejoin
0 setlinecap
0 0 m
-4 0 l

gsave
0.000 setgray
fill
grestore
stroke
grestore
} bind def
548.459 341.178 o
grestore
gsave
37.562097 336.584665 translate
0.000000 rotate
/BitstreamVeraSans-Roman findfont
14.0 scalefont
setfont
0.000000 0.111563 moveto
/one glyphshow

8.907227 0.111563 moveto
/zero glyphshow

/BitstreamVeraSans-Roman findfont
9.8 scalefont
setfont
18.586203 6.726563 moveto
/hyphen glyphshow

22.122434 6.726563 moveto
/one glyphshow

28.357492 6.726563 moveto
/zero glyphshow


grestore
[1 3] 0 setdash
gsave
470.9 344.9 77.56 65.28 clipbox
77.562097 410.1525 m
548.459097 410.1525 l
stroke
grestore
[] 0 setdash
gsave
/o {
gsave
newpath
translate
0.5 setlinewidth
1 setlinejoin
0 setlinecap
0 0 m
4 0 l

gsave
0.000 setgray
fill
grestore
stroke
grestore
} bind def
77.5621 410.153 o
grestore
gsave
/o {
gsave
newpath
translate
0.5 setlinewidth
1 setlinejoin
0 setlinecap
0 0 m
-4 0 l

gsave
0.000 setgray
fill
grestore
stroke
grestore
} bind def
548.459 410.153 o
grestore
gsave
43.562097 405.558750 translate
0.000000 rotate
/BitstreamVeraSans-Roman findfont
14.0 scalefont
setfont
0.000000 0.111563 moveto
/one glyphshow

8.907227 0.111563 moveto
/zero glyphshow

/BitstreamVeraSans-Roman findfont
9.8 scalefont
setfont
18.586203 6.726563 moveto
/hyphen glyphshow

22.122434 6.726563 moveto
/nine glyphshow


grestore
gsave
/o {
gsave
newpath
translate
0.5 setlinewidth
1 setlinejoin
0 setlinecap
0 0 m
2 0 l

gsave
0.000 setgray
fill
grestore
stroke
grestore
} bind def
77.5621 86.0453 o
grestore
gsave
/o {
gsave
newpath
translate
0.5 setlinewidth
1 setlinejoin
0 setlinecap
0 0 m
-2 0 l

gsave
0.000 setgray
fill
grestore
stroke
grestore
} bind def
548.459 86.0453 o
grestore
gsave
/o {
gsave
newpath
translate
0.5 setlinewidth
1 setlinejoin
0 setlinecap
0 0 m
2 0 l

gsave
0.000 setgray
fill
grestore
stroke
grestore
} bind def
77.5621 98.1911 o
grestore
gsave
/o {
gsave
newpath
translate
0.5 setlinewidth
1 setlinejoin
0 setlinecap
0 0 m
-2 0 l

gsave
0.000 setgray
fill
grestore
stroke
grestore
} bind def
548.459 98.1911 o
grestore
gsave
/o {
gsave
newpath
translate
0.5 setlinewidth
1 setlinejoin
0 setlinecap
0 0 m
2 0 l

gsave
0.000 setgray
fill
grestore
stroke
grestore
} bind def
77.5621 106.809 o
grestore
gsave
/o {
gsave
newpath
translate
0.5 setlinewidth
1 setlinejoin
0 setlinecap
0 0 m
-2 0 l

gsave
0.000 setgray
fill
grestore
stroke
grestore
} bind def
548.459 106.809 o
grestore
gsave
/o {
gsave
newpath
translate
0.5 setlinewidth
1 setlinejoin
0 setlinecap
0 0 m
2 0 l

gsave
0.000 setgray
fill
grestore
stroke
grestore
} bind def
77.5621 113.493 o
grestore
gsave
/o {
gsave
newpath
translate
0.5 setlinewidth
1 setlinejoin
0 setlinecap
0 0 m
-2 0 l

gsave
0.000 setgray
fill
grestore
stroke
grestore
} bind def
548.459 113.493 o
grestore
gsave
/o {
gsave
newpath
translate
0.5 setlinewidth
1 setlinejoin
0 setlinecap
0 0 m
2 0 l

gsave
0.000 setgray
fill
grestore
stroke
grestore
} bind def
77.5621 118.954 o
grestore
gsave
/o {
gsave
newpath
translate
0.5 setlinewidth
1 setlinejoin
0 setlinecap
0 0 m
-2 0 l

gsave
0.000 setgray
fill
grestore
stroke
grestore
} bind def
548.459 118.954 o
grestore
gsave
/o {
gsave
newpath
translate
0.5 setlinewidth
1 setlinejoin
0 setlinecap
0 0 m
2 0 l

gsave
0.000 setgray
fill
grestore
stroke
grestore
} bind def
77.5621 123.572 o
grestore
gsave
/o {
gsave
newpath
translate
0.5 setlinewidth
1 setlinejoin
0 setlinecap
0 0 m
-2 0 l

gsave
0.000 setgray
fill
grestore
stroke
grestore
} bind def
548.459 123.572 o
grestore
gsave
/o {
gsave
newpath
translate
0.5 setlinewidth
1 setlinejoin
0 setlinecap
0 0 m
2 0 l

gsave
0.000 setgray
fill
grestore
stroke
grestore
} bind def
77.5621 127.572 o
grestore
gsave
/o {
gsave
newpath
translate
0.5 setlinewidth
1 setlinejoin
0 setlinecap
0 0 m
-2 0 l

gsave
0.000 setgray
fill
grestore
stroke
grestore
} bind def
548.459 127.572 o
grestore
gsave
/o {
gsave
newpath
translate
0.5 setlinewidth
1 setlinejoin
0 setlinecap
0 0 m
2 0 l

gsave
0.000 setgray
fill
grestore
stroke
grestore
} bind def
77.5621 131.1 o
grestore
gsave
/o {
gsave
newpath
translate
0.5 setlinewidth
1 setlinejoin
0 setlinecap
0 0 m
-2 0 l

gsave
0.000 setgray
fill
grestore
stroke
grestore
} bind def
548.459 131.1 o
grestore
gsave
/o {
gsave
newpath
translate
0.5 setlinewidth
1 setlinejoin
0 setlinecap
0 0 m
2 0 l

gsave
0.000 setgray
fill
grestore
stroke
grestore
} bind def
77.5621 155.019 o
grestore
gsave
/o {
gsave
newpath
translate
0.5 setlinewidth
1 setlinejoin
0 setlinecap
0 0 m
-2 0 l

gsave
0.000 setgray
fill
grestore
stroke
grestore
} bind def
548.459 155.019 o
grestore
gsave
/o {
gsave
newpath
translate
0.5 setlinewidth
1 setlinejoin
0 setlinecap
0 0 m
2 0 l

gsave
0.000 setgray
fill
grestore
stroke
grestore
} bind def
77.5621 167.165 o
grestore
gsave
/o {
gsave
newpath
translate
0.5 setlinewidth
1 setlinejoin
0 setlinecap
0 0 m
-2 0 l

gsave
0.000 setgray
fill
grestore
stroke
grestore
} bind def
548.459 167.165 o
grestore
gsave
/o {
gsave
newpath
translate
0.5 setlinewidth
1 setlinejoin
0 setlinecap
0 0 m
2 0 l

gsave
0.000 setgray
fill
grestore
stroke
grestore
} bind def
77.5621 175.783 o
grestore
gsave
/o {
gsave
newpath
translate
0.5 setlinewidth
1 setlinejoin
0 setlinecap
0 0 m
-2 0 l

gsave
0.000 setgray
fill
grestore
stroke
grestore
} bind def
548.459 175.783 o
grestore
gsave
/o {
gsave
newpath
translate
0.5 setlinewidth
1 setlinejoin
0 setlinecap
0 0 m
2 0 l

gsave
0.000 setgray
fill
grestore
stroke
grestore
} bind def
77.5621 182.467 o
grestore
gsave
/o {
gsave
newpath
translate
0.5 setlinewidth
1 setlinejoin
0 setlinecap
0 0 m
-2 0 l

gsave
0.000 setgray
fill
grestore
stroke
grestore
} bind def
548.459 182.467 o
grestore
gsave
/o {
gsave
newpath
translate
0.5 setlinewidth
1 setlinejoin
0 setlinecap
0 0 m
2 0 l

gsave
0.000 setgray
fill
grestore
stroke
grestore
} bind def
77.5621 187.928 o
grestore
gsave
/o {
gsave
newpath
translate
0.5 setlinewidth
1 setlinejoin
0 setlinecap
0 0 m
-2 0 l

gsave
0.000 setgray
fill
grestore
stroke
grestore
} bind def
548.459 187.928 o
grestore
gsave
/o {
gsave
newpath
translate
0.5 setlinewidth
1 setlinejoin
0 setlinecap
0 0 m
2 0 l

gsave
0.000 setgray
fill
grestore
stroke
grestore
} bind def
77.5621 192.546 o
grestore
gsave
/o {
gsave
newpath
translate
0.5 setlinewidth
1 setlinejoin
0 setlinecap
0 0 m
-2 0 l

gsave
0.000 setgray
fill
grestore
stroke
grestore
} bind def
548.459 192.546 o
grestore
gsave
/o {
gsave
newpath
translate
0.5 setlinewidth
1 setlinejoin
0 setlinecap
0 0 m
2 0 l

gsave
0.000 setgray
fill
grestore
stroke
grestore
} bind def
77.5621 196.546 o
grestore
gsave
/o {
gsave
newpath
translate
0.5 setlinewidth
1 setlinejoin
0 setlinecap
0 0 m
-2 0 l

gsave
0.000 setgray
fill
grestore
stroke
grestore
} bind def
548.459 196.546 o
grestore
gsave
/o {
gsave
newpath
translate
0.5 setlinewidth
1 setlinejoin
0 setlinecap
0 0 m
2 0 l

gsave
0.000 setgray
fill
grestore
stroke
grestore
} bind def
77.5621 200.074 o
grestore
gsave
/o {
gsave
newpath
translate
0.5 setlinewidth
1 setlinejoin
0 setlinecap
0 0 m
-2 0 l

gsave
0.000 setgray
fill
grestore
stroke
grestore
} bind def
548.459 200.074 o
grestore
gsave
/o {
gsave
newpath
translate
0.5 setlinewidth
1 setlinejoin
0 setlinecap
0 0 m
2 0 l

gsave
0.000 setgray
fill
grestore
stroke
grestore
} bind def
77.5621 223.994 o
grestore
gsave
/o {
gsave
newpath
translate
0.5 setlinewidth
1 setlinejoin
0 setlinecap
0 0 m
-2 0 l

gsave
0.000 setgray
fill
grestore
stroke
grestore
} bind def
548.459 223.994 o
grestore
gsave
/o {
gsave
newpath
translate
0.5 setlinewidth
1 setlinejoin
0 setlinecap
0 0 m
2 0 l

gsave
0.000 setgray
fill
grestore
stroke
grestore
} bind def
77.5621 236.139 o
grestore
gsave
/o {
gsave
newpath
translate
0.5 setlinewidth
1 setlinejoin
0 setlinecap
0 0 m
-2 0 l

gsave
0.000 setgray
fill
grestore
stroke
grestore
} bind def
548.459 236.139 o
grestore
gsave
/o {
gsave
newpath
translate
0.5 setlinewidth
1 setlinejoin
0 setlinecap
0 0 m
2 0 l

gsave
0.000 setgray
fill
grestore
stroke
grestore
} bind def
77.5621 244.757 o
grestore
gsave
/o {
gsave
newpath
translate
0.5 setlinewidth
1 setlinejoin
0 setlinecap
0 0 m
-2 0 l

gsave
0.000 setgray
fill
grestore
stroke
grestore
} bind def
548.459 244.757 o
grestore
gsave
/o {
gsave
newpath
translate
0.5 setlinewidth
1 setlinejoin
0 setlinecap
0 0 m
2 0 l

gsave
0.000 setgray
fill
grestore
stroke
grestore
} bind def
77.5621 251.441 o
grestore
gsave
/o {
gsave
newpath
translate
0.5 setlinewidth
1 setlinejoin
0 setlinecap
0 0 m
-2 0 l

gsave
0.000 setgray
fill
grestore
stroke
grestore
} bind def
548.459 251.441 o
grestore
gsave
/o {
gsave
newpath
translate
0.5 setlinewidth
1 setlinejoin
0 setlinecap
0 0 m
2 0 l

gsave
0.000 setgray
fill
grestore
stroke
grestore
} bind def
77.5621 256.903 o
grestore
gsave
/o {
gsave
newpath
translate
0.5 setlinewidth
1 setlinejoin
0 setlinecap
0 0 m
-2 0 l

gsave
0.000 setgray
fill
grestore
stroke
grestore
} bind def
548.459 256.903 o
grestore
gsave
/o {
gsave
newpath
translate
0.5 setlinewidth
1 setlinejoin
0 setlinecap
0 0 m
2 0 l

gsave
0.000 setgray
fill
grestore
stroke
grestore
} bind def
77.5621 261.52 o
grestore
gsave
/o {
gsave
newpath
translate
0.5 setlinewidth
1 setlinejoin
0 setlinecap
0 0 m
-2 0 l

gsave
0.000 setgray
fill
grestore
stroke
grestore
} bind def
548.459 261.52 o
grestore
gsave
/o {
gsave
newpath
translate
0.5 setlinewidth
1 setlinejoin
0 setlinecap
0 0 m
2 0 l

gsave
0.000 setgray
fill
grestore
stroke
grestore
} bind def
77.5621 265.52 o
grestore
gsave
/o {
gsave
newpath
translate
0.5 setlinewidth
1 setlinejoin
0 setlinecap
0 0 m
-2 0 l

gsave
0.000 setgray
fill
grestore
stroke
grestore
} bind def
548.459 265.52 o
grestore
gsave
/o {
gsave
newpath
translate
0.5 setlinewidth
1 setlinejoin
0 setlinecap
0 0 m
2 0 l

gsave
0.000 setgray
fill
grestore
stroke
grestore
} bind def
77.5621 269.048 o
grestore
gsave
/o {
gsave
newpath
translate
0.5 setlinewidth
1 setlinejoin
0 setlinecap
0 0 m
-2 0 l

gsave
0.000 setgray
fill
grestore
stroke
grestore
} bind def
548.459 269.048 o
grestore
gsave
/o {
gsave
newpath
translate
0.5 setlinewidth
1 setlinejoin
0 setlinecap
0 0 m
2 0 l

gsave
0.000 setgray
fill
grestore
stroke
grestore
} bind def
77.5621 292.968 o
grestore
gsave
/o {
gsave
newpath
translate
0.5 setlinewidth
1 setlinejoin
0 setlinecap
0 0 m
-2 0 l

gsave
0.000 setgray
fill
grestore
stroke
grestore
} bind def
548.459 292.968 o
grestore
gsave
/o {
gsave
newpath
translate
0.5 setlinewidth
1 setlinejoin
0 setlinecap
0 0 m
2 0 l

gsave
0.000 setgray
fill
grestore
stroke
grestore
} bind def
77.5621 305.113 o
grestore
gsave
/o {
gsave
newpath
translate
0.5 setlinewidth
1 setlinejoin
0 setlinecap
0 0 m
-2 0 l

gsave
0.000 setgray
fill
grestore
stroke
grestore
} bind def
548.459 305.113 o
grestore
gsave
/o {
gsave
newpath
translate
0.5 setlinewidth
1 setlinejoin
0 setlinecap
0 0 m
2 0 l

gsave
0.000 setgray
fill
grestore
stroke
grestore
} bind def
77.5621 313.731 o
grestore
gsave
/o {
gsave
newpath
translate
0.5 setlinewidth
1 setlinejoin
0 setlinecap
0 0 m
-2 0 l

gsave
0.000 setgray
fill
grestore
stroke
grestore
} bind def
548.459 313.731 o
grestore
gsave
/o {
gsave
newpath
translate
0.5 setlinewidth
1 setlinejoin
0 setlinecap
0 0 m
2 0 l

gsave
0.000 setgray
fill
grestore
stroke
grestore
} bind def
77.5621 320.415 o
grestore
gsave
/o {
gsave
newpath
translate
0.5 setlinewidth
1 setlinejoin
0 setlinecap
0 0 m
-2 0 l

gsave
0.000 setgray
fill
grestore
stroke
grestore
} bind def
548.459 320.415 o
grestore
gsave
/o {
gsave
newpath
translate
0.5 setlinewidth
1 setlinejoin
0 setlinecap
0 0 m
2 0 l

gsave
0.000 setgray
fill
grestore
stroke
grestore
} bind def
77.5621 325.877 o
grestore
gsave
/o {
gsave
newpath
translate
0.5 setlinewidth
1 setlinejoin
0 setlinecap
0 0 m
-2 0 l

gsave
0.000 setgray
fill
grestore
stroke
grestore
} bind def
548.459 325.877 o
grestore
gsave
/o {
gsave
newpath
translate
0.5 setlinewidth
1 setlinejoin
0 setlinecap
0 0 m
2 0 l

gsave
0.000 setgray
fill
grestore
stroke
grestore
} bind def
77.5621 330.494 o
grestore
gsave
/o {
gsave
newpath
translate
0.5 setlinewidth
1 setlinejoin
0 setlinecap
0 0 m
-2 0 l

gsave
0.000 setgray
fill
grestore
stroke
grestore
} bind def
548.459 330.494 o
grestore
gsave
/o {
gsave
newpath
translate
0.5 setlinewidth
1 setlinejoin
0 setlinecap
0 0 m
2 0 l

gsave
0.000 setgray
fill
grestore
stroke
grestore
} bind def
77.5621 334.494 o
grestore
gsave
/o {
gsave
newpath
translate
0.5 setlinewidth
1 setlinejoin
0 setlinecap
0 0 m
-2 0 l

gsave
0.000 setgray
fill
grestore
stroke
grestore
} bind def
548.459 334.494 o
grestore
gsave
/o {
gsave
newpath
translate
0.5 setlinewidth
1 setlinejoin
0 setlinecap
0 0 m
2 0 l

gsave
0.000 setgray
fill
grestore
stroke
grestore
} bind def
77.5621 338.022 o
grestore
gsave
/o {
gsave
newpath
translate
0.5 setlinewidth
1 setlinejoin
0 setlinecap
0 0 m
-2 0 l

gsave
0.000 setgray
fill
grestore
stroke
grestore
} bind def
548.459 338.022 o
grestore
gsave
/o {
gsave
newpath
translate
0.5 setlinewidth
1 setlinejoin
0 setlinecap
0 0 m
2 0 l

gsave
0.000 setgray
fill
grestore
stroke
grestore
} bind def
77.5621 361.942 o
grestore
gsave
/o {
gsave
newpath
translate
0.5 setlinewidth
1 setlinejoin
0 setlinecap
0 0 m
-2 0 l

gsave
0.000 setgray
fill
grestore
stroke
grestore
} bind def
548.459 361.942 o
grestore
gsave
/o {
gsave
newpath
translate
0.5 setlinewidth
1 setlinejoin
0 setlinecap
0 0 m
2 0 l

gsave
0.000 setgray
fill
grestore
stroke
grestore
} bind def
77.5621 374.087 o
grestore
gsave
/o {
gsave
newpath
translate
0.5 setlinewidth
1 setlinejoin
0 setlinecap
0 0 m
-2 0 l

gsave
0.000 setgray
fill
grestore
stroke
grestore
} bind def
548.459 374.087 o
grestore
gsave
/o {
gsave
newpath
translate
0.5 setlinewidth
1 setlinejoin
0 setlinecap
0 0 m
2 0 l

gsave
0.000 setgray
fill
grestore
stroke
grestore
} bind def
77.5621 382.705 o
grestore
gsave
/o {
gsave
newpath
translate
0.5 setlinewidth
1 setlinejoin
0 setlinecap
0 0 m
-2 0 l

gsave
0.000 setgray
fill
grestore
stroke
grestore
} bind def
548.459 382.705 o
grestore
gsave
/o {
gsave
newpath
translate
0.5 setlinewidth
1 setlinejoin
0 setlinecap
0 0 m
2 0 l

gsave
0.000 setgray
fill
grestore
stroke
grestore
} bind def
77.5621 389.389 o
grestore
gsave
/o {
gsave
newpath
translate
0.5 setlinewidth
1 setlinejoin
0 setlinecap
0 0 m
-2 0 l

gsave
0.000 setgray
fill
grestore
stroke
grestore
} bind def
548.459 389.389 o
grestore
gsave
/o {
gsave
newpath
translate
0.5 setlinewidth
1 setlinejoin
0 setlinecap
0 0 m
2 0 l

gsave
0.000 setgray
fill
grestore
stroke
grestore
} bind def
77.5621 394.851 o
grestore
gsave
/o {
gsave
newpath
translate
0.5 setlinewidth
1 setlinejoin
0 setlinecap
0 0 m
-2 0 l

gsave
0.000 setgray
fill
grestore
stroke
grestore
} bind def
548.459 394.851 o
grestore
gsave
/o {
gsave
newpath
translate
0.5 setlinewidth
1 setlinejoin
0 setlinecap
0 0 m
2 0 l

gsave
0.000 setgray
fill
grestore
stroke
grestore
} bind def
77.5621 399.468 o
grestore
gsave
/o {
gsave
newpath
translate
0.5 setlinewidth
1 setlinejoin
0 setlinecap
0 0 m
-2 0 l

gsave
0.000 setgray
fill
grestore
stroke
grestore
} bind def
548.459 399.468 o
grestore
gsave
/o {
gsave
newpath
translate
0.5 setlinewidth
1 setlinejoin
0 setlinecap
0 0 m
2 0 l

gsave
0.000 setgray
fill
grestore
stroke
grestore
} bind def
77.5621 403.468 o
grestore
gsave
/o {
gsave
newpath
translate
0.5 setlinewidth
1 setlinejoin
0 setlinecap
0 0 m
-2 0 l

gsave
0.000 setgray
fill
grestore
stroke
grestore
} bind def
548.459 403.468 o
grestore
gsave
/o {
gsave
newpath
translate
0.5 setlinewidth
1 setlinejoin
0 setlinecap
0 0 m
2 0 l

gsave
0.000 setgray
fill
grestore
stroke
grestore
} bind def
77.5621 406.996 o
grestore
gsave
/o {
gsave
newpath
translate
0.5 setlinewidth
1 setlinejoin
0 setlinecap
0 0 m
-2 0 l

gsave
0.000 setgray
fill
grestore
stroke
grestore
} bind def
548.459 406.996 o
grestore
gsave
28.562097 167.217288 translate
90.000000 rotate
/Cmsy10 findfont
14.4 scalefont
setfont
0.000000 0.901562 moveto
/bar glyphshow

/Cmr10 findfont
14.4 scalefont
setfont
3.984116 0.901562 moveto
/Delta glyphshow

/Cmmi10 findfont
14.4 scalefont
setfont
15.971619 0.901562 moveto
/lambda glyphshow

/Cmmi10 findfont
10.08 scalefont
setfont
24.361465 -1.547338 moveto
/C glyphshow

31.552562 -1.547338 moveto
/W glyphshow

/Cmsy10 findfont
14.4 scalefont
setfont
41.978684 0.901562 moveto
/bar glyphshow

48.489591 0.901562 moveto
/minus glyphshow

62.195811 0.901562 moveto
/bar glyphshow

/Cmr10 findfont
14.4 scalefont
setfont
66.179927 0.901562 moveto
/Delta glyphshow

/Cmmi10 findfont
14.4 scalefont
setfont
78.167430 0.901562 moveto
/lambda glyphshow

/Cmmi10 findfont
10.08 scalefont
setfont
86.557276 -1.547338 moveto
/C glyphshow

93.748373 -1.547338 moveto
/C glyphshow

100.939469 -1.547338 moveto
/W glyphshow

/Cmsy10 findfont
14.4 scalefont
setfont
111.365592 0.901562 moveto
/bar glyphshow

/Cmex10 findfont
13.148959276 scalefont
setfont
118.859168 12.468750 moveto
/bracketleftbig glyphshow

/Cmr10 findfont
10.08 scalefont
setfont
126.325873 6.295312 moveto
/one glyphshow

124.325873 2.695312 8.843770 0.900000 rectfill
/Cmmi10 findfont
10.08 scalefont
setfont
124.325873 -2.656250 moveto
/m glyphshow

/Cmex10 findfont
13.148959276 scalefont
setfont
134.969643 12.468750 moveto
/bracketrightbig glyphshow


grestore
/BitstreamVeraSans-Roman findfont
12.000 scalefont
setfont
gsave
414.691082 449.309359 translate
0.000000 rotate
0.000000 0.000000 m /one glyphshow
grestore
gsave
474.822066 544.788170 translate
0.000000 rotate
0.000000 0.000000 m /two glyphshow
grestore
1.000 setlinewidth
0 setlinejoin
gsave
385.840972 357.13875 m
541.259097 357.13875 l
541.259097 402.9525 l
385.840972 402.9525 l
cl
gsave
1.000 setgray
fill
grestore
stroke
grestore
2.500 setlinewidth
1 setlinejoin
2 setlinecap
0.545 0.000 0.000 setrgbcolor
gsave
395.920972 391.591875 m
416.080972 391.591875 l
stroke
grestore
0.500 setlinewidth
0 setlinecap
0.000 setgray
gsave
/o {
gsave
newpath
translate
0.5 setlinewidth
1 setlinejoin
0 setlinecap
0 -3 m
0.795609 -3 1.55874 -2.683901 2.12132 -2.12132 c
2.683901 -1.55874 3 -0.795609 3 0 c
3 0.795609 2.683901 1.55874 2.12132 2.12132 c
1.55874 2.683901 0.795609 3 0 3 c
-0.795609 3 -1.55874 2.683901 -2.12132 2.12132 c
-2.683901 1.55874 -3 0.795609 -3 0 c
-3 -0.795609 -2.683901 -1.55874 -2.12132 -2.12132 c
-1.55874 -2.683901 -0.795609 -3 0 -3 c
cl

gsave
0.545 0.000 0.000 setrgbcolor
fill
grestore
stroke
grestore
} bind def
395.921 391.592 o
416.081 391.592 o
grestore
/BitstreamVeraSans-Roman findfont
14.400 scalefont
setfont
gsave
431.920972 386.551875 translate
0.000000 rotate
0.000000 0.000000 m /l glyphshow
3.993835 0.000000 m /i glyphshow
7.987671 0.000000 m /n glyphshow
17.098389 0.000000 m /e glyphshow
25.942383 0.000000 m /a glyphshow
34.751282 0.000000 m /r glyphshow
40.661316 0.000000 m /i glyphshow
44.655151 0.000000 m /z glyphshow
52.200623 0.000000 m /e glyphshow
61.044617 0.000000 m /d glyphshow
70.169373 0.000000 m /space glyphshow
74.738770 0.000000 m /P glyphshow
83.407288 0.000000 m /D glyphshow
94.476318 0.000000 m /E glyphshow
grestore
2.500 setlinewidth
2 setlinecap
0.545 0.000 0.000 setrgbcolor
gsave
395.920972 370.845 m
416.080972 370.845 l
stroke
grestore
0.500 setlinewidth
0 setlinejoin
0 setlinecap
0.000 setgray
gsave
/o {
gsave
newpath
translate
0.5 setlinewidth
0 setlinejoin
0 setlinecap
-0 -4.242641 m
2.545584 0 l
0 4.242641 l
-2.545584 0 l
cl

gsave
0.545 0.000 0.000 setrgbcolor
fill
grestore
stroke
grestore
} bind def
395.921 370.845 o
416.081 370.845 o
grestore
gsave
431.920972 365.805000 translate
0.000000 rotate
0.000000 0.000000 m /f glyphshow
5.060730 0.000000 m /u glyphshow
14.171448 0.000000 m /l glyphshow
18.165283 0.000000 m /l glyphshow
22.159119 0.000000 m /space glyphshow
26.728516 0.000000 m /P glyphshow
35.397034 0.000000 m /D glyphshow
46.466064 0.000000 m /E glyphshow
grestore

end
showpage
