%!PS-Adobe-3.0 EPSF-3.0
%%Title: ID2_Anisospec_vs_param_Full_vs_Lin_Diamond.eps
%%Creator: matplotlib version 1.5.1, http://matplotlib.org/
%%CreationDate: Fri Sep 30 18:09:29 2016
%%Orientation: portrait
%%BoundingBox: 18 180 594 612
%%EndComments
%%BeginProlog
/mpldict 12 dict def
mpldict begin
/m { moveto } bind def
/l { lineto } bind def
/r { rlineto } bind def
/c { curveto } bind def
/cl { closepath } bind def
/box {
m
1 index 0 r
0 exch r
neg 0 r
cl
} bind def
/clipbox {
box
clip
newpath
} bind def
%!PS-Adobe-3.0 Resource-Font
%%Title: cmsy10
%%Copyright: Copyright (C) 1994, Basil K. Malyshev. All Rights Reserved.012BaKoMa Fonts Collection, Level-B.
%%Creator: Converted from TrueType to type 3 by PPR
25 dict begin
/_d{bind def}bind def
/_m{moveto}_d
/_l{lineto}_d
/_cl{closepath eofill}_d
/_c{curveto}_d
/_sc{7 -1 roll{setcachedevice}{pop pop pop pop pop pop}ifelse}_d
/_e{exec}_d
/FontName /Cmsy10 def
/PaintType 0 def
/FontMatrix[.001 0 0 .001 0 0]def
/FontBBox[-29 -960 1123 779]def
/FontType 3 def
/Encoding [ /minus /bar ] def
/FontInfo 10 dict dup begin
/FamilyName (cmsy10) def
/FullName (cmsy10) def
/Notice (Copyright (C) 1994, Basil K. Malyshev. All Rights Reserved.012BaKoMa Fonts Collection, Level-B. ) def
/Weight (Regular) def
/Version (1.1/12-Nov-94) def
/ItalicAngle 0.0 def
/isFixedPitch false def
/UnderlinePosition -133 def
/UnderlineThickness 20 def
end readonly def
/CharStrings 2 dict dup begin
/minus{777 0 83 230 694 270 _sc
102 230 _m
96 230 92 232 88 236 _c
84 240 83 245 83 250 _c
83 254 84 259 88 263 _c
92 267 96 270 102 270 _c
676 270 _l
681 270 685 267 689 263 _c
692 259 694 254 694 250 _c
694 245 692 240 689 236 _c
685 232 681 230 676 230 _c
102 230 _l
_cl}_d
/bar{277 0 119 -249 159 750 _sc
119 -231 _m
119 732 _l
119 737 121 741 125 745 _c
129 748 133 750 139 750 _c
143 750 148 748 152 745 _c
156 741 159 737 159 732 _c
159 -231 _l
159 -236 156 -240 152 -244 _c
148 -247 143 -249 139 -249 _c
133 -249 129 -247 125 -244 _c
121 -240 119 -236 119 -231 _c
_cl}_d
end readonly def

/BuildGlyph
 {exch begin
 CharStrings exch
 2 copy known not{pop /.notdef}if
 true 3 1 roll get exec
 end}_d

/BuildChar {
 1 index /Encoding get exch get
 1 index /BuildGlyph get exec
}_d

FontName currentdict end definefont pop
%!PS-Adobe-3.0 Resource-Font
%%Title: cmmi10
%%Copyright: Copyright (C) 1994, Basil K. Malyshev. All Rights Reserved.012BaKoMa Fonts Collection, Level-B.
%%Creator: Converted from TrueType to type 3 by PPR
25 dict begin
/_d{bind def}bind def
/_m{moveto}_d
/_l{lineto}_d
/_cl{closepath eofill}_d
/_c{curveto}_d
/_sc{7 -1 roll{setcachedevice}{pop pop pop pop pop pop}ifelse}_d
/_e{exec}_d
/FontName /Cmmi10 def
/PaintType 0 def
/FontMatrix[.001 0 0 .001 0 0]def
/FontBBox[-34 -250 1048 750]def
/FontType 3 def
/Encoding [ /lambda /omega /m /R /c ] def
/FontInfo 10 dict dup begin
/FamilyName (cmmi10) def
/FullName (cmmi10) def
/Notice (Copyright (C) 1994, Basil K. Malyshev. All Rights Reserved.012BaKoMa Fonts Collection, Level-B. ) def
/Weight (Regular) def
/Version (1.1/12-Nov-94) def
/ItalicAngle 0.0 def
/isFixedPitch false def
/UnderlinePosition -133 def
/UnderlineThickness 20 def
end readonly def
/CharStrings 5 dict dup begin
/lambda{{583 0 51 -12 550 694 _sc
51 17 _m
51 27 55 36 64 45 _c
345 321 _l
246 599 _l
238 620 229 637 221 649 _c
212 661 200 668 184 668 _c
176 668 173 672 173 681 _c
173 685 175 688 178 690 _c
180 692 184 694 188 694 _c
258 694 300 673 315 632 _c
518 65 _l
526 36 535 17 545 8 _c
548 2 550 0 550 -1 _c
550 -7 547 -10 542 -10 _c
488 -10 _l
471 -5 458 8 448 32 _c
}_e{357 288 _l
115 4 _l
103 -6 92 -12 83 -12 _c
74 -12 66 -9 60 -4 _c
54 1 51 8 51 17 _c
_cl}_e}_d
/omega{{622 0 14 -10 605 443 _sc
121 -10 _m
83 -10 55 3 39 31 _c
22 58 14 92 14 132 _c
14 158 16 183 21 209 _c
25 234 32 260 42 286 _c
52 312 63 336 75 359 _c
87 381 101 403 117 425 _c
120 429 124 431 129 431 _c
133 431 136 429 139 427 _c
141 424 143 421 143 418 _c
143 414 142 411 140 408 _c
79 324 49 247 49 177 _c
49 146 56 120 70 98 _c
}_e{84 76 105 65 135 65 _c
159 65 182 72 204 87 _c
225 101 244 120 260 143 _c
260 155 262 173 266 198 _c
270 222 276 244 285 264 _c
293 283 304 293 316 293 _c
331 293 339 284 339 266 _c
339 255 336 242 332 226 _c
328 210 323 196 318 182 _c
312 168 306 153 298 136 _c
306 88 329 65 369 65 _c
392 65 415 71 439 85 _c
462 98 482 115 500 137 _c
}_e{518 159 532 182 542 207 _c
552 232 558 256 558 279 _c
558 299 554 314 548 326 _c
542 337 533 349 523 361 _c
513 373 508 383 508 391 _c
508 404 513 416 524 427 _c
535 437 547 443 560 443 _c
576 443 587 435 594 420 _c
601 405 605 388 605 370 _c
605 339 598 300 586 254 _c
574 208 560 169 545 138 _c
523 96 496 60 464 32 _c
432 4 395 -10 355 -10 _c
}_e{329 -10 308 -2 292 12 _c
276 27 266 48 262 75 _c
243 49 222 28 198 13 _c
174 -2 149 -10 121 -10 _c
_cl}_e}_d
/m{{878 0 27 -10 851 442 _sc
77 17 _m
77 21 77 24 78 26 _c
153 324 _l
157 342 160 359 160 373 _c
160 401 150 416 131 416 _c
110 416 94 403 84 378 _c
74 353 64 322 55 284 _c
55 282 54 280 52 279 _c
50 278 48 278 47 278 _c
35 278 _l
33 278 31 279 29 281 _c
27 283 27 286 27 288 _c
34 317 41 342 48 362 _c
54 382 65 400 79 417 _c
}_e{93 433 110 442 132 442 _c
156 442 178 434 198 418 _c
217 402 227 382 227 358 _c
247 384 270 404 297 419 _c
323 434 352 442 382 442 _c
413 442 440 434 463 418 _c
486 402 498 379 498 349 _c
518 378 542 401 570 417 _c
597 433 627 442 660 442 _c
694 442 722 432 743 414 _c
764 395 775 368 775 334 _c
775 306 768 273 756 235 _c
744 196 729 153 711 105 _c
}_e{701 81 697 61 697 45 _c
697 25 704 15 720 15 _c
746 15 767 29 785 57 _c
802 85 814 115 822 147 _c
824 151 826 153 830 153 _c
842 153 _l
844 153 846 152 848 150 _c
850 148 851 146 851 144 _c
851 143 850 142 850 141 _c
840 103 824 68 802 37 _c
780 5 752 -10 718 -10 _c
694 -10 674 -2 658 13 _c
641 29 633 48 633 72 _c
633 83 635 96 641 111 _c
}_e{659 161 675 205 688 245 _c
700 284 707 319 707 349 _c
707 367 703 383 696 396 _c
688 409 676 416 658 416 _c
622 416 590 404 563 382 _c
536 360 513 330 494 294 _c
492 287 491 282 491 279 _c
427 22 _l
424 12 419 5 411 -1 _c
403 -7 394 -10 385 -10 _c
377 -10 370 -7 364 -3 _c
358 1 355 8 355 17 _c
355 21 355 24 356 26 _c
420 281 _l
426 308 430 331 430 349 _c
}_e{430 367 426 383 418 396 _c
410 409 398 416 380 416 _c
355 416 332 410 312 400 _c
292 389 274 375 259 357 _c
243 339 229 318 217 294 _c
149 22 _l
147 12 142 5 134 -1 _c
126 -7 117 -10 107 -10 _c
99 -10 92 -7 86 -3 _c
80 1 77 8 77 17 _c
_cl}_e}_d
/R{{759 0 39 -21 755 683 _sc
49 0 _m
42 0 39 4 39 13 _c
39 15 40 18 41 22 _c
41 26 43 29 45 31 _c
47 33 49 35 52 35 _c
92 35 121 37 137 42 _c
145 44 152 53 156 69 _c
293 618 _l
294 624 295 629 295 632 _c
295 639 291 643 283 644 _c
270 646 246 648 211 648 _c
204 648 201 652 201 661 _c
201 663 202 666 203 670 _c
204 674 205 677 207 679 _c
}_e{209 681 211 683 214 683 _c
517 683 _l
541 683 566 680 592 675 _c
618 669 642 661 664 649 _c
686 637 704 621 718 601 _c
732 581 739 558 739 532 _c
739 498 727 468 705 442 _c
683 416 655 394 621 376 _c
587 358 555 346 523 339 _c
549 329 570 314 587 294 _c
603 273 612 249 612 222 _c
612 218 611 216 611 214 _c
611 212 611 210 611 208 _c
603 119 _l
602 106 601 95 601 86 _c
}_e{600 76 600 69 600 64 _c
600 46 602 31 608 20 _c
613 9 624 4 640 4 _c
660 4 679 13 695 33 _c
711 52 721 73 726 96 _c
728 102 732 105 736 105 _c
745 105 _l
751 105 755 100 755 92 _c
750 72 742 54 732 37 _c
721 19 707 5 691 -5 _c
675 -15 657 -21 639 -21 _c
600 -21 567 -12 539 4 _c
511 21 498 48 498 86 _c
498 100 499 112 502 123 _c
524 212 _l
}_e{526 220 528 229 528 240 _c
528 268 518 289 500 305 _c
481 321 457 329 429 329 _c
306 329 _l
240 65 _l
238 59 238 55 238 51 _c
238 44 242 40 250 39 _c
262 36 286 35 322 35 _c
328 35 332 30 332 22 _c
330 12 328 6 327 4 _c
325 1 321 0 315 0 _c
49 0 _l
312 355 _m
423 355 _l
495 355 550 373 587 410 _c
603 427 617 449 627 475 _c
}_e{637 501 642 527 642 553 _c
642 577 634 597 620 611 _c
606 625 588 634 567 640 _c
545 645 522 648 496 648 _c
429 648 _l
411 648 399 646 393 643 _c
387 640 381 630 377 614 _c
312 355 _l
_cl}_e}_d
/c{{432 0 40 -10 430 442 _sc
117 119 _m
117 90 124 65 139 45 _c
154 25 175 15 203 15 _c
243 15 281 24 318 42 _c
354 60 384 86 407 118 _c
409 120 411 121 415 121 _c
418 121 421 119 425 115 _c
428 111 430 108 430 105 _c
430 102 429 100 428 99 _c
404 65 371 38 330 19 _c
288 0 245 -10 201 -10 _c
169 -10 140 -2 116 12 _c
92 26 73 46 60 72 _c
}_e{46 97 40 126 40 158 _c
40 203 52 248 77 292 _c
102 336 135 372 177 400 _c
219 428 263 442 309 442 _c
339 442 366 434 390 420 _c
414 405 426 384 426 356 _c
426 338 420 322 410 309 _c
399 296 385 290 367 290 _c
356 290 347 293 340 300 _c
332 306 329 315 329 326 _c
329 342 334 355 346 366 _c
357 377 370 383 386 383 _c
388 383 _l
380 394 368 402 354 408 _c
}_e{339 413 324 416 308 416 _c
269 416 235 399 206 366 _c
176 332 154 292 139 246 _c
124 200 117 157 117 119 _c
_cl}_e}_d
end readonly def

/BuildGlyph
 {exch begin
 CharStrings exch
 2 copy known not{pop /.notdef}if
 true 3 1 roll get exec
 end}_d

/BuildChar {
 1 index /Encoding get exch get
 1 index /BuildGlyph get exec
}_d

FontName currentdict end definefont pop
%!PS-Adobe-3.0 Resource-Font
%%Title: cmex10
%%Copyright: Copyright (C) 1994, Basil K. Malyshev. All Rights Reserved.012BaKoMa Fonts Collection, Level-B.
%%Creator: Converted from TrueType to type 3 by PPR
25 dict begin
/_d{bind def}bind def
/_m{moveto}_d
/_l{lineto}_d
/_cl{closepath eofill}_d
/_c{curveto}_d
/_sc{7 -1 roll{setcachedevice}{pop pop pop pop pop pop}ifelse}_d
/_e{exec}_d
/FontName /Cmex10 def
/PaintType 0 def
/FontMatrix[.001 0 0 .001 0 0]def
/FontBBox[-24 -2960 1454 772]def
/FontType 3 def
/Encoding [ /bracketleftbig /bracketrightbig ] def
/FontInfo 10 dict dup begin
/FamilyName (cmex10) def
/FullName (cmex10) def
/Notice (Copyright (C) 1994, Basil K. Malyshev. All Rights Reserved.012BaKoMa Fonts Collection, Level-B. ) def
/Weight (Regular) def
/Version (1.1/12-Nov-94) def
/ItalicAngle 0.0 def
/isFixedPitch false def
/UnderlinePosition -133 def
/UnderlineThickness 20 def
end readonly def
/CharStrings 2 dict dup begin
/bracketleftbig{416 0 202 -1158 394 40 _sc
202 -1158 _m
202 40 _l
394 40 _l
394 0 _l
242 0 _l
242 -1118 _l
394 -1118 _l
394 -1158 _l
202 -1158 _l
_cl}_d
/bracketrightbig{416 0 22 -1158 214 40 _sc
22 -1158 _m
22 -1118 _l
174 -1118 _l
174 0 _l
22 0 _l
22 40 _l
214 40 _l
214 -1158 _l
22 -1158 _l
_cl}_d
end readonly def

/BuildGlyph
 {exch begin
 CharStrings exch
 2 copy known not{pop /.notdef}if
 true 3 1 roll get exec
 end}_d

/BuildChar {
 1 index /Encoding get exch get
 1 index /BuildGlyph get exec
}_d

FontName currentdict end definefont pop
%!PS-Adobe-3.0 Resource-Font
%%Title: cmr10
%%Copyright: Copyright (C) 1994, Basil K. Malyshev. All Rights Reserved.012BaKoMa Fonts Collection, Level-B.
%%Creator: Converted from TrueType to type 3 by PPR
25 dict begin
/_d{bind def}bind def
/_m{moveto}_d
/_l{lineto}_d
/_cl{closepath eofill}_d
/_c{curveto}_d
/_sc{7 -1 roll{setcachedevice}{pop pop pop pop pop pop}ifelse}_d
/_e{exec}_d
/FontName /Cmr10 def
/PaintType 0 def
/FontMatrix[.001 0 0 .001 0 0]def
/FontBBox[-44 -250 1009 750]def
/FontType 3 def
/Encoding [ /zero /two /parenright /one /parenleft ] def
/FontInfo 10 dict dup begin
/FamilyName (cmr10) def
/FullName (cmr10) def
/Notice (Copyright (C) 1994, Basil K. Malyshev. All Rights Reserved.012BaKoMa Fonts Collection, Level-B. ) def
/Weight (Regular) def
/Version (1.1/12-Nov-94) def
/ItalicAngle 0.0 def
/isFixedPitch false def
/UnderlinePosition -133 def
/UnderlineThickness 20 def
end readonly def
/CharStrings 5 dict dup begin
/zero{{500 0 39 -21 460 666 _sc
250 -21 _m
168 -21 112 12 83 79 _c
53 146 39 226 39 319 _c
39 377 44 431 55 482 _c
65 533 86 576 118 612 _c
149 648 193 666 250 666 _c
294 666 330 655 358 634 _c
386 612 407 585 422 551 _c
436 517 446 480 452 441 _c
457 402 460 361 460 319 _c
460 261 454 208 444 158 _c
433 108 412 65 381 31 _c
350 -3 306 -21 250 -21 _c
250 4 _m
}_e{287 4 315 23 333 61 _c
351 99 362 141 366 187 _c
370 233 373 283 373 335 _c
373 385 370 431 366 473 _c
362 515 351 554 333 588 _c
315 622 287 640 250 640 _c
212 640 184 622 166 588 _c
148 554 136 515 132 473 _c
128 431 126 385 126 335 _c
126 297 126 262 128 230 _c
130 197 135 163 143 128 _c
151 93 163 64 181 40 _c
198 16 221 4 250 4 _c
_cl}_e}_d
/two{{500 0 50 0 449 666 _sc
50 0 _m
50 27 _l
50 28 50 30 52 32 _c
207 204 _l
230 229 249 250 264 268 _c
278 285 293 305 307 327 _c
321 349 333 372 341 396 _c
349 419 354 444 354 470 _c
354 497 349 523 339 548 _c
329 573 314 593 294 608 _c
274 623 249 631 221 631 _c
192 631 166 622 143 605 _c
119 587 103 565 94 537 _c
96 537 100 538 105 538 _c
}_e{119 538 132 533 143 523 _c
153 513 159 500 159 484 _c
159 468 153 455 143 445 _c
132 434 119 429 105 429 _c
89 429 76 434 66 445 _c
55 456 50 469 50 484 _c
50 508 54 532 64 554 _c
73 576 86 595 104 613 _c
122 630 142 643 164 652 _c
186 661 210 666 236 666 _c
274 666 309 658 342 642 _c
375 626 401 603 420 573 _c
439 543 449 509 449 470 _c
}_e{449 441 442 414 430 388 _c
417 362 401 338 381 317 _c
361 295 336 271 305 244 _c
274 217 254 199 244 190 _c
131 81 _l
227 81 _l
274 81 313 81 345 82 _c
377 82 394 84 396 86 _c
404 94 412 125 420 178 _c
449 178 _l
421 0 _l
50 0 _l
_cl}_e}_d
/parenright{{388 0 56 -249 291 750 _sc
65 -249 _m
59 -249 56 -246 56 -240 _c
56 -237 56 -235 58 -234 _c
172 -122 229 38 229 250 _c
229 462 172 623 60 733 _c
57 734 56 737 56 741 _c
56 743 57 745 59 747 _c
61 749 63 750 65 750 _c
74 750 _l
76 750 77 749 79 748 _c
127 710 167 664 199 610 _c
231 556 254 498 269 437 _c
283 376 291 314 291 250 _c
291 202 287 156 279 110 _c
}_e{271 64 258 20 241 -24 _c
223 -68 201 -108 175 -146 _c
148 -184 116 -217 79 -247 _c
77 -248 76 -249 74 -249 _c
65 -249 _l
_cl}_e}_d
/one{500 0 87 0 421 666 _sc
93 0 _m
93 35 _l
176 35 218 45 218 67 _c
218 592 _l
183 575 139 567 87 567 _c
87 602 _l
168 602 230 623 272 666 _c
286 666 _l
288 666 291 665 293 663 _c
295 661 296 659 296 657 _c
296 67 _l
296 45 337 35 421 35 _c
421 0 _l
93 0 _l
_cl}_d
/parenleft{{388 0 97 -249 332 750 _sc
310 -247 _m
272 -217 240 -184 214 -146 _c
187 -108 165 -67 148 -25 _c
131 17 118 62 110 109 _c
101 155 97 202 97 250 _c
97 298 101 345 110 392 _c
118 438 131 483 149 527 _c
166 570 188 611 215 649 _c
242 687 274 720 310 748 _c
310 749 311 750 315 750 _c
324 750 _l
326 750 327 749 329 747 _c
331 745 332 743 332 741 _c
332 738 331 736 330 735 _c
}_e{297 703 270 668 248 632 _c
226 596 209 557 196 516 _c
183 474 174 432 168 388 _c
162 344 159 298 159 250 _c
159 38 215 -122 329 -232 _c
331 -234 332 -236 332 -240 _c
332 -242 331 -244 329 -246 _c
327 -248 326 -249 324 -249 _c
315 -249 _l
311 -249 310 -248 310 -247 _c
_cl}_e}_d
end readonly def

/BuildGlyph
 {exch begin
 CharStrings exch
 2 copy known not{pop /.notdef}if
 true 3 1 roll get exec
 end}_d

/BuildChar {
 1 index /Encoding get exch get
 1 index /BuildGlyph get exec
}_d

FontName currentdict end definefont pop
%!PS-Adobe-3.0 Resource-Font
%%Title: Bitstream Vera Sans
%%Copyright: Copyright (c) 2003 by Bitstream, Inc. All Rights Reserved.
%%Creator: Converted from TrueType to type 3 by PPR
25 dict begin
/_d{bind def}bind def
/_m{moveto}_d
/_l{lineto}_d
/_cl{closepath eofill}_d
/_c{curveto}_d
/_sc{7 -1 roll{setcachedevice}{pop pop pop pop pop pop}ifelse}_d
/_e{exec}_d
/FontName /BitstreamVeraSans-Roman def
/PaintType 0 def
/FontMatrix[.001 0 0 .001 0 0]def
/FontBBox[-183 -236 1287 928]def
/FontType 3 def
/Encoding [ /space /hyphen /zero /one /two /three /four /five /six /seven /eight /nine /a /e /f /i /l /n /r /u ] def
/FontInfo 10 dict dup begin
/FamilyName (Bitstream Vera Sans) def
/FullName (Bitstream Vera Sans) def
/Notice (Copyright (c) 2003 by Bitstream, Inc. All Rights Reserved. Bitstream Vera is a trademark of Bitstream, Inc.) def
/Weight (Roman) def
/Version (Release 1.10) def
/ItalicAngle 0.0 def
/isFixedPitch false def
/UnderlinePosition -213 def
/UnderlineThickness 143 def
end readonly def
/CharStrings 20 dict dup begin
/space{318 0 0 0 0 0 _sc
}_d
/hyphen{361 0 49 234 312 314 _sc
49 314 _m
312 314 _l
312 234 _l
49 234 _l
49 314 _l
_cl}_d
/zero{636 0 66 -13 570 742 _sc
318 664 _m
267 664 229 639 203 589 _c
177 539 165 464 165 364 _c
165 264 177 189 203 139 _c
229 89 267 64 318 64 _c
369 64 407 89 433 139 _c
458 189 471 264 471 364 _c
471 464 458 539 433 589 _c
407 639 369 664 318 664 _c
318 742 _m
399 742 461 709 505 645 _c
548 580 570 486 570 364 _c
570 241 548 147 505 83 _c
461 19 399 -13 318 -13 _c
236 -13 173 19 130 83 _c
87 147 66 241 66 364 _c
66 486 87 580 130 645 _c
173 709 236 742 318 742 _c
_cl}_d
/one{636 0 110 0 544 729 _sc
124 83 _m
285 83 _l
285 639 _l
110 604 _l
110 694 _l
284 729 _l
383 729 _l
383 83 _l
544 83 _l
544 0 _l
124 0 _l
124 83 _l
_cl}_d
/two{{636 0 73 0 536 742 _sc
192 83 _m
536 83 _l
536 0 _l
73 0 _l
73 83 _l
110 121 161 173 226 239 _c
290 304 331 346 348 365 _c
380 400 402 430 414 455 _c
426 479 433 504 433 528 _c
433 566 419 598 392 622 _c
365 646 330 659 286 659 _c
255 659 222 653 188 643 _c
154 632 117 616 78 594 _c
78 694 _l
118 710 155 722 189 730 _c
223 738 255 742 284 742 _c
}_e{359 742 419 723 464 685 _c
509 647 532 597 532 534 _c
532 504 526 475 515 449 _c
504 422 484 390 454 354 _c
446 344 420 317 376 272 _c
332 227 271 164 192 83 _c
_cl}_e}_d
/three{{636 0 76 -13 556 742 _sc
406 393 _m
453 383 490 362 516 330 _c
542 298 556 258 556 212 _c
556 140 531 84 482 45 _c
432 6 362 -13 271 -13 _c
240 -13 208 -10 176 -4 _c
144 1 110 10 76 22 _c
76 117 _l
103 101 133 89 166 81 _c
198 73 232 69 268 69 _c
330 69 377 81 409 105 _c
441 129 458 165 458 212 _c
458 254 443 288 413 312 _c
383 336 341 349 287 349 _c
}_e{202 349 _l
202 430 _l
291 430 _l
339 430 376 439 402 459 _c
428 478 441 506 441 543 _c
441 580 427 609 401 629 _c
374 649 336 659 287 659 _c
260 659 231 656 200 650 _c
169 644 135 635 98 623 _c
98 711 _l
135 721 170 729 203 734 _c
235 739 266 742 296 742 _c
370 742 429 725 473 691 _c
517 657 539 611 539 553 _c
539 513 527 479 504 451 _c
481 423 448 403 406 393 _c
_cl}_e}_d
/four{636 0 49 0 580 729 _sc
378 643 _m
129 254 _l
378 254 _l
378 643 _l
352 729 _m
476 729 _l
476 254 _l
580 254 _l
580 172 _l
476 172 _l
476 0 _l
378 0 _l
378 172 _l
49 172 _l
49 267 _l
352 729 _l
_cl}_d
/five{{636 0 77 -13 549 729 _sc
108 729 _m
495 729 _l
495 646 _l
198 646 _l
198 467 _l
212 472 227 476 241 478 _c
255 480 270 482 284 482 _c
365 482 429 459 477 415 _c
525 370 549 310 549 234 _c
549 155 524 94 475 51 _c
426 8 357 -13 269 -13 _c
238 -13 207 -10 175 -6 _c
143 -1 111 6 77 17 _c
77 116 _l
106 100 136 88 168 80 _c
199 72 232 69 267 69 _c
}_e{323 69 368 83 401 113 _c
433 143 450 183 450 234 _c
450 284 433 324 401 354 _c
368 384 323 399 267 399 _c
241 399 214 396 188 390 _c
162 384 135 375 108 363 _c
108 729 _l
_cl}_e}_d
/six{{636 0 70 -13 573 742 _sc
330 404 _m
286 404 251 388 225 358 _c
199 328 186 286 186 234 _c
186 181 199 139 225 109 _c
251 79 286 64 330 64 _c
374 64 409 79 435 109 _c
461 139 474 181 474 234 _c
474 286 461 328 435 358 _c
409 388 374 404 330 404 _c
526 713 _m
526 623 _l
501 635 476 644 451 650 _c
425 656 400 659 376 659 _c
310 659 260 637 226 593 _c
}_e{192 549 172 482 168 394 _c
187 422 211 444 240 459 _c
269 474 301 482 336 482 _c
409 482 467 459 509 415 _c
551 371 573 310 573 234 _c
573 159 550 99 506 54 _c
462 9 403 -13 330 -13 _c
246 -13 181 19 137 83 _c
92 147 70 241 70 364 _c
70 479 97 571 152 639 _c
206 707 280 742 372 742 _c
396 742 421 739 447 735 _c
472 730 498 723 526 713 _c
_cl}_e}_d
/seven{636 0 82 0 551 729 _sc
82 729 _m
551 729 _l
551 687 _l
286 0 _l
183 0 _l
432 646 _l
82 646 _l
82 729 _l
_cl}_d
/eight{{636 0 68 -13 568 742 _sc
318 346 _m
271 346 234 333 207 308 _c
180 283 167 249 167 205 _c
167 161 180 126 207 101 _c
234 76 271 64 318 64 _c
364 64 401 76 428 102 _c
455 127 469 161 469 205 _c
469 249 455 283 429 308 _c
402 333 365 346 318 346 _c
219 388 _m
177 398 144 418 120 447 _c
96 476 85 511 85 553 _c
85 611 105 657 147 691 _c
188 725 245 742 318 742 _c
}_e{390 742 447 725 489 691 _c
530 657 551 611 551 553 _c
551 511 539 476 515 447 _c
491 418 459 398 417 388 _c
464 377 501 355 528 323 _c
554 291 568 251 568 205 _c
568 134 546 80 503 43 _c
459 5 398 -13 318 -13 _c
237 -13 175 5 132 43 _c
89 80 68 134 68 205 _c
68 251 81 291 108 323 _c
134 355 171 377 219 388 _c
183 544 _m
183 506 194 476 218 455 _c
}_e{242 434 275 424 318 424 _c
360 424 393 434 417 455 _c
441 476 453 506 453 544 _c
453 582 441 611 417 632 _c
393 653 360 664 318 664 _c
275 664 242 653 218 632 _c
194 611 183 582 183 544 _c
_cl}_e}_d
/nine{{636 0 63 -13 566 742 _sc
110 15 _m
110 105 _l
134 93 159 84 185 78 _c
210 72 235 69 260 69 _c
324 69 374 90 408 134 _c
442 178 462 244 468 334 _c
448 306 424 284 396 269 _c
367 254 335 247 300 247 _c
226 247 168 269 126 313 _c
84 357 63 417 63 494 _c
63 568 85 628 129 674 _c
173 719 232 742 306 742 _c
390 742 455 709 499 645 _c
543 580 566 486 566 364 _c
}_e{566 248 538 157 484 89 _c
429 21 356 -13 264 -13 _c
239 -13 214 -10 189 -6 _c
163 -2 137 5 110 15 _c
306 324 _m
350 324 385 339 411 369 _c
437 399 450 441 450 494 _c
450 546 437 588 411 618 _c
385 648 350 664 306 664 _c
262 664 227 648 201 618 _c
175 588 162 546 162 494 _c
162 441 175 399 201 369 _c
227 339 262 324 306 324 _c
_cl}_e}_d
/a{{613 0 60 -13 522 560 _sc
343 275 _m
270 275 220 266 192 250 _c
164 233 150 205 150 165 _c
150 133 160 107 181 89 _c
202 70 231 61 267 61 _c
317 61 357 78 387 114 _c
417 149 432 196 432 255 _c
432 275 _l
343 275 _l
522 312 _m
522 0 _l
432 0 _l
432 83 _l
411 49 385 25 355 10 _c
325 -5 287 -13 243 -13 _c
187 -13 142 2 109 33 _c
76 64 60 106 60 159 _c
}_e{60 220 80 266 122 298 _c
163 329 224 345 306 345 _c
432 345 _l
432 354 _l
432 395 418 427 391 450 _c
364 472 326 484 277 484 _c
245 484 215 480 185 472 _c
155 464 127 453 100 439 _c
100 522 _l
132 534 164 544 195 550 _c
226 556 256 560 286 560 _c
365 560 424 539 463 498 _c
502 457 522 395 522 312 _c
_cl}_e}_d
/e{{615 0 55 -13 562 560 _sc
562 296 _m
562 252 _l
149 252 _l
153 190 171 142 205 110 _c
238 78 284 62 344 62 _c
378 62 412 66 444 74 _c
476 82 509 95 541 113 _c
541 28 _l
509 14 476 3 442 -3 _c
408 -9 373 -13 339 -13 _c
251 -13 182 12 131 62 _c
80 112 55 181 55 268 _c
55 357 79 428 127 481 _c
175 533 241 560 323 560 _c
397 560 455 536 498 489 _c
}_e{540 441 562 377 562 296 _c
472 322 _m
471 371 457 410 431 440 _c
404 469 368 484 324 484 _c
274 484 234 469 204 441 _c
174 413 156 373 152 322 _c
472 322 _l
_cl}_e}_d
/f{352 0 23 0 371 760 _sc
371 760 _m
371 685 _l
285 685 _l
253 685 230 678 218 665 _c
205 652 199 629 199 595 _c
199 547 _l
347 547 _l
347 477 _l
199 477 _l
199 0 _l
109 0 _l
109 477 _l
23 477 _l
23 547 _l
109 547 _l
109 585 _l
109 645 123 690 151 718 _c
179 746 224 760 286 760 _c
371 760 _l
_cl}_d
/i{278 0 94 0 184 760 _sc
94 547 _m
184 547 _l
184 0 _l
94 0 _l
94 547 _l
94 760 _m
184 760 _l
184 646 _l
94 646 _l
94 760 _l
_cl}_d
/l{278 0 94 0 184 760 _sc
94 760 _m
184 760 _l
184 0 _l
94 0 _l
94 760 _l
_cl}_d
/n{634 0 91 0 549 560 _sc
549 330 _m
549 0 _l
459 0 _l
459 327 _l
459 379 448 417 428 443 _c
408 469 378 482 338 482 _c
289 482 251 466 223 435 _c
195 404 181 362 181 309 _c
181 0 _l
91 0 _l
91 547 _l
181 547 _l
181 462 _l
202 494 227 519 257 535 _c
286 551 320 560 358 560 _c
420 560 468 540 500 501 _c
532 462 549 405 549 330 _c
_cl}_d
/r{411 0 91 0 411 560 _sc
411 463 _m
401 469 390 473 378 476 _c
366 478 353 480 339 480 _c
288 480 249 463 222 430 _c
194 397 181 350 181 288 _c
181 0 _l
91 0 _l
91 547 _l
181 547 _l
181 462 _l
199 495 224 520 254 536 _c
284 552 321 560 365 560 _c
371 560 378 559 386 559 _c
393 558 401 557 411 555 _c
411 463 _l
_cl}_d
/u{634 0 85 -13 543 547 _sc
85 216 _m
85 547 _l
175 547 _l
175 219 _l
175 167 185 129 205 103 _c
225 77 255 64 296 64 _c
344 64 383 79 411 110 _c
439 141 453 183 453 237 _c
453 547 _l
543 547 _l
543 0 _l
453 0 _l
453 84 _l
431 50 405 26 377 10 _c
348 -5 315 -13 277 -13 _c
214 -13 166 6 134 45 _c
101 83 85 140 85 216 _c
_cl}_d
end readonly def

/BuildGlyph
 {exch begin
 CharStrings exch
 2 copy known not{pop /.notdef}if
 true 3 1 roll get exec
 end}_d

/BuildChar {
 1 index /Encoding get exch get
 1 index /BuildGlyph get exec
}_d

FontName currentdict end definefont pop
end
%%EndProlog
mpldict begin
18 180 translate
576 432 0 0 clipbox
100000 setmiterlimit
gsave
0 0 m
576 0 l
576 432 l
0 432 l
cl
1.000 setgray
fill
grestore
gsave
82.464127 68.933491 m
563.04 68.933491 l
563.04 410.1525 l
82.464127 410.1525 l
cl
1.000 setgray
fill
grestore
1.500 setlinewidth
0 setlinejoin
0 setlinecap
[] 0 setdash
0.000 setgray
gsave
480.6 341.2 82.46 68.93 clipbox
378.716377 312.661355 m
310.062681 312.661355 l
310.062681 263.915782 l
378.716377 312.661355 l
cl
stroke
grestore
1.000 setlinewidth
gsave
480.6 341.2 82.46 68.93 clipbox
495.356948 68.933491 m
495.356948 410.1525 l
563.04 410.1525 l
563.04 68.933491 l
cl
  << /PatternType 1
     /PaintType 2
     /TilingType 2
     /BBox[0 0 72 72]
     /XStep 72
     /YStep 72

     /PaintProc {
        pop
        0 setlinewidth
-36 36 m
36 108 l
-24 24 m
48 96 l
-12 12 m
60 84 l
0 0 m
72 72 l
12 -12 m
84 60 l
24 -24 m
96 48 l
36 -36 m
108 36 l
-36 36 m
36 -36 l
-24 48 m
48 -24 l
-12 60 m
60 -12 l
0 72 m
72 0 l
12 84 m
84 12 l
24 96 m
96 24 l
36 108 m
108 36 l
          stroke
     } bind
   >>
   matrix
   makepattern
   /H0 exch def
gsave
[/Pattern [/DeviceRGB]] setcolorspace 0.000000 0.000000 0.000000 H0 setcolor fill grestore
stroke
grestore
2.500 setlinewidth
1 setlinejoin
2 setlinecap
0.545 0.000 0.000 setrgbcolor
gsave
480.6 341.2 82.46 68.93 clipbox
82.464127 87.890742 m
87.318463 89.522421 l
92.172737 89.522421 l
97.027017 87.890742 l
101.88133 89.522421 l
106.735639 90.935847 l
111.589925 90.935847 l
116.444247 93.297814 l
121.298434 95.247265 l
126.15288 96.876149 l
131.007117 98.928324 l
135.8614 101.162391 l
140.715738 103.820059 l
145.570017 106.862988 l
150.424352 109.683715 l
155.278644 112.787435 l
160.13293 116.082347 l
164.987267 119.249729 l
169.841546 122.586604 l
174.69585 125.976761 l
179.550152 129.307996 l
184.404475 132.69099 l
189.258652 136.139084 l
194.113 139.543508 l
198.967427 142.973686 l
203.821734 146.406955 l
208.67592 149.83442 l
213.530243 153.274228 l
218.384624 156.715149 l
223.238859 160.157953 l
228.093153 163.601597 l
232.947491 167.046386 l
237.801756 170.49109 l
242.656066 173.936366 l
247.510373 177.38268 l
252.364682 180.82863 l
257.21906 184.274722 l
262.073202 187.720941 l
266.927584 191.167492 l
271.78189 194.614068 l
276.636268 198.060647 l
281.490515 201.507186 l
286.3448 204.953766 l
291.199135 208.400398 l
296.053411 211.847007 l
300.907684 215.293617 l
305.762015 218.740289 l
310.616297 222.186932 l
315.470614 225.633604 l
320.324915 229.080269 l
325.179191 232.526927 l
330.033635 235.973716 l
334.887754 239.420287 l
339.742065 242.867014 l
344.596426 246.313802 l
349.45071 249.760569 l
354.305044 253.20742 l
359.159311 256.654291 l
364.013623 260.101285 l
368.867898 263.54838 l
373.722259 266.995712 l
378.576548 270.443238 l
383.430816 273.891085 l
388.285145 277.339445 l
393.139415 280.788409 l
397.993695 284.238277 l
402.848114 287.689483 l
407.702286 291.142231 l
412.556616 294.597463 l
417.410948 298.055979 l
422.265302 301.519045 l
427.119577 304.988312 l
431.973851 308.466205 l
436.82818 311.956008 l
441.682468 315.462071 l
446.536763 318.990409 l
451.391067 322.549035 l
456.245368 326.148497 l
461.099671 329.80237 l
465.954002 333.527402 l
470.808189 337.342597 l
475.662573 341.267072 l
480.516911 345.312949 l
485.371218 348.904765 l
490.225508 332.696387 l
495.079746 346.424444 l
499.934072 356.67626 l
504.788362 362.894781 l
509.642671 367.699286 l
514.496973 371.779772 l
519.351288 375.397682 l
524.205569 378.657121 l
529.059883 381.587308 l
533.91417 384.17481 l
538.768571 386.379865 l
543.622746 388.147357 l
548.477059 389.41832 l
553.331359 390.141416 l
558.185695 390.284858 l
563.04 389.844834 l
stroke
grestore
0.500 setlinewidth
0 setlinecap
0.000 setgray
gsave
480.6 341.2 82.46 68.93 clipbox
/o {
gsave
newpath
translate
0.5 setlinewidth
1 setlinejoin
0 setlinecap
0 -3 m
0.795609 -3 1.55874 -2.683901 2.12132 -2.12132 c
2.683901 -1.55874 3 -0.795609 3 0 c
3 0.795609 2.683901 1.55874 2.12132 2.12132 c
1.55874 2.683901 0.795609 3 0 3 c
-0.795609 3 -1.55874 2.683901 -2.12132 2.12132 c
-2.683901 1.55874 -3 0.795609 -3 0 c
-3 -0.795609 -2.683901 -1.55874 -2.12132 -2.12132 c
-1.55874 -2.683901 -0.795609 -3 0 -3 c
cl

gsave
0.545 0.000 0.000 setrgbcolor
fill
grestore
stroke
grestore
} bind def
82.4641 87.8907 o
87.3185 89.5224 o
92.1727 89.5224 o
97.027 87.8907 o
101.881 89.5224 o
106.736 90.9358 o
111.59 90.9358 o
116.444 93.2978 o
121.298 95.2473 o
126.153 96.8761 o
131.007 98.9283 o
135.861 101.162 o
140.716 103.82 o
145.57 106.863 o
150.424 109.684 o
155.279 112.787 o
160.133 116.082 o
164.987 119.25 o
169.842 122.587 o
174.696 125.977 o
179.55 129.308 o
184.404 132.691 o
189.259 136.139 o
194.113 139.544 o
198.967 142.974 o
203.822 146.407 o
208.676 149.834 o
213.53 153.274 o
218.385 156.715 o
223.239 160.158 o
228.093 163.602 o
232.947 167.046 o
237.802 170.491 o
242.656 173.936 o
247.51 177.383 o
252.365 180.829 o
257.219 184.275 o
262.073 187.721 o
266.928 191.167 o
271.782 194.614 o
276.636 198.061 o
281.491 201.507 o
286.345 204.954 o
291.199 208.4 o
296.053 211.847 o
300.908 215.294 o
305.762 218.74 o
310.616 222.187 o
315.471 225.634 o
320.325 229.08 o
325.179 232.527 o
330.034 235.974 o
334.888 239.42 o
339.742 242.867 o
344.596 246.314 o
349.451 249.761 o
354.305 253.207 o
359.159 256.654 o
364.014 260.101 o
368.868 263.548 o
373.722 266.996 o
378.577 270.443 o
383.431 273.891 o
388.285 277.339 o
393.139 280.788 o
397.994 284.238 o
402.848 287.689 o
407.702 291.142 o
412.557 294.597 o
417.411 298.056 o
422.265 301.519 o
427.12 304.988 o
431.974 308.466 o
436.828 311.956 o
441.682 315.462 o
446.537 318.99 o
451.391 322.549 o
456.245 326.148 o
461.1 329.802 o
465.954 333.527 o
470.808 337.343 o
475.663 341.267 o
480.517 345.313 o
485.371 348.905 o
490.226 332.696 o
495.08 346.424 o
499.934 356.676 o
504.788 362.895 o
509.643 367.699 o
514.497 371.78 o
519.351 375.398 o
524.206 378.657 o
529.06 381.587 o
533.914 384.175 o
538.769 386.38 o
543.623 388.147 o
548.477 389.418 o
553.331 390.141 o
558.186 390.285 o
563.04 389.845 o
grestore
2.500 setlinewidth
[1 3] 0 setdash
0.000 0.392 0.000 setrgbcolor
gsave
480.6 341.2 82.46 68.93 clipbox
82.464127 100.646508 m
87.318463 89.555971 l
92.172737 97.605318 l
97.027017 102.574418 l
101.88133 106.258352 l
106.735639 107.715761 l
111.589925 110.757853 l
116.444247 114.055286 l
121.298434 115.184416 l
126.15288 117.573717 l
131.007117 119.696083 l
135.8614 122.97984 l
140.715738 125.582068 l
145.570017 128.72751 l
150.424352 131.698285 l
155.278644 134.861956 l
160.13293 138.35167 l
164.987267 141.772986 l
169.841546 145.126002 l
174.69585 148.580759 l
179.550152 152.051244 l
184.404475 155.450472 l
189.258652 158.888932 l
194.113 162.32997 l
198.967427 165.761799 l
203.821734 169.213138 l
208.67592 172.653388 l
213.530243 176.10448 l
218.384624 179.550873 l
223.238859 182.995694 l
228.093153 186.442099 l
232.947491 189.888796 l
237.801756 193.334658 l
242.656066 196.78113 l
247.510373 200.2273 l
252.364682 203.673993 l
257.21906 207.120622 l
262.073202 210.567341 l
266.927584 214.01394 l
271.78189 217.460456 l
276.636268 220.907044 l
281.490515 224.353672 l
286.3448 227.800343 l
291.199135 231.247035 l
296.053411 234.693694 l
300.907684 238.140381 l
305.762015 241.58711 l
310.616297 245.033833 l
315.470614 248.480594 l
320.324915 251.927405 l
325.179191 255.374259 l
330.033635 258.821313 l
334.887754 262.268258 l
339.742065 265.715499 l
344.596426 269.162994 l
349.45071 272.610744 l
354.305044 276.058954 l
359.159311 279.507706 l
364.013623 282.957305 l
368.867898 286.408006 l
373.722259 289.860329 l
378.576548 293.314762 l
383.430816 296.772166 l
388.285145 300.233743 l
393.139415 303.700977 l
397.993695 307.176082 l
402.848114 310.662115 l
407.702286 314.162849 l
412.556616 317.684073 l
417.410948 321.233075 l
422.265302 324.819696 l
427.119577 328.456639 l
431.973851 332.160036 l
436.82818 335.948997 l
441.682468 339.843718 l
446.536763 343.860968 l
451.391067 348.004071 l
456.245368 340.844247 l
461.099671 341.412687 l
465.954002 354.781845 l
470.808189 361.808685 l
475.662573 367.078215 l
480.516911 371.556496 l
485.371218 375.603154 l
490.225508 379.380086 l
495.079746 382.962596 l
499.934072 386.378134 l
504.788362 389.618923 l
509.642671 392.652013 l
514.496973 393.19323 l
519.351288 325.34145 l
524.205569 341.144503 l
529.059883 344.93026 l
533.91417 353.764996 l
538.768571 348.673458 l
543.622746 345.470352 l
548.477059 361.958965 l
553.331359 364.599371 l
558.185695 365.269263 l
563.04 351.808738 l
stroke
grestore
0.500 setlinewidth
[] 0 setdash
0.000 setgray
gsave
480.6 341.2 82.46 68.93 clipbox
/o {
gsave
newpath
translate
0.5 setlinewidth
1 setlinejoin
0 setlinecap
0 -3 m
0.795609 -3 1.55874 -2.683901 2.12132 -2.12132 c
2.683901 -1.55874 3 -0.795609 3 0 c
3 0.795609 2.683901 1.55874 2.12132 2.12132 c
1.55874 2.683901 0.795609 3 0 3 c
-0.795609 3 -1.55874 2.683901 -2.12132 2.12132 c
-2.683901 1.55874 -3 0.795609 -3 0 c
-3 -0.795609 -2.683901 -1.55874 -2.12132 -2.12132 c
-1.55874 -2.683901 -0.795609 -3 0 -3 c
cl

gsave
0.000 0.392 0.000 setrgbcolor
fill
grestore
stroke
grestore
} bind def
82.4641 100.647 o
87.3185 89.556 o
92.1727 97.6053 o
97.027 102.574 o
101.881 106.258 o
106.736 107.716 o
111.59 110.758 o
116.444 114.055 o
121.298 115.184 o
126.153 117.574 o
131.007 119.696 o
135.861 122.98 o
140.716 125.582 o
145.57 128.728 o
150.424 131.698 o
155.279 134.862 o
160.133 138.352 o
164.987 141.773 o
169.842 145.126 o
174.696 148.581 o
179.55 152.051 o
184.404 155.45 o
189.259 158.889 o
194.113 162.33 o
198.967 165.762 o
203.822 169.213 o
208.676 172.653 o
213.53 176.104 o
218.385 179.551 o
223.239 182.996 o
228.093 186.442 o
232.947 189.889 o
237.802 193.335 o
242.656 196.781 o
247.51 200.227 o
252.365 203.674 o
257.219 207.121 o
262.073 210.567 o
266.928 214.014 o
271.782 217.46 o
276.636 220.907 o
281.491 224.354 o
286.345 227.8 o
291.199 231.247 o
296.053 234.694 o
300.908 238.14 o
305.762 241.587 o
310.616 245.034 o
315.471 248.481 o
320.325 251.927 o
325.179 255.374 o
330.034 258.821 o
334.888 262.268 o
339.742 265.715 o
344.596 269.163 o
349.451 272.611 o
354.305 276.059 o
359.159 279.508 o
364.014 282.957 o
368.868 286.408 o
373.722 289.86 o
378.577 293.315 o
383.431 296.772 o
388.285 300.234 o
393.139 303.701 o
397.994 307.176 o
402.848 310.662 o
407.702 314.163 o
412.557 317.684 o
417.411 321.233 o
422.265 324.82 o
427.12 328.457 o
431.974 332.16 o
436.828 335.949 o
441.682 339.844 o
446.537 343.861 o
451.391 348.004 o
456.245 340.844 o
461.1 341.413 o
465.954 354.782 o
470.808 361.809 o
475.663 367.078 o
480.517 371.556 o
485.371 375.603 o
490.226 379.38 o
495.08 382.963 o
499.934 386.378 o
504.788 389.619 o
509.643 392.652 o
514.497 393.193 o
519.351 325.341 o
524.206 341.145 o
529.06 344.93 o
533.914 353.765 o
538.769 348.673 o
543.623 345.47 o
548.477 361.959 o
553.331 364.599 o
558.186 365.269 o
563.04 351.809 o
grestore
1.000 setlinewidth
0 setlinejoin
2 setlinecap
gsave
82.464127 410.1525 m
563.04 410.1525 l
stroke
grestore
gsave
563.04 68.933491 m
563.04 410.1525 l
stroke
grestore
gsave
82.464127 68.933491 m
563.04 68.933491 l
stroke
grestore
gsave
82.464127 68.933491 m
82.464127 410.1525 l
stroke
grestore
0.500 setlinewidth
1 setlinejoin
0 setlinecap
[1 3] 0 setdash
gsave
480.6 341.2 82.46 68.93 clipbox
104.101592 68.933491 m
104.101592 410.1525 l
stroke
grestore
[] 0 setdash
gsave
/o {
gsave
newpath
translate
0.5 setlinewidth
1 setlinejoin
0 setlinecap
0 0 m
0 4 l

gsave
0.000 setgray
fill
grestore
stroke
grestore
} bind def
104.102 68.9335 o
grestore
gsave
/o {
gsave
newpath
translate
0.5 setlinewidth
1 setlinejoin
0 setlinecap
0 0 m
0 -4 l

gsave
0.000 setgray
fill
grestore
stroke
grestore
} bind def
104.102 410.153 o
grestore
gsave
89.101592 52.839741 translate
0.000000 rotate
/BitstreamVeraSans-Roman findfont
14.0 scalefont
setfont
0.000000 0.111563 moveto
/one glyphshow

8.907227 0.111563 moveto
/zero glyphshow

/BitstreamVeraSans-Roman findfont
9.8 scalefont
setfont
18.586203 6.726563 moveto
/hyphen glyphshow

22.122434 6.726563 moveto
/six glyphshow


grestore
[1 3] 0 setdash
gsave
480.6 341.2 82.46 68.93 clipbox
172.755289 68.933491 m
172.755289 410.1525 l
stroke
grestore
[] 0 setdash
gsave
/o {
gsave
newpath
translate
0.5 setlinewidth
1 setlinejoin
0 setlinecap
0 0 m
0 4 l

gsave
0.000 setgray
fill
grestore
stroke
grestore
} bind def
172.755 68.9335 o
grestore
gsave
/o {
gsave
newpath
translate
0.5 setlinewidth
1 setlinejoin
0 setlinecap
0 0 m
0 -4 l

gsave
0.000 setgray
fill
grestore
stroke
grestore
} bind def
172.755 410.153 o
grestore
gsave
157.755289 52.839741 translate
0.000000 rotate
/BitstreamVeraSans-Roman findfont
14.0 scalefont
setfont
0.000000 0.242812 moveto
/one glyphshow

8.907227 0.242812 moveto
/zero glyphshow

/BitstreamVeraSans-Roman findfont
9.8 scalefont
setfont
18.586203 6.857812 moveto
/hyphen glyphshow

22.122434 6.857812 moveto
/five glyphshow


grestore
[1 3] 0 setdash
gsave
480.6 341.2 82.46 68.93 clipbox
241.408985 68.933491 m
241.408985 410.1525 l
stroke
grestore
[] 0 setdash
gsave
/o {
gsave
newpath
translate
0.5 setlinewidth
1 setlinejoin
0 setlinecap
0 0 m
0 4 l

gsave
0.000 setgray
fill
grestore
stroke
grestore
} bind def
241.409 68.9335 o
grestore
gsave
/o {
gsave
newpath
translate
0.5 setlinewidth
1 setlinejoin
0 setlinecap
0 0 m
0 -4 l

gsave
0.000 setgray
fill
grestore
stroke
grestore
} bind def
241.409 410.153 o
grestore
gsave
226.408985 52.839741 translate
0.000000 rotate
/BitstreamVeraSans-Roman findfont
14.0 scalefont
setfont
0.000000 0.242812 moveto
/one glyphshow

8.907227 0.242812 moveto
/zero glyphshow

/BitstreamVeraSans-Roman findfont
9.8 scalefont
setfont
18.586203 6.857812 moveto
/hyphen glyphshow

22.122434 6.857812 moveto
/four glyphshow


grestore
[1 3] 0 setdash
gsave
480.6 341.2 82.46 68.93 clipbox
310.062681 68.933491 m
310.062681 410.1525 l
stroke
grestore
[] 0 setdash
gsave
/o {
gsave
newpath
translate
0.5 setlinewidth
1 setlinejoin
0 setlinecap
0 0 m
0 4 l

gsave
0.000 setgray
fill
grestore
stroke
grestore
} bind def
310.063 68.9335 o
grestore
gsave
/o {
gsave
newpath
translate
0.5 setlinewidth
1 setlinejoin
0 setlinecap
0 0 m
0 -4 l

gsave
0.000 setgray
fill
grestore
stroke
grestore
} bind def
310.063 410.153 o
grestore
gsave
295.062681 52.839741 translate
0.000000 rotate
/BitstreamVeraSans-Roman findfont
14.0 scalefont
setfont
0.000000 0.111563 moveto
/one glyphshow

8.907227 0.111563 moveto
/zero glyphshow

/BitstreamVeraSans-Roman findfont
9.8 scalefont
setfont
18.586203 6.726563 moveto
/hyphen glyphshow

22.122434 6.726563 moveto
/three glyphshow


grestore
[1 3] 0 setdash
gsave
480.6 341.2 82.46 68.93 clipbox
378.716377 68.933491 m
378.716377 410.1525 l
stroke
grestore
[] 0 setdash
gsave
/o {
gsave
newpath
translate
0.5 setlinewidth
1 setlinejoin
0 setlinecap
0 0 m
0 4 l

gsave
0.000 setgray
fill
grestore
stroke
grestore
} bind def
378.716 68.9335 o
grestore
gsave
/o {
gsave
newpath
translate
0.5 setlinewidth
1 setlinejoin
0 setlinecap
0 0 m
0 -4 l

gsave
0.000 setgray
fill
grestore
stroke
grestore
} bind def
378.716 410.153 o
grestore
gsave
363.716377 52.839741 translate
0.000000 rotate
/BitstreamVeraSans-Roman findfont
14.0 scalefont
setfont
0.000000 0.111563 moveto
/one glyphshow

8.907227 0.111563 moveto
/zero glyphshow

/BitstreamVeraSans-Roman findfont
9.8 scalefont
setfont
18.586203 6.726563 moveto
/hyphen glyphshow

22.122434 6.726563 moveto
/two glyphshow


grestore
[1 3] 0 setdash
gsave
480.6 341.2 82.46 68.93 clipbox
447.370073 68.933491 m
447.370073 410.1525 l
stroke
grestore
[] 0 setdash
gsave
/o {
gsave
newpath
translate
0.5 setlinewidth
1 setlinejoin
0 setlinecap
0 0 m
0 4 l

gsave
0.000 setgray
fill
grestore
stroke
grestore
} bind def
447.37 68.9335 o
grestore
gsave
/o {
gsave
newpath
translate
0.5 setlinewidth
1 setlinejoin
0 setlinecap
0 0 m
0 -4 l

gsave
0.000 setgray
fill
grestore
stroke
grestore
} bind def
447.37 410.153 o
grestore
gsave
432.370073 52.839741 translate
0.000000 rotate
/BitstreamVeraSans-Roman findfont
14.0 scalefont
setfont
0.000000 0.242812 moveto
/one glyphshow

8.907227 0.242812 moveto
/zero glyphshow

/BitstreamVeraSans-Roman findfont
9.8 scalefont
setfont
18.586203 6.857812 moveto
/hyphen glyphshow

22.122434 6.857812 moveto
/one glyphshow


grestore
[1 3] 0 setdash
gsave
480.6 341.2 82.46 68.93 clipbox
516.02377 68.933491 m
516.02377 410.1525 l
stroke
grestore
[] 0 setdash
gsave
/o {
gsave
newpath
translate
0.5 setlinewidth
1 setlinejoin
0 setlinecap
0 0 m
0 4 l

gsave
0.000 setgray
fill
grestore
stroke
grestore
} bind def
516.024 68.9335 o
grestore
gsave
/o {
gsave
newpath
translate
0.5 setlinewidth
1 setlinejoin
0 setlinecap
0 0 m
0 -4 l

gsave
0.000 setgray
fill
grestore
stroke
grestore
} bind def
516.024 410.153 o
grestore
gsave
503.023770 52.839741 translate
0.000000 rotate
/BitstreamVeraSans-Roman findfont
14.0 scalefont
setfont
0.000000 0.111563 moveto
/one glyphshow

8.907227 0.111563 moveto
/zero glyphshow

/BitstreamVeraSans-Roman findfont
9.8 scalefont
setfont
18.586203 6.726563 moveto
/zero glyphshow


grestore
gsave
/o {
gsave
newpath
translate
0.5 setlinewidth
1 setlinejoin
0 setlinecap
0 0 m
0 2 l

gsave
0.000 setgray
fill
grestore
stroke
grestore
} bind def
83.4348 68.9335 o
grestore
gsave
/o {
gsave
newpath
translate
0.5 setlinewidth
1 setlinejoin
0 setlinecap
0 0 m
0 -2 l

gsave
0.000 setgray
fill
grestore
stroke
grestore
} bind def
83.4348 410.153 o
grestore
gsave
/o {
gsave
newpath
translate
0.5 setlinewidth
1 setlinejoin
0 setlinecap
0 0 m
0 2 l

gsave
0.000 setgray
fill
grestore
stroke
grestore
} bind def
88.8709 68.9335 o
grestore
gsave
/o {
gsave
newpath
translate
0.5 setlinewidth
1 setlinejoin
0 setlinecap
0 0 m
0 -2 l

gsave
0.000 setgray
fill
grestore
stroke
grestore
} bind def
88.8709 410.153 o
grestore
gsave
/o {
gsave
newpath
translate
0.5 setlinewidth
1 setlinejoin
0 setlinecap
0 0 m
0 2 l

gsave
0.000 setgray
fill
grestore
stroke
grestore
} bind def
93.467 68.9335 o
grestore
gsave
/o {
gsave
newpath
translate
0.5 setlinewidth
1 setlinejoin
0 setlinecap
0 0 m
0 -2 l

gsave
0.000 setgray
fill
grestore
stroke
grestore
} bind def
93.467 410.153 o
grestore
gsave
/o {
gsave
newpath
translate
0.5 setlinewidth
1 setlinejoin
0 setlinecap
0 0 m
0 2 l

gsave
0.000 setgray
fill
grestore
stroke
grestore
} bind def
97.4484 68.9335 o
grestore
gsave
/o {
gsave
newpath
translate
0.5 setlinewidth
1 setlinejoin
0 setlinecap
0 0 m
0 -2 l

gsave
0.000 setgray
fill
grestore
stroke
grestore
} bind def
97.4484 410.153 o
grestore
gsave
/o {
gsave
newpath
translate
0.5 setlinewidth
1 setlinejoin
0 setlinecap
0 0 m
0 2 l

gsave
0.000 setgray
fill
grestore
stroke
grestore
} bind def
100.96 68.9335 o
grestore
gsave
/o {
gsave
newpath
translate
0.5 setlinewidth
1 setlinejoin
0 setlinecap
0 0 m
0 -2 l

gsave
0.000 setgray
fill
grestore
stroke
grestore
} bind def
100.96 410.153 o
grestore
gsave
/o {
gsave
newpath
translate
0.5 setlinewidth
1 setlinejoin
0 setlinecap
0 0 m
0 2 l

gsave
0.000 setgray
fill
grestore
stroke
grestore
} bind def
124.768 68.9335 o
grestore
gsave
/o {
gsave
newpath
translate
0.5 setlinewidth
1 setlinejoin
0 setlinecap
0 0 m
0 -2 l

gsave
0.000 setgray
fill
grestore
stroke
grestore
} bind def
124.768 410.153 o
grestore
gsave
/o {
gsave
newpath
translate
0.5 setlinewidth
1 setlinejoin
0 setlinecap
0 0 m
0 2 l

gsave
0.000 setgray
fill
grestore
stroke
grestore
} bind def
136.858 68.9335 o
grestore
gsave
/o {
gsave
newpath
translate
0.5 setlinewidth
1 setlinejoin
0 setlinecap
0 0 m
0 -2 l

gsave
0.000 setgray
fill
grestore
stroke
grestore
} bind def
136.858 410.153 o
grestore
gsave
/o {
gsave
newpath
translate
0.5 setlinewidth
1 setlinejoin
0 setlinecap
0 0 m
0 2 l

gsave
0.000 setgray
fill
grestore
stroke
grestore
} bind def
145.435 68.9335 o
grestore
gsave
/o {
gsave
newpath
translate
0.5 setlinewidth
1 setlinejoin
0 setlinecap
0 0 m
0 -2 l

gsave
0.000 setgray
fill
grestore
stroke
grestore
} bind def
145.435 410.153 o
grestore
gsave
/o {
gsave
newpath
translate
0.5 setlinewidth
1 setlinejoin
0 setlinecap
0 0 m
0 2 l

gsave
0.000 setgray
fill
grestore
stroke
grestore
} bind def
152.088 68.9335 o
grestore
gsave
/o {
gsave
newpath
translate
0.5 setlinewidth
1 setlinejoin
0 setlinecap
0 0 m
0 -2 l

gsave
0.000 setgray
fill
grestore
stroke
grestore
} bind def
152.088 410.153 o
grestore
gsave
/o {
gsave
newpath
translate
0.5 setlinewidth
1 setlinejoin
0 setlinecap
0 0 m
0 2 l

gsave
0.000 setgray
fill
grestore
stroke
grestore
} bind def
157.525 68.9335 o
grestore
gsave
/o {
gsave
newpath
translate
0.5 setlinewidth
1 setlinejoin
0 setlinecap
0 0 m
0 -2 l

gsave
0.000 setgray
fill
grestore
stroke
grestore
} bind def
157.525 410.153 o
grestore
gsave
/o {
gsave
newpath
translate
0.5 setlinewidth
1 setlinejoin
0 setlinecap
0 0 m
0 2 l

gsave
0.000 setgray
fill
grestore
stroke
grestore
} bind def
162.121 68.9335 o
grestore
gsave
/o {
gsave
newpath
translate
0.5 setlinewidth
1 setlinejoin
0 setlinecap
0 0 m
0 -2 l

gsave
0.000 setgray
fill
grestore
stroke
grestore
} bind def
162.121 410.153 o
grestore
gsave
/o {
gsave
newpath
translate
0.5 setlinewidth
1 setlinejoin
0 setlinecap
0 0 m
0 2 l

gsave
0.000 setgray
fill
grestore
stroke
grestore
} bind def
166.102 68.9335 o
grestore
gsave
/o {
gsave
newpath
translate
0.5 setlinewidth
1 setlinejoin
0 setlinecap
0 0 m
0 -2 l

gsave
0.000 setgray
fill
grestore
stroke
grestore
} bind def
166.102 410.153 o
grestore
gsave
/o {
gsave
newpath
translate
0.5 setlinewidth
1 setlinejoin
0 setlinecap
0 0 m
0 2 l

gsave
0.000 setgray
fill
grestore
stroke
grestore
} bind def
169.614 68.9335 o
grestore
gsave
/o {
gsave
newpath
translate
0.5 setlinewidth
1 setlinejoin
0 setlinecap
0 0 m
0 -2 l

gsave
0.000 setgray
fill
grestore
stroke
grestore
} bind def
169.614 410.153 o
grestore
gsave
/o {
gsave
newpath
translate
0.5 setlinewidth
1 setlinejoin
0 setlinecap
0 0 m
0 2 l

gsave
0.000 setgray
fill
grestore
stroke
grestore
} bind def
193.422 68.9335 o
grestore
gsave
/o {
gsave
newpath
translate
0.5 setlinewidth
1 setlinejoin
0 setlinecap
0 0 m
0 -2 l

gsave
0.000 setgray
fill
grestore
stroke
grestore
} bind def
193.422 410.153 o
grestore
gsave
/o {
gsave
newpath
translate
0.5 setlinewidth
1 setlinejoin
0 setlinecap
0 0 m
0 2 l

gsave
0.000 setgray
fill
grestore
stroke
grestore
} bind def
205.511 68.9335 o
grestore
gsave
/o {
gsave
newpath
translate
0.5 setlinewidth
1 setlinejoin
0 setlinecap
0 0 m
0 -2 l

gsave
0.000 setgray
fill
grestore
stroke
grestore
} bind def
205.511 410.153 o
grestore
gsave
/o {
gsave
newpath
translate
0.5 setlinewidth
1 setlinejoin
0 setlinecap
0 0 m
0 2 l

gsave
0.000 setgray
fill
grestore
stroke
grestore
} bind def
214.089 68.9335 o
grestore
gsave
/o {
gsave
newpath
translate
0.5 setlinewidth
1 setlinejoin
0 setlinecap
0 0 m
0 -2 l

gsave
0.000 setgray
fill
grestore
stroke
grestore
} bind def
214.089 410.153 o
grestore
gsave
/o {
gsave
newpath
translate
0.5 setlinewidth
1 setlinejoin
0 setlinecap
0 0 m
0 2 l

gsave
0.000 setgray
fill
grestore
stroke
grestore
} bind def
220.742 68.9335 o
grestore
gsave
/o {
gsave
newpath
translate
0.5 setlinewidth
1 setlinejoin
0 setlinecap
0 0 m
0 -2 l

gsave
0.000 setgray
fill
grestore
stroke
grestore
} bind def
220.742 410.153 o
grestore
gsave
/o {
gsave
newpath
translate
0.5 setlinewidth
1 setlinejoin
0 setlinecap
0 0 m
0 2 l

gsave
0.000 setgray
fill
grestore
stroke
grestore
} bind def
226.178 68.9335 o
grestore
gsave
/o {
gsave
newpath
translate
0.5 setlinewidth
1 setlinejoin
0 setlinecap
0 0 m
0 -2 l

gsave
0.000 setgray
fill
grestore
stroke
grestore
} bind def
226.178 410.153 o
grestore
gsave
/o {
gsave
newpath
translate
0.5 setlinewidth
1 setlinejoin
0 setlinecap
0 0 m
0 2 l

gsave
0.000 setgray
fill
grestore
stroke
grestore
} bind def
230.774 68.9335 o
grestore
gsave
/o {
gsave
newpath
translate
0.5 setlinewidth
1 setlinejoin
0 setlinecap
0 0 m
0 -2 l

gsave
0.000 setgray
fill
grestore
stroke
grestore
} bind def
230.774 410.153 o
grestore
gsave
/o {
gsave
newpath
translate
0.5 setlinewidth
1 setlinejoin
0 setlinecap
0 0 m
0 2 l

gsave
0.000 setgray
fill
grestore
stroke
grestore
} bind def
234.756 68.9335 o
grestore
gsave
/o {
gsave
newpath
translate
0.5 setlinewidth
1 setlinejoin
0 setlinecap
0 0 m
0 -2 l

gsave
0.000 setgray
fill
grestore
stroke
grestore
} bind def
234.756 410.153 o
grestore
gsave
/o {
gsave
newpath
translate
0.5 setlinewidth
1 setlinejoin
0 setlinecap
0 0 m
0 2 l

gsave
0.000 setgray
fill
grestore
stroke
grestore
} bind def
238.268 68.9335 o
grestore
gsave
/o {
gsave
newpath
translate
0.5 setlinewidth
1 setlinejoin
0 setlinecap
0 0 m
0 -2 l

gsave
0.000 setgray
fill
grestore
stroke
grestore
} bind def
238.268 410.153 o
grestore
gsave
/o {
gsave
newpath
translate
0.5 setlinewidth
1 setlinejoin
0 setlinecap
0 0 m
0 2 l

gsave
0.000 setgray
fill
grestore
stroke
grestore
} bind def
262.076 68.9335 o
grestore
gsave
/o {
gsave
newpath
translate
0.5 setlinewidth
1 setlinejoin
0 setlinecap
0 0 m
0 -2 l

gsave
0.000 setgray
fill
grestore
stroke
grestore
} bind def
262.076 410.153 o
grestore
gsave
/o {
gsave
newpath
translate
0.5 setlinewidth
1 setlinejoin
0 setlinecap
0 0 m
0 2 l

gsave
0.000 setgray
fill
grestore
stroke
grestore
} bind def
274.165 68.9335 o
grestore
gsave
/o {
gsave
newpath
translate
0.5 setlinewidth
1 setlinejoin
0 setlinecap
0 0 m
0 -2 l

gsave
0.000 setgray
fill
grestore
stroke
grestore
} bind def
274.165 410.153 o
grestore
gsave
/o {
gsave
newpath
translate
0.5 setlinewidth
1 setlinejoin
0 setlinecap
0 0 m
0 2 l

gsave
0.000 setgray
fill
grestore
stroke
grestore
} bind def
282.743 68.9335 o
grestore
gsave
/o {
gsave
newpath
translate
0.5 setlinewidth
1 setlinejoin
0 setlinecap
0 0 m
0 -2 l

gsave
0.000 setgray
fill
grestore
stroke
grestore
} bind def
282.743 410.153 o
grestore
gsave
/o {
gsave
newpath
translate
0.5 setlinewidth
1 setlinejoin
0 setlinecap
0 0 m
0 2 l

gsave
0.000 setgray
fill
grestore
stroke
grestore
} bind def
289.396 68.9335 o
grestore
gsave
/o {
gsave
newpath
translate
0.5 setlinewidth
1 setlinejoin
0 setlinecap
0 0 m
0 -2 l

gsave
0.000 setgray
fill
grestore
stroke
grestore
} bind def
289.396 410.153 o
grestore
gsave
/o {
gsave
newpath
translate
0.5 setlinewidth
1 setlinejoin
0 setlinecap
0 0 m
0 2 l

gsave
0.000 setgray
fill
grestore
stroke
grestore
} bind def
294.832 68.9335 o
grestore
gsave
/o {
gsave
newpath
translate
0.5 setlinewidth
1 setlinejoin
0 setlinecap
0 0 m
0 -2 l

gsave
0.000 setgray
fill
grestore
stroke
grestore
} bind def
294.832 410.153 o
grestore
gsave
/o {
gsave
newpath
translate
0.5 setlinewidth
1 setlinejoin
0 setlinecap
0 0 m
0 2 l

gsave
0.000 setgray
fill
grestore
stroke
grestore
} bind def
299.428 68.9335 o
grestore
gsave
/o {
gsave
newpath
translate
0.5 setlinewidth
1 setlinejoin
0 setlinecap
0 0 m
0 -2 l

gsave
0.000 setgray
fill
grestore
stroke
grestore
} bind def
299.428 410.153 o
grestore
gsave
/o {
gsave
newpath
translate
0.5 setlinewidth
1 setlinejoin
0 setlinecap
0 0 m
0 2 l

gsave
0.000 setgray
fill
grestore
stroke
grestore
} bind def
303.409 68.9335 o
grestore
gsave
/o {
gsave
newpath
translate
0.5 setlinewidth
1 setlinejoin
0 setlinecap
0 0 m
0 -2 l

gsave
0.000 setgray
fill
grestore
stroke
grestore
} bind def
303.409 410.153 o
grestore
gsave
/o {
gsave
newpath
translate
0.5 setlinewidth
1 setlinejoin
0 setlinecap
0 0 m
0 2 l

gsave
0.000 setgray
fill
grestore
stroke
grestore
} bind def
306.921 68.9335 o
grestore
gsave
/o {
gsave
newpath
translate
0.5 setlinewidth
1 setlinejoin
0 setlinecap
0 0 m
0 -2 l

gsave
0.000 setgray
fill
grestore
stroke
grestore
} bind def
306.921 410.153 o
grestore
gsave
/o {
gsave
newpath
translate
0.5 setlinewidth
1 setlinejoin
0 setlinecap
0 0 m
0 2 l

gsave
0.000 setgray
fill
grestore
stroke
grestore
} bind def
330.73 68.9335 o
grestore
gsave
/o {
gsave
newpath
translate
0.5 setlinewidth
1 setlinejoin
0 setlinecap
0 0 m
0 -2 l

gsave
0.000 setgray
fill
grestore
stroke
grestore
} bind def
330.73 410.153 o
grestore
gsave
/o {
gsave
newpath
translate
0.5 setlinewidth
1 setlinejoin
0 setlinecap
0 0 m
0 2 l

gsave
0.000 setgray
fill
grestore
stroke
grestore
} bind def
342.819 68.9335 o
grestore
gsave
/o {
gsave
newpath
translate
0.5 setlinewidth
1 setlinejoin
0 setlinecap
0 0 m
0 -2 l

gsave
0.000 setgray
fill
grestore
stroke
grestore
} bind def
342.819 410.153 o
grestore
gsave
/o {
gsave
newpath
translate
0.5 setlinewidth
1 setlinejoin
0 setlinecap
0 0 m
0 2 l

gsave
0.000 setgray
fill
grestore
stroke
grestore
} bind def
351.396 68.9335 o
grestore
gsave
/o {
gsave
newpath
translate
0.5 setlinewidth
1 setlinejoin
0 setlinecap
0 0 m
0 -2 l

gsave
0.000 setgray
fill
grestore
stroke
grestore
} bind def
351.396 410.153 o
grestore
gsave
/o {
gsave
newpath
translate
0.5 setlinewidth
1 setlinejoin
0 setlinecap
0 0 m
0 2 l

gsave
0.000 setgray
fill
grestore
stroke
grestore
} bind def
358.05 68.9335 o
grestore
gsave
/o {
gsave
newpath
translate
0.5 setlinewidth
1 setlinejoin
0 setlinecap
0 0 m
0 -2 l

gsave
0.000 setgray
fill
grestore
stroke
grestore
} bind def
358.05 410.153 o
grestore
gsave
/o {
gsave
newpath
translate
0.5 setlinewidth
1 setlinejoin
0 setlinecap
0 0 m
0 2 l

gsave
0.000 setgray
fill
grestore
stroke
grestore
} bind def
363.486 68.9335 o
grestore
gsave
/o {
gsave
newpath
translate
0.5 setlinewidth
1 setlinejoin
0 setlinecap
0 0 m
0 -2 l

gsave
0.000 setgray
fill
grestore
stroke
grestore
} bind def
363.486 410.153 o
grestore
gsave
/o {
gsave
newpath
translate
0.5 setlinewidth
1 setlinejoin
0 setlinecap
0 0 m
0 2 l

gsave
0.000 setgray
fill
grestore
stroke
grestore
} bind def
368.082 68.9335 o
grestore
gsave
/o {
gsave
newpath
translate
0.5 setlinewidth
1 setlinejoin
0 setlinecap
0 0 m
0 -2 l

gsave
0.000 setgray
fill
grestore
stroke
grestore
} bind def
368.082 410.153 o
grestore
gsave
/o {
gsave
newpath
translate
0.5 setlinewidth
1 setlinejoin
0 setlinecap
0 0 m
0 2 l

gsave
0.000 setgray
fill
grestore
stroke
grestore
} bind def
372.063 68.9335 o
grestore
gsave
/o {
gsave
newpath
translate
0.5 setlinewidth
1 setlinejoin
0 setlinecap
0 0 m
0 -2 l

gsave
0.000 setgray
fill
grestore
stroke
grestore
} bind def
372.063 410.153 o
grestore
gsave
/o {
gsave
newpath
translate
0.5 setlinewidth
1 setlinejoin
0 setlinecap
0 0 m
0 2 l

gsave
0.000 setgray
fill
grestore
stroke
grestore
} bind def
375.575 68.9335 o
grestore
gsave
/o {
gsave
newpath
translate
0.5 setlinewidth
1 setlinejoin
0 setlinecap
0 0 m
0 -2 l

gsave
0.000 setgray
fill
grestore
stroke
grestore
} bind def
375.575 410.153 o
grestore
gsave
/o {
gsave
newpath
translate
0.5 setlinewidth
1 setlinejoin
0 setlinecap
0 0 m
0 2 l

gsave
0.000 setgray
fill
grestore
stroke
grestore
} bind def
399.383 68.9335 o
grestore
gsave
/o {
gsave
newpath
translate
0.5 setlinewidth
1 setlinejoin
0 setlinecap
0 0 m
0 -2 l

gsave
0.000 setgray
fill
grestore
stroke
grestore
} bind def
399.383 410.153 o
grestore
gsave
/o {
gsave
newpath
translate
0.5 setlinewidth
1 setlinejoin
0 setlinecap
0 0 m
0 2 l

gsave
0.000 setgray
fill
grestore
stroke
grestore
} bind def
411.473 68.9335 o
grestore
gsave
/o {
gsave
newpath
translate
0.5 setlinewidth
1 setlinejoin
0 setlinecap
0 0 m
0 -2 l

gsave
0.000 setgray
fill
grestore
stroke
grestore
} bind def
411.473 410.153 o
grestore
gsave
/o {
gsave
newpath
translate
0.5 setlinewidth
1 setlinejoin
0 setlinecap
0 0 m
0 2 l

gsave
0.000 setgray
fill
grestore
stroke
grestore
} bind def
420.05 68.9335 o
grestore
gsave
/o {
gsave
newpath
translate
0.5 setlinewidth
1 setlinejoin
0 setlinecap
0 0 m
0 -2 l

gsave
0.000 setgray
fill
grestore
stroke
grestore
} bind def
420.05 410.153 o
grestore
gsave
/o {
gsave
newpath
translate
0.5 setlinewidth
1 setlinejoin
0 setlinecap
0 0 m
0 2 l

gsave
0.000 setgray
fill
grestore
stroke
grestore
} bind def
426.703 68.9335 o
grestore
gsave
/o {
gsave
newpath
translate
0.5 setlinewidth
1 setlinejoin
0 setlinecap
0 0 m
0 -2 l

gsave
0.000 setgray
fill
grestore
stroke
grestore
} bind def
426.703 410.153 o
grestore
gsave
/o {
gsave
newpath
translate
0.5 setlinewidth
1 setlinejoin
0 setlinecap
0 0 m
0 2 l

gsave
0.000 setgray
fill
grestore
stroke
grestore
} bind def
432.139 68.9335 o
grestore
gsave
/o {
gsave
newpath
translate
0.5 setlinewidth
1 setlinejoin
0 setlinecap
0 0 m
0 -2 l

gsave
0.000 setgray
fill
grestore
stroke
grestore
} bind def
432.139 410.153 o
grestore
gsave
/o {
gsave
newpath
translate
0.5 setlinewidth
1 setlinejoin
0 setlinecap
0 0 m
0 2 l

gsave
0.000 setgray
fill
grestore
stroke
grestore
} bind def
436.735 68.9335 o
grestore
gsave
/o {
gsave
newpath
translate
0.5 setlinewidth
1 setlinejoin
0 setlinecap
0 0 m
0 -2 l

gsave
0.000 setgray
fill
grestore
stroke
grestore
} bind def
436.735 410.153 o
grestore
gsave
/o {
gsave
newpath
translate
0.5 setlinewidth
1 setlinejoin
0 setlinecap
0 0 m
0 2 l

gsave
0.000 setgray
fill
grestore
stroke
grestore
} bind def
440.717 68.9335 o
grestore
gsave
/o {
gsave
newpath
translate
0.5 setlinewidth
1 setlinejoin
0 setlinecap
0 0 m
0 -2 l

gsave
0.000 setgray
fill
grestore
stroke
grestore
} bind def
440.717 410.153 o
grestore
gsave
/o {
gsave
newpath
translate
0.5 setlinewidth
1 setlinejoin
0 setlinecap
0 0 m
0 2 l

gsave
0.000 setgray
fill
grestore
stroke
grestore
} bind def
444.229 68.9335 o
grestore
gsave
/o {
gsave
newpath
translate
0.5 setlinewidth
1 setlinejoin
0 setlinecap
0 0 m
0 -2 l

gsave
0.000 setgray
fill
grestore
stroke
grestore
} bind def
444.229 410.153 o
grestore
gsave
/o {
gsave
newpath
translate
0.5 setlinewidth
1 setlinejoin
0 setlinecap
0 0 m
0 2 l

gsave
0.000 setgray
fill
grestore
stroke
grestore
} bind def
468.037 68.9335 o
grestore
gsave
/o {
gsave
newpath
translate
0.5 setlinewidth
1 setlinejoin
0 setlinecap
0 0 m
0 -2 l

gsave
0.000 setgray
fill
grestore
stroke
grestore
} bind def
468.037 410.153 o
grestore
gsave
/o {
gsave
newpath
translate
0.5 setlinewidth
1 setlinejoin
0 setlinecap
0 0 m
0 2 l

gsave
0.000 setgray
fill
grestore
stroke
grestore
} bind def
480.126 68.9335 o
grestore
gsave
/o {
gsave
newpath
translate
0.5 setlinewidth
1 setlinejoin
0 setlinecap
0 0 m
0 -2 l

gsave
0.000 setgray
fill
grestore
stroke
grestore
} bind def
480.126 410.153 o
grestore
gsave
/o {
gsave
newpath
translate
0.5 setlinewidth
1 setlinejoin
0 setlinecap
0 0 m
0 2 l

gsave
0.000 setgray
fill
grestore
stroke
grestore
} bind def
488.704 68.9335 o
grestore
gsave
/o {
gsave
newpath
translate
0.5 setlinewidth
1 setlinejoin
0 setlinecap
0 0 m
0 -2 l

gsave
0.000 setgray
fill
grestore
stroke
grestore
} bind def
488.704 410.153 o
grestore
gsave
/o {
gsave
newpath
translate
0.5 setlinewidth
1 setlinejoin
0 setlinecap
0 0 m
0 2 l

gsave
0.000 setgray
fill
grestore
stroke
grestore
} bind def
495.357 68.9335 o
grestore
gsave
/o {
gsave
newpath
translate
0.5 setlinewidth
1 setlinejoin
0 setlinecap
0 0 m
0 -2 l

gsave
0.000 setgray
fill
grestore
stroke
grestore
} bind def
495.357 410.153 o
grestore
gsave
/o {
gsave
newpath
translate
0.5 setlinewidth
1 setlinejoin
0 setlinecap
0 0 m
0 2 l

gsave
0.000 setgray
fill
grestore
stroke
grestore
} bind def
500.793 68.9335 o
grestore
gsave
/o {
gsave
newpath
translate
0.5 setlinewidth
1 setlinejoin
0 setlinecap
0 0 m
0 -2 l

gsave
0.000 setgray
fill
grestore
stroke
grestore
} bind def
500.793 410.153 o
grestore
gsave
/o {
gsave
newpath
translate
0.5 setlinewidth
1 setlinejoin
0 setlinecap
0 0 m
0 2 l

gsave
0.000 setgray
fill
grestore
stroke
grestore
} bind def
505.389 68.9335 o
grestore
gsave
/o {
gsave
newpath
translate
0.5 setlinewidth
1 setlinejoin
0 setlinecap
0 0 m
0 -2 l

gsave
0.000 setgray
fill
grestore
stroke
grestore
} bind def
505.389 410.153 o
grestore
gsave
/o {
gsave
newpath
translate
0.5 setlinewidth
1 setlinejoin
0 setlinecap
0 0 m
0 2 l

gsave
0.000 setgray
fill
grestore
stroke
grestore
} bind def
509.371 68.9335 o
grestore
gsave
/o {
gsave
newpath
translate
0.5 setlinewidth
1 setlinejoin
0 setlinecap
0 0 m
0 -2 l

gsave
0.000 setgray
fill
grestore
stroke
grestore
} bind def
509.371 410.153 o
grestore
gsave
/o {
gsave
newpath
translate
0.5 setlinewidth
1 setlinejoin
0 setlinecap
0 0 m
0 2 l

gsave
0.000 setgray
fill
grestore
stroke
grestore
} bind def
512.882 68.9335 o
grestore
gsave
/o {
gsave
newpath
translate
0.5 setlinewidth
1 setlinejoin
0 setlinecap
0 0 m
0 -2 l

gsave
0.000 setgray
fill
grestore
stroke
grestore
} bind def
512.882 410.153 o
grestore
gsave
/o {
gsave
newpath
translate
0.5 setlinewidth
1 setlinejoin
0 setlinecap
0 0 m
0 2 l

gsave
0.000 setgray
fill
grestore
stroke
grestore
} bind def
536.691 68.9335 o
grestore
gsave
/o {
gsave
newpath
translate
0.5 setlinewidth
1 setlinejoin
0 setlinecap
0 0 m
0 -2 l

gsave
0.000 setgray
fill
grestore
stroke
grestore
} bind def
536.691 410.153 o
grestore
gsave
/o {
gsave
newpath
translate
0.5 setlinewidth
1 setlinejoin
0 setlinecap
0 0 m
0 2 l

gsave
0.000 setgray
fill
grestore
stroke
grestore
} bind def
548.78 68.9335 o
grestore
gsave
/o {
gsave
newpath
translate
0.5 setlinewidth
1 setlinejoin
0 setlinecap
0 0 m
0 -2 l

gsave
0.000 setgray
fill
grestore
stroke
grestore
} bind def
548.78 410.153 o
grestore
gsave
/o {
gsave
newpath
translate
0.5 setlinewidth
1 setlinejoin
0 setlinecap
0 0 m
0 2 l

gsave
0.000 setgray
fill
grestore
stroke
grestore
} bind def
557.357 68.9335 o
grestore
gsave
/o {
gsave
newpath
translate
0.5 setlinewidth
1 setlinejoin
0 setlinecap
0 0 m
0 -2 l

gsave
0.000 setgray
fill
grestore
stroke
grestore
} bind def
557.357 410.153 o
grestore
gsave
308.252063 23.933491 translate
0.000000 rotate
/Cmmi10 findfont
14.5152 scalefont
setfont
0.000000 11.090625 moveto
/R glyphshow

/Cmr10 findfont
10.16064 scalefont
setfont
11.013112 8.622134 moveto
/zero glyphshow

/Cmmi10 findfont
14.5152 scalefont
setfont
17.018718 11.090625 moveto
/omega glyphshow

0.000000 3.216103 26.047485 1.296000 rectfill
10.000000 -4.489272 moveto
/c glyphshow


grestore
[1 3] 0 setdash
gsave
480.6 341.2 82.46 68.93 clipbox
82.464127 68.933491 m
563.04 68.933491 l
stroke
grestore
[] 0 setdash
gsave
/o {
gsave
newpath
translate
0.5 setlinewidth
1 setlinejoin
0 setlinecap
0 0 m
4 0 l

gsave
0.000 setgray
fill
grestore
stroke
grestore
} bind def
82.4641 68.9335 o
grestore
gsave
/o {
gsave
newpath
translate
0.5 setlinewidth
1 setlinejoin
0 setlinecap
0 0 m
-4 0 l

gsave
0.000 setgray
fill
grestore
stroke
grestore
} bind def
563.04 68.9335 o
grestore
gsave
42.464127 64.339741 translate
0.000000 rotate
/BitstreamVeraSans-Roman findfont
14.0 scalefont
setfont
0.000000 0.242812 moveto
/one glyphshow

8.907227 0.242812 moveto
/zero glyphshow

/BitstreamVeraSans-Roman findfont
9.8 scalefont
setfont
18.586203 6.857812 moveto
/hyphen glyphshow

22.122434 6.857812 moveto
/one glyphshow

28.357492 6.857812 moveto
/four glyphshow


grestore
[1 3] 0 setdash
gsave
480.6 341.2 82.46 68.93 clipbox
82.464127 93.306278 m
563.04 93.306278 l
stroke
grestore
[] 0 setdash
gsave
/o {
gsave
newpath
translate
0.5 setlinewidth
1 setlinejoin
0 setlinecap
0 0 m
4 0 l

gsave
0.000 setgray
fill
grestore
stroke
grestore
} bind def
82.4641 93.3063 o
grestore
gsave
/o {
gsave
newpath
translate
0.5 setlinewidth
1 setlinejoin
0 setlinecap
0 0 m
-4 0 l

gsave
0.000 setgray
fill
grestore
stroke
grestore
} bind def
563.04 93.3063 o
grestore
gsave
42.464127 88.712528 translate
0.000000 rotate
/BitstreamVeraSans-Roman findfont
14.0 scalefont
setfont
0.000000 0.111563 moveto
/one glyphshow

8.907227 0.111563 moveto
/zero glyphshow

/BitstreamVeraSans-Roman findfont
9.8 scalefont
setfont
18.586203 6.726563 moveto
/hyphen glyphshow

22.122434 6.726563 moveto
/one glyphshow

28.357492 6.726563 moveto
/three glyphshow


grestore
[1 3] 0 setdash
gsave
480.6 341.2 82.46 68.93 clipbox
82.464127 117.679064 m
563.04 117.679064 l
stroke
grestore
[] 0 setdash
gsave
/o {
gsave
newpath
translate
0.5 setlinewidth
1 setlinejoin
0 setlinecap
0 0 m
4 0 l

gsave
0.000 setgray
fill
grestore
stroke
grestore
} bind def
82.4641 117.679 o
grestore
gsave
/o {
gsave
newpath
translate
0.5 setlinewidth
1 setlinejoin
0 setlinecap
0 0 m
-4 0 l

gsave
0.000 setgray
fill
grestore
stroke
grestore
} bind def
563.04 117.679 o
grestore
gsave
42.464127 113.085314 translate
0.000000 rotate
/BitstreamVeraSans-Roman findfont
14.0 scalefont
setfont
0.000000 0.111563 moveto
/one glyphshow

8.907227 0.111563 moveto
/zero glyphshow

/BitstreamVeraSans-Roman findfont
9.8 scalefont
setfont
18.586203 6.726563 moveto
/hyphen glyphshow

22.122434 6.726563 moveto
/one glyphshow

28.357492 6.726563 moveto
/two glyphshow


grestore
[1 3] 0 setdash
gsave
480.6 341.2 82.46 68.93 clipbox
82.464127 142.05185 m
563.04 142.05185 l
stroke
grestore
[] 0 setdash
gsave
/o {
gsave
newpath
translate
0.5 setlinewidth
1 setlinejoin
0 setlinecap
0 0 m
4 0 l

gsave
0.000 setgray
fill
grestore
stroke
grestore
} bind def
82.4641 142.052 o
grestore
gsave
/o {
gsave
newpath
translate
0.5 setlinewidth
1 setlinejoin
0 setlinecap
0 0 m
-4 0 l

gsave
0.000 setgray
fill
grestore
stroke
grestore
} bind def
563.04 142.052 o
grestore
gsave
42.464127 137.458100 translate
0.000000 rotate
/BitstreamVeraSans-Roman findfont
14.0 scalefont
setfont
0.000000 0.242812 moveto
/one glyphshow

8.907227 0.242812 moveto
/zero glyphshow

/BitstreamVeraSans-Roman findfont
9.8 scalefont
setfont
18.586203 6.857812 moveto
/hyphen glyphshow

22.122434 6.857812 moveto
/one glyphshow

28.357492 6.857812 moveto
/one glyphshow


grestore
[1 3] 0 setdash
gsave
480.6 341.2 82.46 68.93 clipbox
82.464127 166.424637 m
563.04 166.424637 l
stroke
grestore
[] 0 setdash
gsave
/o {
gsave
newpath
translate
0.5 setlinewidth
1 setlinejoin
0 setlinecap
0 0 m
4 0 l

gsave
0.000 setgray
fill
grestore
stroke
grestore
} bind def
82.4641 166.425 o
grestore
gsave
/o {
gsave
newpath
translate
0.5 setlinewidth
1 setlinejoin
0 setlinecap
0 0 m
-4 0 l

gsave
0.000 setgray
fill
grestore
stroke
grestore
} bind def
563.04 166.425 o
grestore
gsave
42.464127 161.830887 translate
0.000000 rotate
/BitstreamVeraSans-Roman findfont
14.0 scalefont
setfont
0.000000 0.111563 moveto
/one glyphshow

8.907227 0.111563 moveto
/zero glyphshow

/BitstreamVeraSans-Roman findfont
9.8 scalefont
setfont
18.586203 6.726563 moveto
/hyphen glyphshow

22.122434 6.726563 moveto
/one glyphshow

28.357492 6.726563 moveto
/zero glyphshow


grestore
[1 3] 0 setdash
gsave
480.6 341.2 82.46 68.93 clipbox
82.464127 190.797423 m
563.04 190.797423 l
stroke
grestore
[] 0 setdash
gsave
/o {
gsave
newpath
translate
0.5 setlinewidth
1 setlinejoin
0 setlinecap
0 0 m
4 0 l

gsave
0.000 setgray
fill
grestore
stroke
grestore
} bind def
82.4641 190.797 o
grestore
gsave
/o {
gsave
newpath
translate
0.5 setlinewidth
1 setlinejoin
0 setlinecap
0 0 m
-4 0 l

gsave
0.000 setgray
fill
grestore
stroke
grestore
} bind def
563.04 190.797 o
grestore
gsave
48.464127 186.203673 translate
0.000000 rotate
/BitstreamVeraSans-Roman findfont
14.0 scalefont
setfont
0.000000 0.111563 moveto
/one glyphshow

8.907227 0.111563 moveto
/zero glyphshow

/BitstreamVeraSans-Roman findfont
9.8 scalefont
setfont
18.586203 6.726563 moveto
/hyphen glyphshow

22.122434 6.726563 moveto
/nine glyphshow


grestore
[1 3] 0 setdash
gsave
480.6 341.2 82.46 68.93 clipbox
82.464127 215.170209 m
563.04 215.170209 l
stroke
grestore
[] 0 setdash
gsave
/o {
gsave
newpath
translate
0.5 setlinewidth
1 setlinejoin
0 setlinecap
0 0 m
4 0 l

gsave
0.000 setgray
fill
grestore
stroke
grestore
} bind def
82.4641 215.17 o
grestore
gsave
/o {
gsave
newpath
translate
0.5 setlinewidth
1 setlinejoin
0 setlinecap
0 0 m
-4 0 l

gsave
0.000 setgray
fill
grestore
stroke
grestore
} bind def
563.04 215.17 o
grestore
gsave
48.464127 210.576459 translate
0.000000 rotate
/BitstreamVeraSans-Roman findfont
14.0 scalefont
setfont
0.000000 0.111563 moveto
/one glyphshow

8.907227 0.111563 moveto
/zero glyphshow

/BitstreamVeraSans-Roman findfont
9.8 scalefont
setfont
18.586203 6.726563 moveto
/hyphen glyphshow

22.122434 6.726563 moveto
/eight glyphshow


grestore
[1 3] 0 setdash
gsave
480.6 341.2 82.46 68.93 clipbox
82.464127 239.542996 m
563.04 239.542996 l
stroke
grestore
[] 0 setdash
gsave
/o {
gsave
newpath
translate
0.5 setlinewidth
1 setlinejoin
0 setlinecap
0 0 m
4 0 l

gsave
0.000 setgray
fill
grestore
stroke
grestore
} bind def
82.4641 239.543 o
grestore
gsave
/o {
gsave
newpath
translate
0.5 setlinewidth
1 setlinejoin
0 setlinecap
0 0 m
-4 0 l

gsave
0.000 setgray
fill
grestore
stroke
grestore
} bind def
563.04 239.543 o
grestore
gsave
48.464127 234.949246 translate
0.000000 rotate
/BitstreamVeraSans-Roman findfont
14.0 scalefont
setfont
0.000000 0.242812 moveto
/one glyphshow

8.907227 0.242812 moveto
/zero glyphshow

/BitstreamVeraSans-Roman findfont
9.8 scalefont
setfont
18.586203 6.857812 moveto
/hyphen glyphshow

22.122434 6.857812 moveto
/seven glyphshow


grestore
[1 3] 0 setdash
gsave
480.6 341.2 82.46 68.93 clipbox
82.464127 263.915782 m
563.04 263.915782 l
stroke
grestore
[] 0 setdash
gsave
/o {
gsave
newpath
translate
0.5 setlinewidth
1 setlinejoin
0 setlinecap
0 0 m
4 0 l

gsave
0.000 setgray
fill
grestore
stroke
grestore
} bind def
82.4641 263.916 o
grestore
gsave
/o {
gsave
newpath
translate
0.5 setlinewidth
1 setlinejoin
0 setlinecap
0 0 m
-4 0 l

gsave
0.000 setgray
fill
grestore
stroke
grestore
} bind def
563.04 263.916 o
grestore
gsave
48.464127 259.322032 translate
0.000000 rotate
/BitstreamVeraSans-Roman findfont
14.0 scalefont
setfont
0.000000 0.111563 moveto
/one glyphshow

8.907227 0.111563 moveto
/zero glyphshow

/BitstreamVeraSans-Roman findfont
9.8 scalefont
setfont
18.586203 6.726563 moveto
/hyphen glyphshow

22.122434 6.726563 moveto
/six glyphshow


grestore
[1 3] 0 setdash
gsave
480.6 341.2 82.46 68.93 clipbox
82.464127 288.288568 m
563.04 288.288568 l
stroke
grestore
[] 0 setdash
gsave
/o {
gsave
newpath
translate
0.5 setlinewidth
1 setlinejoin
0 setlinecap
0 0 m
4 0 l

gsave
0.000 setgray
fill
grestore
stroke
grestore
} bind def
82.4641 288.289 o
grestore
gsave
/o {
gsave
newpath
translate
0.5 setlinewidth
1 setlinejoin
0 setlinecap
0 0 m
-4 0 l

gsave
0.000 setgray
fill
grestore
stroke
grestore
} bind def
563.04 288.289 o
grestore
gsave
48.464127 283.694818 translate
0.000000 rotate
/BitstreamVeraSans-Roman findfont
14.0 scalefont
setfont
0.000000 0.242812 moveto
/one glyphshow

8.907227 0.242812 moveto
/zero glyphshow

/BitstreamVeraSans-Roman findfont
9.8 scalefont
setfont
18.586203 6.857812 moveto
/hyphen glyphshow

22.122434 6.857812 moveto
/five glyphshow


grestore
[1 3] 0 setdash
gsave
480.6 341.2 82.46 68.93 clipbox
82.464127 312.661355 m
563.04 312.661355 l
stroke
grestore
[] 0 setdash
gsave
/o {
gsave
newpath
translate
0.5 setlinewidth
1 setlinejoin
0 setlinecap
0 0 m
4 0 l

gsave
0.000 setgray
fill
grestore
stroke
grestore
} bind def
82.4641 312.661 o
grestore
gsave
/o {
gsave
newpath
translate
0.5 setlinewidth
1 setlinejoin
0 setlinecap
0 0 m
-4 0 l

gsave
0.000 setgray
fill
grestore
stroke
grestore
} bind def
563.04 312.661 o
grestore
gsave
48.464127 308.067605 translate
0.000000 rotate
/BitstreamVeraSans-Roman findfont
14.0 scalefont
setfont
0.000000 0.242812 moveto
/one glyphshow

8.907227 0.242812 moveto
/zero glyphshow

/BitstreamVeraSans-Roman findfont
9.8 scalefont
setfont
18.586203 6.857812 moveto
/hyphen glyphshow

22.122434 6.857812 moveto
/four glyphshow


grestore
[1 3] 0 setdash
gsave
480.6 341.2 82.46 68.93 clipbox
82.464127 337.034141 m
563.04 337.034141 l
stroke
grestore
[] 0 setdash
gsave
/o {
gsave
newpath
translate
0.5 setlinewidth
1 setlinejoin
0 setlinecap
0 0 m
4 0 l

gsave
0.000 setgray
fill
grestore
stroke
grestore
} bind def
82.4641 337.034 o
grestore
gsave
/o {
gsave
newpath
translate
0.5 setlinewidth
1 setlinejoin
0 setlinecap
0 0 m
-4 0 l

gsave
0.000 setgray
fill
grestore
stroke
grestore
} bind def
563.04 337.034 o
grestore
gsave
48.464127 332.440391 translate
0.000000 rotate
/BitstreamVeraSans-Roman findfont
14.0 scalefont
setfont
0.000000 0.111563 moveto
/one glyphshow

8.907227 0.111563 moveto
/zero glyphshow

/BitstreamVeraSans-Roman findfont
9.8 scalefont
setfont
18.586203 6.726563 moveto
/hyphen glyphshow

22.122434 6.726563 moveto
/three glyphshow


grestore
[1 3] 0 setdash
gsave
480.6 341.2 82.46 68.93 clipbox
82.464127 361.406927 m
563.04 361.406927 l
stroke
grestore
[] 0 setdash
gsave
/o {
gsave
newpath
translate
0.5 setlinewidth
1 setlinejoin
0 setlinecap
0 0 m
4 0 l

gsave
0.000 setgray
fill
grestore
stroke
grestore
} bind def
82.4641 361.407 o
grestore
gsave
/o {
gsave
newpath
translate
0.5 setlinewidth
1 setlinejoin
0 setlinecap
0 0 m
-4 0 l

gsave
0.000 setgray
fill
grestore
stroke
grestore
} bind def
563.04 361.407 o
grestore
gsave
48.464127 356.813177 translate
0.000000 rotate
/BitstreamVeraSans-Roman findfont
14.0 scalefont
setfont
0.000000 0.111563 moveto
/one glyphshow

8.907227 0.111563 moveto
/zero glyphshow

/BitstreamVeraSans-Roman findfont
9.8 scalefont
setfont
18.586203 6.726563 moveto
/hyphen glyphshow

22.122434 6.726563 moveto
/two glyphshow


grestore
[1 3] 0 setdash
gsave
480.6 341.2 82.46 68.93 clipbox
82.464127 385.779714 m
563.04 385.779714 l
stroke
grestore
[] 0 setdash
gsave
/o {
gsave
newpath
translate
0.5 setlinewidth
1 setlinejoin
0 setlinecap
0 0 m
4 0 l

gsave
0.000 setgray
fill
grestore
stroke
grestore
} bind def
82.4641 385.78 o
grestore
gsave
/o {
gsave
newpath
translate
0.5 setlinewidth
1 setlinejoin
0 setlinecap
0 0 m
-4 0 l

gsave
0.000 setgray
fill
grestore
stroke
grestore
} bind def
563.04 385.78 o
grestore
gsave
48.464127 381.185964 translate
0.000000 rotate
/BitstreamVeraSans-Roman findfont
14.0 scalefont
setfont
0.000000 0.242812 moveto
/one glyphshow

8.907227 0.242812 moveto
/zero glyphshow

/BitstreamVeraSans-Roman findfont
9.8 scalefont
setfont
18.586203 6.857812 moveto
/hyphen glyphshow

22.122434 6.857812 moveto
/one glyphshow


grestore
[1 3] 0 setdash
gsave
480.6 341.2 82.46 68.93 clipbox
82.464127 410.1525 m
563.04 410.1525 l
stroke
grestore
[] 0 setdash
gsave
/o {
gsave
newpath
translate
0.5 setlinewidth
1 setlinejoin
0 setlinecap
0 0 m
4 0 l

gsave
0.000 setgray
fill
grestore
stroke
grestore
} bind def
82.4641 410.152 o
grestore
gsave
/o {
gsave
newpath
translate
0.5 setlinewidth
1 setlinejoin
0 setlinecap
0 0 m
-4 0 l

gsave
0.000 setgray
fill
grestore
stroke
grestore
} bind def
563.04 410.152 o
grestore
gsave
52.464127 405.558750 translate
0.000000 rotate
/BitstreamVeraSans-Roman findfont
14.0 scalefont
setfont
0.000000 0.111563 moveto
/one glyphshow

8.907227 0.111563 moveto
/zero glyphshow

/BitstreamVeraSans-Roman findfont
9.8 scalefont
setfont
18.586203 6.726563 moveto
/zero glyphshow


grestore
gsave
/o {
gsave
newpath
translate
0.5 setlinewidth
1 setlinejoin
0 setlinecap
0 0 m
2 0 l

gsave
0.000 setgray
fill
grestore
stroke
grestore
} bind def
82.4641 68.9335 o
grestore
gsave
/o {
gsave
newpath
translate
0.5 setlinewidth
1 setlinejoin
0 setlinecap
0 0 m
-2 0 l

gsave
0.000 setgray
fill
grestore
stroke
grestore
} bind def
563.04 68.9335 o
grestore
gsave
/o {
gsave
newpath
translate
0.5 setlinewidth
1 setlinejoin
0 setlinecap
0 0 m
2 0 l

gsave
0.000 setgray
fill
grestore
stroke
grestore
} bind def
82.4641 93.3063 o
grestore
gsave
/o {
gsave
newpath
translate
0.5 setlinewidth
1 setlinejoin
0 setlinecap
0 0 m
-2 0 l

gsave
0.000 setgray
fill
grestore
stroke
grestore
} bind def
563.04 93.3063 o
grestore
gsave
/o {
gsave
newpath
translate
0.5 setlinewidth
1 setlinejoin
0 setlinecap
0 0 m
2 0 l

gsave
0.000 setgray
fill
grestore
stroke
grestore
} bind def
82.4641 117.679 o
grestore
gsave
/o {
gsave
newpath
translate
0.5 setlinewidth
1 setlinejoin
0 setlinecap
0 0 m
-2 0 l

gsave
0.000 setgray
fill
grestore
stroke
grestore
} bind def
563.04 117.679 o
grestore
gsave
/o {
gsave
newpath
translate
0.5 setlinewidth
1 setlinejoin
0 setlinecap
0 0 m
2 0 l

gsave
0.000 setgray
fill
grestore
stroke
grestore
} bind def
82.4641 142.052 o
grestore
gsave
/o {
gsave
newpath
translate
0.5 setlinewidth
1 setlinejoin
0 setlinecap
0 0 m
-2 0 l

gsave
0.000 setgray
fill
grestore
stroke
grestore
} bind def
563.04 142.052 o
grestore
gsave
/o {
gsave
newpath
translate
0.5 setlinewidth
1 setlinejoin
0 setlinecap
0 0 m
2 0 l

gsave
0.000 setgray
fill
grestore
stroke
grestore
} bind def
82.4641 166.425 o
grestore
gsave
/o {
gsave
newpath
translate
0.5 setlinewidth
1 setlinejoin
0 setlinecap
0 0 m
-2 0 l

gsave
0.000 setgray
fill
grestore
stroke
grestore
} bind def
563.04 166.425 o
grestore
gsave
/o {
gsave
newpath
translate
0.5 setlinewidth
1 setlinejoin
0 setlinecap
0 0 m
2 0 l

gsave
0.000 setgray
fill
grestore
stroke
grestore
} bind def
82.4641 190.797 o
grestore
gsave
/o {
gsave
newpath
translate
0.5 setlinewidth
1 setlinejoin
0 setlinecap
0 0 m
-2 0 l

gsave
0.000 setgray
fill
grestore
stroke
grestore
} bind def
563.04 190.797 o
grestore
gsave
/o {
gsave
newpath
translate
0.5 setlinewidth
1 setlinejoin
0 setlinecap
0 0 m
2 0 l

gsave
0.000 setgray
fill
grestore
stroke
grestore
} bind def
82.4641 215.17 o
grestore
gsave
/o {
gsave
newpath
translate
0.5 setlinewidth
1 setlinejoin
0 setlinecap
0 0 m
-2 0 l

gsave
0.000 setgray
fill
grestore
stroke
grestore
} bind def
563.04 215.17 o
grestore
gsave
/o {
gsave
newpath
translate
0.5 setlinewidth
1 setlinejoin
0 setlinecap
0 0 m
2 0 l

gsave
0.000 setgray
fill
grestore
stroke
grestore
} bind def
82.4641 239.543 o
grestore
gsave
/o {
gsave
newpath
translate
0.5 setlinewidth
1 setlinejoin
0 setlinecap
0 0 m
-2 0 l

gsave
0.000 setgray
fill
grestore
stroke
grestore
} bind def
563.04 239.543 o
grestore
gsave
/o {
gsave
newpath
translate
0.5 setlinewidth
1 setlinejoin
0 setlinecap
0 0 m
2 0 l

gsave
0.000 setgray
fill
grestore
stroke
grestore
} bind def
82.4641 263.916 o
grestore
gsave
/o {
gsave
newpath
translate
0.5 setlinewidth
1 setlinejoin
0 setlinecap
0 0 m
-2 0 l

gsave
0.000 setgray
fill
grestore
stroke
grestore
} bind def
563.04 263.916 o
grestore
gsave
/o {
gsave
newpath
translate
0.5 setlinewidth
1 setlinejoin
0 setlinecap
0 0 m
2 0 l

gsave
0.000 setgray
fill
grestore
stroke
grestore
} bind def
82.4641 288.289 o
grestore
gsave
/o {
gsave
newpath
translate
0.5 setlinewidth
1 setlinejoin
0 setlinecap
0 0 m
-2 0 l

gsave
0.000 setgray
fill
grestore
stroke
grestore
} bind def
563.04 288.289 o
grestore
gsave
/o {
gsave
newpath
translate
0.5 setlinewidth
1 setlinejoin
0 setlinecap
0 0 m
2 0 l

gsave
0.000 setgray
fill
grestore
stroke
grestore
} bind def
82.4641 312.661 o
grestore
gsave
/o {
gsave
newpath
translate
0.5 setlinewidth
1 setlinejoin
0 setlinecap
0 0 m
-2 0 l

gsave
0.000 setgray
fill
grestore
stroke
grestore
} bind def
563.04 312.661 o
grestore
gsave
/o {
gsave
newpath
translate
0.5 setlinewidth
1 setlinejoin
0 setlinecap
0 0 m
2 0 l

gsave
0.000 setgray
fill
grestore
stroke
grestore
} bind def
82.4641 337.034 o
grestore
gsave
/o {
gsave
newpath
translate
0.5 setlinewidth
1 setlinejoin
0 setlinecap
0 0 m
-2 0 l

gsave
0.000 setgray
fill
grestore
stroke
grestore
} bind def
563.04 337.034 o
grestore
gsave
/o {
gsave
newpath
translate
0.5 setlinewidth
1 setlinejoin
0 setlinecap
0 0 m
2 0 l

gsave
0.000 setgray
fill
grestore
stroke
grestore
} bind def
82.4641 361.407 o
grestore
gsave
/o {
gsave
newpath
translate
0.5 setlinewidth
1 setlinejoin
0 setlinecap
0 0 m
-2 0 l

gsave
0.000 setgray
fill
grestore
stroke
grestore
} bind def
563.04 361.407 o
grestore
gsave
/o {
gsave
newpath
translate
0.5 setlinewidth
1 setlinejoin
0 setlinecap
0 0 m
2 0 l

gsave
0.000 setgray
fill
grestore
stroke
grestore
} bind def
82.4641 385.78 o
grestore
gsave
/o {
gsave
newpath
translate
0.5 setlinewidth
1 setlinejoin
0 setlinecap
0 0 m
-2 0 l

gsave
0.000 setgray
fill
grestore
stroke
grestore
} bind def
563.04 385.78 o
grestore
gsave
/o {
gsave
newpath
translate
0.5 setlinewidth
1 setlinejoin
0 setlinecap
0 0 m
2 0 l

gsave
0.000 setgray
fill
grestore
stroke
grestore
} bind def
82.4641 410.152 o
grestore
gsave
/o {
gsave
newpath
translate
0.5 setlinewidth
1 setlinejoin
0 setlinecap
0 0 m
-2 0 l

gsave
0.000 setgray
fill
grestore
stroke
grestore
} bind def
563.04 410.152 o
grestore
gsave
32.464127 160.042996 translate
90.000000 rotate
/Cmsy10 findfont
17.28 scalefont
setfont
0.000000 0.320782 moveto
/bar glyphshow

/Cmr10 findfont
17.28 scalefont
setfont
4.780075 0.320782 moveto
/parenleft glyphshow

/Cmmi10 findfont
17.28 scalefont
setfont
11.482300 0.320782 moveto
/lambda glyphshow

/Cmr10 findfont
12.096 scalefont
setfont
23.550744 6.932813 moveto
/parenleft glyphshow

28.242301 6.932813 moveto
/one glyphshow

34.285270 6.932813 moveto
/parenright glyphshow

/Cmr10 findfont
17.28 scalefont
setfont
40.078832 0.320782 moveto
/parenright glyphshow

/Cmr10 findfont
12.096 scalefont
setfont
47.552460 6.932813 moveto
/two glyphshow

/Cmsy10 findfont
17.28 scalefont
setfont
57.729035 0.320782 moveto
/minus glyphshow

/Cmr10 findfont
17.28 scalefont
setfont
74.173524 0.320782 moveto
/parenleft glyphshow

/Cmmi10 findfont
17.28 scalefont
setfont
80.875748 0.320782 moveto
/lambda glyphshow

/Cmr10 findfont
12.096 scalefont
setfont
92.944192 6.932813 moveto
/parenleft glyphshow

97.635750 6.932813 moveto
/two glyphshow

103.678718 6.932813 moveto
/parenright glyphshow

/Cmr10 findfont
17.28 scalefont
setfont
109.472281 0.320782 moveto
/parenright glyphshow

/Cmr10 findfont
12.096 scalefont
setfont
116.945909 6.932813 moveto
/two glyphshow

/Cmsy10 findfont
17.28 scalefont
setfont
124.090883 0.320782 moveto
/bar glyphshow

/Cmex10 findfont
15.7906596226 scalefont
setfont
133.081548 14.229220 moveto
/bracketleftbig glyphshow

/Cmr10 findfont
12.096 scalefont
setfont
141.646795 6.801095 moveto
/one glyphshow

139.646795 2.481095 10.610603 1.080000 rectfill
/Cmmi10 findfont
12.096 scalefont
setfont
139.646795 -3.936405 moveto
/m glyphshow

/Cmex10 findfont
15.7906596226 scalefont
setfont
152.417398 14.229220 moveto
/bracketrightbig glyphshow


grestore
/BitstreamVeraSans-Roman findfont
12.000 scalefont
setfont
gsave
340.569217 322.473191 translate
0.000000 rotate
0.000000 0.000000 m /one glyphshow
grestore
gsave
292.124002 284.976068 translate
0.000000 rotate
0.000000 0.000000 m /two glyphshow
grestore
1.000 setlinewidth
0 setlinejoin
gsave
89.664127 356.2325 m
201.504127 356.2325 l
201.504127 402.9525 l
89.664127 402.9525 l
cl
gsave
1.000 setgray
fill
grestore
stroke
grestore
2.500 setlinewidth
1 setlinejoin
2 setlinecap
0.545 0.000 0.000 setrgbcolor
gsave
99.744127 391.2325 m
119.904127 391.2325 l
stroke
grestore
0.500 setlinewidth
0 setlinecap
0.000 setgray
gsave
/o {
gsave
newpath
translate
0.5 setlinewidth
1 setlinejoin
0 setlinecap
0 -3 m
0.795609 -3 1.55874 -2.683901 2.12132 -2.12132 c
2.683901 -1.55874 3 -0.795609 3 0 c
3 0.795609 2.683901 1.55874 2.12132 2.12132 c
1.55874 2.683901 0.795609 3 0 3 c
-0.795609 3 -1.55874 2.683901 -2.12132 2.12132 c
-2.683901 1.55874 -3 0.795609 -3 0 c
-3 -0.795609 -2.683901 -1.55874 -2.12132 -2.12132 c
-1.55874 -2.683901 -0.795609 -3 0 -3 c
cl

gsave
0.545 0.000 0.000 setrgbcolor
fill
grestore
stroke
grestore
} bind def
99.7441 391.232 o
119.904 391.232 o
grestore
gsave
135.744127 386.192500 translate
0.000000 rotate
/Cmmi10 findfont
14.4 scalefont
setfont
0.000000 0.359375 moveto
/lambda glyphshow

/Cmr10 findfont
10.08 scalefont
setfont
8.389847 -2.089525 moveto
/zero glyphshow

/BitstreamVeraSans-Roman findfont
14.4 scalefont
setfont
14.344903 0.359375 moveto
/space glyphshow

18.914300 0.359375 moveto
/l glyphshow

22.908135 0.359375 moveto
/i glyphshow

26.901971 0.359375 moveto
/n glyphshow

36.012689 0.359375 moveto
/e glyphshow

44.856683 0.359375 moveto
/a glyphshow

53.665582 0.359375 moveto
/r glyphshow


grestore
2.500 setlinewidth
[1 3] 0 setdash
0.000 0.392 0.000 setrgbcolor
gsave
99.744127 370.0325 m
119.904127 370.0325 l
stroke
grestore
0.500 setlinewidth
[] 0 setdash
0.000 setgray
gsave
/o {
gsave
newpath
translate
0.5 setlinewidth
1 setlinejoin
0 setlinecap
0 -3 m
0.795609 -3 1.55874 -2.683901 2.12132 -2.12132 c
2.683901 -1.55874 3 -0.795609 3 0 c
3 0.795609 2.683901 1.55874 2.12132 2.12132 c
1.55874 2.683901 0.795609 3 0 3 c
-0.795609 3 -1.55874 2.683901 -2.12132 2.12132 c
-2.683901 1.55874 -3 0.795609 -3 0 c
-3 -0.795609 -2.683901 -1.55874 -2.12132 -2.12132 c
-1.55874 -2.683901 -0.795609 -3 0 -3 c
cl

gsave
0.000 0.392 0.000 setrgbcolor
fill
grestore
stroke
grestore
} bind def
99.7441 370.032 o
119.904 370.032 o
grestore
gsave
135.744127 364.992500 translate
0.000000 rotate
/Cmmi10 findfont
14.4 scalefont
setfont
0.000000 0.359375 moveto
/lambda glyphshow

/Cmr10 findfont
10.08 scalefont
setfont
8.389847 -2.089525 moveto
/zero glyphshow

/BitstreamVeraSans-Roman findfont
14.4 scalefont
setfont
14.344903 0.359375 moveto
/space glyphshow

18.914300 0.359375 moveto
/f glyphshow

23.975030 0.359375 moveto
/u glyphshow

33.085748 0.359375 moveto
/l glyphshow

37.079583 0.359375 moveto
/l glyphshow


grestore

end
showpage
